# Blender v2.78 (sub 0) OBJ File: ''
# www.blender.org
mtllib bar_chair.mtl
o Circle_Circle.001
v 0.000000 0.566867 -0.214655
v -0.157798 0.566867 -0.157798
v -0.219642 0.566867 0.000000
v -0.211999 0.566867 0.157798
v 0.000000 0.566867 0.189897
v 0.211999 0.566867 0.157797
v 0.219642 0.566867 -0.000000
v 0.157798 0.566867 -0.157797
v 0.000000 0.660145 -0.209085
v -0.157798 0.660145 -0.157798
v -0.219642 0.660145 0.000000
v -0.211999 0.660145 0.157798
v 0.000000 0.660145 0.189897
v 0.211999 0.660145 0.157797
v 0.219642 0.660145 -0.000000
v 0.157798 0.660145 -0.157797
v -0.000000 0.597040 -0.222040
v -0.000000 0.629972 -0.222040
v 0.167132 0.629972 -0.166886
v 0.167132 0.597040 -0.166886
v 0.232635 0.597040 0.000246
v 0.232635 0.629972 0.000246
v 0.224539 0.629972 0.167378
v 0.224539 0.597040 0.167378
v 0.000000 0.597040 0.201376
v 0.000000 0.629972 0.201376
v -0.224539 0.629972 0.167378
v -0.224539 0.597040 0.167378
v -0.232635 0.597040 0.000246
v -0.232635 0.629972 0.000246
v -0.167132 0.629972 -0.166886
v -0.167132 0.597040 -0.166886
v 0.000000 0.670733 -0.142165
v -0.099438 0.670733 -0.100976
v -0.138411 0.670733 -0.001538
v -0.133594 0.670733 0.097901
v 0.000000 0.670733 0.118129
v 0.133594 0.670733 0.097901
v 0.138411 0.670733 -0.001538
v 0.099438 0.670733 -0.100976
v -0.156439 -0.011859 0.144930
v -0.103905 0.586323 0.092596
v -0.179816 -0.009821 0.144752
v -0.127282 0.588360 0.092417
v -0.156439 -0.013904 0.121553
v -0.103905 0.584277 0.069219
v -0.179816 -0.011867 0.121375
v -0.127282 0.586315 0.069041
v -0.107474 0.586315 -0.133460
v -0.159808 -0.011867 -0.185994
v -0.107653 0.584278 -0.110084
v -0.159987 -0.013904 -0.162618
v -0.130851 0.588360 -0.133460
v -0.183185 -0.009821 -0.185994
v -0.131029 0.586323 -0.110084
v -0.183364 -0.011859 -0.162618
v 0.000000 0.896086 -0.282889
v -0.075388 0.862842 -0.276315
v -0.104934 0.788886 -0.261690
v -0.101282 0.714931 -0.247065
v 0.000000 0.699887 -0.244090
v 0.101282 0.714931 -0.247065
v 0.104934 0.788886 -0.261690
v 0.075388 0.862842 -0.276315
v 0.075435 0.879501 -0.191305
v 0.105000 0.805498 -0.176671
v 0.101346 0.731496 -0.162037
v 0.000000 0.716442 -0.159060
v -0.101346 0.731496 -0.162037
v -0.105000 0.805498 -0.176671
v -0.075435 0.879501 -0.191305
v 0.000000 0.910154 -0.197367
v -0.126789 0.917706 -0.255848
v -0.126789 0.922552 -0.231340
v -0.176480 0.798172 -0.206743
v -0.176480 0.793326 -0.231251
v -0.170339 0.668946 -0.206655
v -0.170339 0.673792 -0.182147
v 0.000000 0.648491 -0.177143
v 0.000000 0.643644 -0.201651
v 0.170339 0.668946 -0.206655
v 0.170339 0.673792 -0.182147
v 0.176480 0.798172 -0.206743
v 0.176480 0.793326 -0.231251
v 0.126789 0.917706 -0.255848
v 0.126789 0.922552 -0.231340
v 0.000000 0.974072 -0.241528
v 0.000000 0.969226 -0.266036
v 0.119708 0.920229 -0.207547
v 0.166624 0.802796 -0.184325
v 0.160825 0.685363 -0.161102
v 0.000000 0.661474 -0.156378
v -0.160825 0.685363 -0.161102
v -0.166624 0.802796 -0.184325
v -0.119707 0.920229 -0.207547
v 0.000000 0.968872 -0.217166
v 0.119708 0.906502 -0.276965
v 0.166624 0.789068 -0.253742
v 0.160825 0.671635 -0.230519
v 0.000000 0.647746 -0.225795
v -0.160825 0.671635 -0.230519
v -0.166624 0.789068 -0.253742
v -0.119707 0.906502 -0.276965
v 0.000000 0.959289 -0.287404
v 0.177119 -0.011859 0.122492
v 0.124784 0.586323 0.069958
v 0.176940 -0.009821 0.145869
v 0.124606 0.588360 0.093335
v 0.153742 -0.013904 0.122492
v 0.101408 0.584277 0.069958
v 0.153563 -0.011867 0.145869
v 0.101229 0.586315 0.093335
v 0.159464 -0.011859 -0.185062
v 0.106930 0.586323 -0.132728
v 0.182841 -0.009821 -0.184884
v 0.130307 0.588360 -0.132550
v 0.159464 -0.013904 -0.161685
v 0.106930 0.584277 -0.109351
v 0.182841 -0.011867 -0.161507
v 0.130307 0.586315 -0.109173
v -0.125257 0.215976 0.094284
v 0.124852 0.215976 0.094284
v -0.125257 0.215976 -0.130788
v 0.124852 0.215976 -0.130788
v 0.152302 0.215976 -0.158239
v -0.152708 0.215976 -0.158239
v 0.152302 0.215976 0.121735
v -0.152708 0.215976 0.121735
v -0.125257 0.215976 0.094284
v 0.124852 0.215976 0.094284
v -0.125257 0.215976 -0.130788
v 0.124852 0.215976 -0.130788
v 0.152302 0.215976 -0.158239
v -0.152708 0.215976 -0.158239
v 0.152302 0.215976 0.121735
v -0.152708 0.215976 0.121735
v -0.125257 0.230309 0.094284
v 0.124852 0.230309 0.094284
v -0.125257 0.230309 -0.130788
v 0.124852 0.230309 -0.130788
v 0.152302 0.230309 -0.158239
v -0.152708 0.230309 -0.158239
v 0.152302 0.230309 0.121735
v -0.152708 0.230309 0.121735
vt 0.2952 0.1169
vt 0.5254 0.4073
vt 0.0886 0.1857
vt 0.1082 0.5847
vt 0.0958 0.3325
vt 0.1611 0.5122
vt 0.2990 0.4096
vt 0.2409 0.0316
vt 0.3122 0.0087
vt 0.3645 0.4129
vt 0.4433 0.7836
vt 0.3691 0.8086
vt 0.4033 0.4112
vt 0.4650 0.7916
vt 0.4087 0.8141
vt 0.1691 0.4097
vt 0.2461 0.7882
vt 0.1736 0.8075
vt 0.4433 0.0260
vt 0.4390 0.4100
vt 0.4650 0.0309
vt 0.4599 0.4112
vt 0.2461 0.0474
vt 0.2418 0.4126
vt 0.2409 0.7920
vt 0.2287 0.4101
vt 0.4681 0.7917
vt 0.3792 0.4095
vt 0.4544 0.4096
vt 0.3924 0.8140
vt 0.0261 0.0462
vt 0.0914 0.4092
vt 0.0218 0.4114
vt 0.0959 0.0225
vt 0.2957 0.0309
vt 0.3435 0.4112
vt 0.2906 0.4112
vt 0.3489 0.0084
vt 0.2182 0.0272
vt 0.2851 0.4133
vt 0.2139 0.4112
vt 0.2897 0.0066
vt 0.0261 0.7870
vt 0.0959 0.8071
vt 0.2957 0.7917
vt 0.3489 0.8141
vt 0.2182 0.7848
vt 0.2897 0.8090
vt 0.4681 0.0313
vt 0.3924 0.0086
vt 0.3635 0.5679
vt 0.1244 0.1860
vt 0.4295 0.6732
vt 0.2557 0.6539
vt 0.4018 0.2044
vt 0.4342 0.4226
vt 0.3461 0.2725
vt 0.0629 0.0878
vt 0.2287 0.1604
vt 0.0046 0.2997
vt 0.2583 0.8096
vt 0.5417 0.4426
vt 0.2155 0.0265
vt 0.9916 0.9583
vt 0.0019 0.9843
vt 0.0020 0.9582
vt 0.3991 0.3207
vt 0.3474 0.3709
vt 0.3111 0.3291
vt 0.2543 0.0331
vt 0.1754 0.4045
vt 0.1800 0.0080
vt 0.1003 0.0076
vt 0.2309 0.0216
vt 0.1662 0.4060
vt 0.1737 -0.0011
vt 0.4112 0.5640
vt 0.3547 0.5189
vt 0.4105 0.5189
vt 0.1675 0.4128
vt 0.0928 0.0071
vt 0.1721 0.0067
vt 0.2990 0.4474
vt 0.3228 0.5640
vt 0.5299 0.4363
vt 0.4595 0.3845
vt 0.4890 0.3507
vt 0.1003 0.8118
vt 0.0958 0.4041
vt 0.4650 0.4946
vt 0.4853 0.4385
vt 0.1135 -0.0011
vt 0.3398 0.4455
vt 0.0798 0.4066
vt 0.1907 0.8070
vt 0.1120 0.8070
vt 0.2462 0.0264
vt 0.0442 0.7846
vt 0.2543 0.7924
vt 0.2500 0.4075
vt 0.4977 0.5255
vt 0.4029 0.3656
vt 0.2634 0.6892
vt 0.1325 0.5870
vt 0.2592 0.5870
vt 0.1120 0.0062
vt 0.1584 0.4066
vt 0.0079 0.4245
vt 0.0622 0.6892
vt 0.2669 0.0286
vt 0.2365 0.4066
vt 0.0061 0.9609
vt 0.9908 0.9834
vt 0.0060 0.9870
vt 0.0287 0.0319
vt 0.0067 0.9570
vt 0.9861 0.9284
vt 0.9864 0.9545
vt 0.2669 0.7846
vt 0.0064 0.9088
vt 0.9889 0.8791
vt 0.9889 0.9052
vt 0.3830 0.5320
vt 0.4600 0.6018
vt 0.1155 0.2511
vt 0.0983 0.4203
vt 0.1721 0.8078
vt 0.0882 0.4133
vt 0.7654 0.0792
vt 0.7826 0.0624
vt 0.7826 0.0795
vt 0.1060 0.4060
vt 0.0604 0.7903
vt 0.0534 0.4060
vt 0.0442 0.0286
vt 0.0112 0.4066
vt 0.6960 0.0794
vt 0.7133 0.0621
vt 0.7133 0.0792
vt 0.0604 0.0216
vt 0.9919 0.8539
vt 0.0024 0.8798
vt 0.0025 0.8537
vt 0.0287 0.7912
vt 0.0244 0.4063
vt 0.4399 0.2048
vt 0.4335 0.4042
vt 0.3703 0.2820
vt 0.0215 0.0277
vt 0.0093 0.9091
vt 0.9862 0.9373
vt 0.0093 0.9353
vt 0.0215 0.7840
vt 0.0171 0.4111
vt 0.2353 0.1366
vt 0.2415 0.2390
vt 0.2309 0.7903
vt 0.2239 0.4060
vt 0.0352 0.1558
vt 0.2462 0.7828
vt 0.2418 0.4099
vt 0.5401 0.3989
vt 0.1737 0.8130
vt 0.0022 0.9320
vt 0.9918 0.9061
vt 0.9917 0.9322
vt 0.7480 0.0622
vt 0.7307 0.0793
vt 0.7307 0.0621
vt 0.6613 0.0623
vt 0.6786 0.0792
vt 0.6613 0.0794
vt 0.9876 0.9634
vt 0.0095 0.9875
vt 0.0094 0.9614
vt 0.9921 0.8278
vt 0.0025 0.8537
vt 0.0027 0.8277
vt 0.9916 0.9583
vt 0.0022 0.9320
vt 0.9917 0.9322
vt 0.9887 0.8530
vt 0.0065 0.8827
vt 0.0067 0.8567
vt 0.7654 0.0621
vt 0.7480 0.0793
vt 0.7480 0.0622
vt 0.6786 0.0792
vt 0.6960 0.0623
vt 0.6960 0.0794
vt 0.9919 0.8799
vt 0.0023 0.9059
vt 0.0024 0.8798
vt 0.9866 0.9545
vt 0.0070 0.9831
vt 0.0067 0.9570
vt 0.0061 0.9609
vt 0.9911 0.9313
vt 0.9909 0.9573
vt 0.9863 0.9635
vt 0.0093 0.9353
vt 0.9862 0.9373
vt 0.2515 0.5868
vt 0.2343 0.5699
vt 0.2515 0.5697
vt 0.7307 0.0623
vt 0.7133 0.0792
vt 0.7133 0.0621
vt 0.0064 0.9088
vt 0.9887 0.9312
vt 0.0062 0.9348
vt 0.6817 0.7392
vt 0.9932 0.8134
vt 0.6505 0.8090
vt 0.6545 0.0924
vt 0.9628 0.7427
vt 0.9972 0.0967
vt 0.6849 0.1630
vt 0.9613 0.8672
vt 0.0058 0.8831
vt 0.0056 0.8672
vt 0.9611 0.8513
vt 0.0057 0.8672
vt 0.0055 0.8514
vt 0.0062 0.9150
vt 0.9759 0.8987
vt 0.9761 0.9146
vt 0.9751 0.9343
vt 0.0054 0.9509
vt 0.0052 0.9350
vt 0.0000 0.0000
vt 0.0000 0.0000
vt 0.0000 0.0000
vt 0.0000 0.0000
vt 0.0000 0.0000
vt 0.0000 0.0000
vt 0.0000 0.0000
vt 0.0000 0.0000
vt 0.0000 0.0000
vt 0.0000 0.0000
vt 0.0000 0.0000
vt 0.0000 0.0000
vt 0.0000 0.0000
vt 0.0000 0.0000
vt 0.0000 0.0000
vt 0.0000 0.0000
vt 0.6465 0.8109
vt 0.9544 0.7402
vt 0.9849 0.8097
vt 0.9535 0.1697
vt 0.9838 0.1000
vt 0.6454 0.1012
vt 0.6768 0.7412
vt 0.6760 0.1706
vt 0.9801 0.8885
vt 0.0093 0.9011
vt 0.0093 0.8852
vt 0.9885 0.9143
vt 0.0064 0.9309
vt 0.9520 0.9669
vt 0.0091 0.9828
vt 0.0088 0.9669
vt 0.0055 0.8514
vt 0.9485 0.8357
vt 0.9487 0.8517
vt 0.2677 0.6743
vt 0.0688 0.5862
vt 0.0057 0.3824
vt 0.4974 0.1363
vt 0.4709 0.6743
vt 0.3691 0.0062
vt 0.4087 0.0084
vt 0.1736 0.0229
vt 0.3122 0.8141
vt 0.9914 0.9844
vt 0.1800 0.8122
vt 0.1907 0.0062
vt 0.9909 0.9573
vt 0.0064 0.9309
vt 0.0065 0.8827
vt 0.0928 0.8082
vt 0.7654 0.0621
vt 0.1135 0.8130
vt 0.6960 0.0623
vt 0.9918 0.8799
vt 0.9862 0.9112
vt 0.0023 0.9059
vt 0.7480 0.0793
vt 0.6786 0.0621
vt 0.9877 0.9895
vt 0.9919 0.8539
vt 0.0020 0.9582
vt 0.9885 0.8791
vt 0.7654 0.0793
vt 0.6786 0.0621
vt 0.9918 0.9061
vt 0.9869 0.9806
vt 0.0062 0.9348
vt 0.0094 0.9614
vt 0.2343 0.5870
vt 0.7307 0.0794
vt 0.9889 0.9052
vt 0.9660 0.1666
vt 0.9614 0.8831
vt 0.9613 0.8672
vt 0.0060 0.8991
vt 0.9753 0.9503
vt 0.9801 0.9044
vt 0.9887 0.9302
vt 0.9522 0.9828
vt 0.0053 0.8354
vn 0.0000 -1.0000 0.0000
vn 0.1300 0.9902 -0.0510
vn 0.2927 0.3577 -0.8868
vn 0.9174 0.3954 0.0444
vn -0.1401 0.3521 0.9254
vn -0.8651 0.3697 -0.3390
vn 0.8651 0.3697 -0.3390
vn 0.1401 0.3521 0.9254
vn -0.9174 0.3954 0.0444
vn -0.2862 0.3780 -0.8805
vn -0.3303 -0.2244 -0.9168
vn -0.3134 0.0000 -0.9496
vn -0.9174 -0.3954 0.0444
vn -0.9988 0.0000 0.0484
vn 0.1401 -0.3521 0.9254
vn 0.1497 0.0000 0.9887
vn 0.8651 -0.3697 -0.3390
vn 0.9310 0.0000 -0.3649
vn -0.8651 -0.3697 -0.3390
vn -0.9310 0.0000 -0.3649
vn -0.1401 -0.3521 0.9254
vn -0.1497 0.0000 0.9887
vn 0.9174 -0.3954 0.0444
vn 0.9988 0.0000 0.0484
vn 0.2927 -0.3577 -0.8868
vn 0.3134 0.0000 -0.9496
vn 0.0000 1.0000 0.0000
vn 0.0221 0.9891 0.1459
vn -0.1291 0.9916 0.0063
vn -0.0646 0.9857 -0.1560
vn 0.0449 0.9894 -0.1382
vn 0.1291 0.9916 0.0063
vn -0.0221 0.9891 0.1459
vn -0.1300 0.9902 -0.0510
vn -0.0000 0.0872 0.9962
vn 0.1291 0.1862 0.9740
vn 0.9174 -0.1203 -0.3793
vn 0.9988 -0.0475 0.0094
vn -0.1401 -0.9761 -0.1659
vn -0.1291 0.1862 0.9740
vn -0.9310 0.3580 -0.0708
vn -0.0221 0.0487 0.9986
vn 0.0536 0.3191 0.9462
vn 0.9310 0.3580 -0.0708
vn -0.0536 0.3191 0.9462
vn -0.1497 -0.9699 0.1918
vn 0.0221 0.0487 0.9986
vn 0.0000 0.1940 0.9810
vn 0.3827 0.9063 -0.1792
vn -0.8651 0.2609 -0.4285
vn 0.3557 0.7709 -0.5283
vn 0.8651 0.2609 -0.4285
vn -0.1300 0.2421 0.9615
vn 0.1300 0.2421 0.9615
vn 0.1258 -0.1984 -0.9720
vn -0.3827 0.9063 -0.1792
vn 0.0215 -0.3310 -0.9434
vn -0.3557 0.9140 0.1951
vn -0.9962 0.0872 -0.0000
vn 0.9174 0.0331 0.3965
vn 0.0076 0.0868 -0.9962
vn 0.3557 0.9140 0.1951
vn 0.9962 -0.0872 0.0000
vn 0.1269 -0.1434 -0.9815
vn -0.0215 -0.3310 -0.9434
vn -0.9988 -0.0475 0.0094
vn -0.0868 -0.9924 -0.0872
vn 0.1401 -0.8395 0.5249
vn 0.0000 -0.1940 -0.9810
vn -0.4001 0.8310 -0.3864
vn 0.0868 0.9924 0.0872
vn -0.1401 -0.8395 0.5249
vn -0.9962 0.0868 -0.0076
vn 0.8651 0.4043 0.2969
vn -0.0555 -0.0711 -0.9959
vn -0.8651 0.4043 0.2969
vn -0.0076 -0.0868 0.9962
vn -0.9174 0.0331 0.3965
vn -0.1269 -0.1434 -0.9815
vn 0.1401 -0.9761 -0.1659
vn -0.1258 -0.1984 -0.9720
vn -0.9174 -0.1203 -0.3793
vn 0.0555 -0.0711 -0.9959
vn 0.1497 -0.9699 0.1918
vn 0.0000 -0.0872 -0.9962
vn -0.0872 -0.9924 0.0868
vn 0.0872 0.9924 -0.0868
vn 0.9962 -0.0868 0.0076
vn 0.9962 0.0872 0.0000
vn -0.0076 0.0868 0.9962
vn -0.9962 -0.0872 -0.0000
vn 0.0868 -0.9924 0.0872
vn -0.0868 0.9924 -0.0872
vn 0.0076 -0.0868 -0.9962
vn -0.0000 0.0872 -0.9962
vn 0.9962 0.0868 0.0076
vn -0.0000 -0.0872 0.9962
vn 0.0872 -0.9924 -0.0868
vn -0.0872 0.9924 0.0868
vn -0.9962 -0.0868 -0.0076
vn 0.0000 0.0000 1.0000
vn 0.0000 0.0000 -1.0000
vn 1.0000 0.0000 0.0000
vn -1.0000 0.0000 0.0000
vn 0.2862 0.3780 -0.8805
vn -0.2927 0.3577 -0.8868
vn -0.2927 -0.3577 -0.8868
vn 0.3303 -0.2244 -0.9168
vn -0.0449 0.9894 -0.1382
vn 0.0646 0.9857 -0.1559
vn 0.4001 0.8310 -0.3864
vn -0.3557 0.7709 -0.5283
usemtl None
s off
f 7/1/1 5/2/1 8/3/1
f 15/4/2 40/5/2 39/6/2
f 18/7/3 16/8/3 19/9/3
f 22/10/4 14/11/4 23/12/4
f 26/13/5 12/14/5 27/15/5
f 30/16/6 10/17/6 31/18/6
f 22/10/7 16/19/7 15/20/7
f 26/13/8 14/21/8 13/22/8
f 30/16/9 12/23/9 11/24/9
f 18/7/10 10/25/10 9/26/10
f 2/27/11 17/28/11 1/29/11
f 32/30/12 18/7/12 17/28/12
f 4/31/13 29/32/13 3/33/13
f 28/34/14 30/16/14 29/32/14
f 6/35/15 25/36/15 5/37/15
f 24/38/16 26/13/16 25/36/16
f 8/39/17 21/40/17 7/41/17
f 20/42/18 22/10/18 21/40/18
f 2/43/19 29/32/19 32/44/19
f 29/32/20 31/18/20 32/44/20
f 4/45/21 25/36/21 28/46/21
f 25/36/22 27/15/22 28/46/22
f 6/47/23 21/40/23 24/48/23
f 21/40/24 23/12/24 24/48/24
f 8/49/25 17/28/25 20/50/25
f 17/28/26 19/9/26 20/50/26
f 37/51/27 40/5/27 33/52/27
f 13/53/28 38/54/28 37/51/28
f 11/55/29 36/56/29 35/57/29
f 9/58/30 34/59/30 33/52/30
f 9/58/31 40/5/31 16/60/31
f 15/4/32 38/54/32 14/61/32
f 13/53/33 36/56/33 12/62/33
f 11/55/34 34/59/34 10/63/34
f 42/64/35 43/65/35 41/66/35
f 90/67/36 67/68/36 91/69/36
f 99/70/37 84/71/37 81/72/37
f 84/71/38 82/73/38 81/72/38
f 101/74/39 80/75/39 77/76/39
f 94/77/40 69/78/40 70/79/40
f 76/80/41 74/81/41 73/82/41
f 92/83/42 69/78/42 93/84/42
f 96/85/43 65/86/43 89/87/43
f 84/71/44 86/88/44 83/89/44
f 96/85/45 71/90/45 72/91/45
f 80/75/46 78/92/46 77/76/46
f 92/83/47 67/68/47 68/93/47
f 68/93/48 65/86/48 72/91/48
f 88/94/49 86/95/49 85/96/49
f 103/97/50 76/80/50 73/82/50
f 97/98/51 88/94/51 85/96/51
f 97/99/52 84/71/52 98/100/52
f 94/77/53 71/90/53 95/101/53
f 90/67/54 65/86/54 66/102/54
f 98/103/55 62/104/55 63/105/55
f 73/106/56 87/107/56 88/94/56
f 100/108/57 62/104/57 99/109/57
f 87/107/58 95/110/58 96/111/58
f 56/112/59 53/113/59 54/114/59
f 83/89/60 91/115/60 82/73/60
f 53/116/61 50/117/61 54/118/61
f 87/107/62 89/119/62 86/95/62
f 49/120/63 52/121/63 50/122/63
f 98/103/64 64/123/64 97/124/64
f 100/108/65 60/125/65 61/126/65
f 77/127/66 75/128/66 76/80/66
f 54/129/67 52/130/67 56/131/67
f 79/132/68 91/133/68 92/134/68
f 63/105/69 61/126/69 64/123/69
f 103/135/70 88/94/70 104/136/70
f 49/137/71 55/138/71 51/139/71
f 79/132/72 93/140/72 78/92/72
f 44/141/73 47/142/73 43/143/73
f 83/89/74 89/144/74 90/145/74
f 103/146/75 57/147/75 58/148/75
f 75/128/76 95/149/76 74/81/76
f 52/150/77 55/151/77 56/152/77
f 75/128/78 93/153/78 94/154/78
f 102/155/79 58/148/79 59/156/79
f 99/157/80 80/75/80 100/158/80
f 102/155/81 60/125/81 101/159/81
f 101/160/82 76/80/82 102/161/82
f 97/124/83 57/147/83 104/162/83
f 81/163/84 79/132/84 80/75/84
f 48/164/85 45/165/85 47/166/85
f 43/167/86 45/168/86 41/169/86
f 44/170/87 46/171/87 48/172/87
f 46/173/88 41/174/88 45/175/88
f 106/176/89 107/177/89 105/178/89
f 107/179/90 112/180/90 111/181/90
f 112/182/91 109/183/91 111/184/91
f 111/185/92 105/186/92 107/187/92
f 108/188/93 110/189/93 112/190/93
f 110/191/94 105/192/94 109/193/94
f 114/194/95 115/195/95 113/196/95
f 116/197/96 119/198/96 115/199/96
f 119/200/97 118/201/97 117/202/97
f 115/203/98 117/204/98 113/205/98
f 116/206/99 118/207/99 120/208/99
f 117/209/100 114/210/100 113/211/100
f 124/212/1 126/213/1 125/214/1
f 127/215/1 124/212/1 125/214/1
f 123/216/1 128/217/1 126/213/1
f 128/217/1 122/218/1 127/215/1
f 132/219/101 139/220/101 131/221/101
f 129/222/102 138/223/102 130/224/102
f 133/225/103 143/226/103 135/227/103
f 136/228/104 142/229/104 134/230/104
f 123/231/101 132/232/101 131/233/101
f 128/234/101 135/235/101 136/236/101
f 125/237/101 134/238/101 133/239/101
f 124/240/101 130/241/101 132/232/101
f 121/242/101 131/233/101 129/243/101
f 126/244/101 136/236/101 134/238/101
f 127/245/101 133/239/101 135/235/101
f 122/246/101 129/243/101 130/241/101
f 142/247/27 140/248/27 141/249/27
f 141/249/27 138/250/27 143/251/27
f 144/252/27 139/253/27 142/247/27
f 143/251/27 137/254/27 144/252/27
f 135/255/101 144/256/101 136/257/101
f 134/258/102 141/259/102 133/225/102
f 130/260/104 140/261/104 132/262/104
f 131/263/103 137/264/103 129/265/103
f 3/266/1 2/267/1 5/2/1
f 1/268/1 8/3/1 5/2/1
f 7/1/1 6/269/1 5/2/1
f 5/2/1 4/270/1 3/266/1
f 2/267/1 1/268/1 5/2/1
f 15/4/2 16/60/2 40/5/2
f 18/7/105 9/26/105 16/8/105
f 22/10/4 15/20/4 14/11/4
f 26/13/5 13/22/5 12/14/5
f 30/16/6 11/24/6 10/17/6
f 22/10/7 19/271/7 16/19/7
f 26/13/8 23/272/8 14/21/8
f 30/16/9 27/273/9 12/23/9
f 18/7/106 31/274/106 10/25/106
f 2/27/107 32/30/107 17/28/107
f 32/30/12 31/274/12 18/7/12
f 4/31/13 28/34/13 29/32/13
f 28/34/14 27/273/14 30/16/14
f 6/35/15 24/38/15 25/36/15
f 24/38/16 23/272/16 26/13/16
f 8/39/17 20/42/17 21/40/17
f 20/42/18 19/271/18 22/10/18
f 2/43/19 3/33/19 29/32/19
f 29/32/20 30/16/20 31/18/20
f 4/45/21 5/37/21 25/36/21
f 25/36/22 26/13/22 27/15/22
f 6/47/23 7/41/23 21/40/23
f 21/40/24 22/10/24 23/12/24
f 8/49/108 1/29/108 17/28/108
f 17/28/26 18/7/26 19/9/26
f 33/52/27 34/59/27 37/51/27
f 35/57/27 36/56/27 37/51/27
f 37/51/27 38/54/27 39/6/27
f 39/6/27 40/5/27 37/51/27
f 34/59/27 35/57/27 37/51/27
f 13/53/28 14/61/28 38/54/28
f 11/55/29 12/62/29 36/56/29
f 9/58/109 10/63/109 34/59/109
f 9/58/110 33/52/110 40/5/110
f 15/4/32 39/6/32 38/54/32
f 13/53/33 37/51/33 36/56/33
f 11/55/34 35/57/34 34/59/34
f 42/64/35 44/275/35 43/65/35
f 90/67/36 66/102/36 67/68/36
f 99/70/37 98/100/37 84/71/37
f 84/71/38 83/89/38 82/73/38
f 101/74/39 100/158/39 80/75/39
f 94/77/40 93/84/40 69/78/40
f 76/80/41 75/128/41 74/81/41
f 92/83/42 68/93/42 69/78/42
f 96/85/43 72/91/43 65/86/43
f 84/71/44 85/276/44 86/88/44
f 96/85/45 95/101/45 71/90/45
f 80/75/46 79/132/46 78/92/46
f 92/83/47 91/69/47 67/68/47
f 72/91/48 71/90/48 68/93/48
f 70/79/48 69/78/48 68/93/48
f 68/93/48 67/68/48 66/102/48
f 66/102/48 65/86/48 68/93/48
f 71/90/48 70/79/48 68/93/48
f 88/94/49 87/107/49 86/95/49
f 103/97/50 102/161/50 76/80/50
f 97/98/111 104/136/111 88/94/111
f 97/99/52 85/276/52 84/71/52
f 94/77/53 70/79/53 71/90/53
f 90/67/54 89/87/54 65/86/54
f 98/103/55 99/109/55 62/104/55
f 73/106/56 74/277/56 87/107/56
f 100/108/57 61/126/57 62/104/57
f 87/107/58 74/277/58 95/110/58
f 56/112/59 55/278/59 53/113/59
f 83/89/60 90/145/60 91/115/60
f 53/116/61 49/279/61 50/117/61
f 87/107/62 96/111/62 89/119/62
f 49/120/63 51/280/63 52/121/63
f 98/103/64 63/105/64 64/123/64
f 100/108/65 101/159/65 60/125/65
f 77/127/66 78/281/66 75/128/66
f 54/129/67 50/282/67 52/130/67
f 79/132/68 82/283/68 91/133/68
f 59/156/69 58/148/69 61/126/69
f 57/147/69 64/123/69 61/126/69
f 63/105/69 62/104/69 61/126/69
f 61/126/69 60/125/69 59/156/69
f 58/148/69 57/147/69 61/126/69
f 103/135/112 73/106/112 88/94/112
f 49/137/71 53/284/71 55/138/71
f 79/132/72 92/134/72 93/140/72
f 44/141/73 48/285/73 47/142/73
f 83/89/74 86/88/74 89/144/74
f 103/146/75 104/162/75 57/147/75
f 75/128/76 94/154/76 95/149/76
f 52/150/77 51/286/77 55/151/77
f 75/128/78 78/281/78 93/153/78
f 102/155/79 103/146/79 58/148/79
f 99/157/80 81/163/80 80/75/80
f 102/155/81 59/156/81 60/125/81
f 101/160/82 77/127/82 76/80/82
f 97/124/83 64/123/83 57/147/83
f 81/163/84 82/283/84 79/132/84
f 48/164/85 46/287/85 45/165/85
f 43/167/86 47/288/86 45/168/86
f 44/170/87 42/289/87 46/171/87
f 46/173/88 42/290/88 41/174/88
f 106/176/89 108/291/89 107/177/89
f 107/179/90 108/292/90 112/180/90
f 112/182/91 110/293/91 109/183/91
f 111/185/92 109/294/92 105/186/92
f 108/188/93 106/295/93 110/189/93
f 110/191/94 106/296/94 105/192/94
f 114/194/95 116/297/95 115/195/95
f 116/197/96 120/298/96 119/198/96
f 119/200/97 120/299/97 118/201/97
f 115/203/98 119/300/98 117/204/98
f 116/206/99 114/301/99 118/207/99
f 117/209/100 118/302/100 114/210/100
f 124/212/1 123/216/1 126/213/1
f 127/215/1 122/218/1 124/212/1
f 123/216/1 121/303/1 128/217/1
f 128/217/1 121/303/1 122/218/1
f 132/219/101 140/304/101 139/220/101
f 129/222/102 137/305/102 138/223/102
f 133/225/103 141/306/103 143/226/103
f 136/228/104 144/307/104 142/229/104
f 123/231/101 124/240/101 132/232/101
f 128/234/101 127/245/101 135/235/101
f 125/237/101 126/244/101 134/238/101
f 124/240/101 122/246/101 130/241/101
f 121/242/101 123/231/101 131/233/101
f 126/244/101 128/234/101 136/236/101
f 127/245/101 125/237/101 133/239/101
f 122/246/101 121/242/101 129/243/101
f 142/247/27 139/253/27 140/248/27
f 141/249/27 140/248/27 138/250/27
f 144/252/27 137/254/27 139/253/27
f 143/251/27 138/250/27 137/254/27
f 135/255/101 143/308/101 144/256/101
f 134/258/102 142/309/102 141/259/102
f 130/260/104 138/310/104 140/261/104
f 131/263/103 139/311/103 137/264/103
