# Blender v2.78 (sub 0) OBJ File: ''
# www.blender.org
mtllib coffe_table.mtl
o Circle.003_Circle.004
v -0.000000 0.518025 -0.635560
v -0.157083 0.518025 -0.587181
v -0.290251 0.518025 -0.449409
v -0.379231 0.518025 -0.243218
v -0.410477 0.518025 0.000000
v -0.379231 0.518025 0.243218
v -0.290251 0.518025 0.449409
v -0.157083 0.518025 0.587181
v -0.000000 0.518025 0.635560
v 0.157083 0.518025 0.587181
v 0.290251 0.518025 0.449409
v 0.379231 0.518025 0.243218
v 0.410477 0.518025 -0.000000
v 0.379231 0.518025 -0.243218
v 0.290251 0.518025 -0.449409
v 0.157083 0.518025 -0.587181
v -0.212905 0.001219 -0.322206
v -0.212905 0.486554 -0.322206
v -0.212905 0.001219 -0.342573
v -0.212905 0.486554 -0.342573
v 0.217792 0.001219 -0.322206
v 0.217792 0.486554 -0.322206
v 0.217792 0.001219 -0.342573
v 0.217792 0.486554 -0.342573
v -0.160954 0.162997 -0.322206
v -0.160954 0.324776 -0.322206
v -0.160954 0.324776 -0.342573
v -0.160954 0.162997 -0.342573
v 0.165841 0.324776 -0.342573
v 0.165841 0.162997 -0.342573
v 0.165841 0.324776 -0.322206
v 0.165841 0.162997 -0.322206
v 0.074227 0.001219 -0.342573
v -0.069339 0.001219 -0.342573
v -0.069339 0.486554 -0.342573
v 0.074226 0.486554 -0.342573
v -0.069339 0.001219 -0.322206
v 0.074226 0.001219 -0.322206
v 0.074227 0.486554 -0.322206
v -0.069339 0.486554 -0.322206
v 0.074227 0.162997 -0.322206
v -0.069339 0.162997 -0.322206
v 0.074227 0.324776 -0.322206
v -0.069339 0.324776 -0.322206
v -0.069339 0.162997 -0.342573
v 0.074226 0.162997 -0.342573
v -0.069339 0.324776 -0.342573
v 0.074226 0.324776 -0.342573
v -0.212905 0.001219 0.364338
v -0.212905 0.486554 0.364338
v -0.212905 0.001219 0.343972
v -0.212905 0.486554 0.343972
v 0.217792 0.001219 0.364338
v 0.217792 0.486554 0.364338
v 0.217792 0.001219 0.343972
v 0.217792 0.486554 0.343972
v -0.160954 0.162997 0.364338
v -0.160954 0.324776 0.364338
v -0.160954 0.324776 0.343972
v -0.160954 0.162997 0.343972
v 0.165841 0.324776 0.343972
v 0.165841 0.162997 0.343972
v 0.165841 0.324776 0.364338
v 0.165841 0.162997 0.364338
v 0.074227 0.001219 0.343972
v -0.069339 0.001219 0.343972
v -0.069339 0.486554 0.343972
v 0.074226 0.486554 0.343972
v -0.069339 0.001219 0.364338
v 0.074226 0.001219 0.364338
v 0.074227 0.486554 0.364338
v -0.069339 0.486554 0.364338
v 0.074227 0.162997 0.364338
v -0.069339 0.162997 0.364338
v 0.074227 0.324776 0.364338
v -0.069339 0.324776 0.364338
v -0.069339 0.162997 0.343972
v 0.074226 0.162997 0.343972
v -0.069339 0.324776 0.343972
v 0.074226 0.324776 0.343972
v -0.000000 0.475320 -0.635560
v -0.157083 0.475320 -0.587181
v -0.290251 0.475320 -0.449409
v -0.379231 0.475320 -0.243218
v -0.410477 0.475320 0.000000
v -0.379231 0.475320 0.243218
v -0.290251 0.475320 0.449409
v -0.157083 0.475320 0.587181
v -0.000000 0.475320 0.635560
v 0.157083 0.475320 0.587181
v 0.290251 0.475320 0.449409
v 0.379231 0.475320 0.243218
v 0.410477 0.475320 -0.000000
v 0.379231 0.475320 -0.243218
v 0.290251 0.475320 -0.449409
v 0.157083 0.475320 -0.587181
v 0.297876 0.494893 0.461215
v 0.389193 0.494893 0.249608
v -0.389194 0.494893 -0.249607
v -0.421260 0.494893 0.000000
v 0.421260 0.494893 -0.000000
v -0.389194 0.494893 0.249607
v 0.389193 0.494893 -0.249608
v -0.297876 0.494893 0.461214
v 0.297876 0.494893 -0.461215
v -0.161209 0.494893 0.602606
v 0.161209 0.494893 -0.602606
v -0.000000 0.494893 0.652256
v -0.000000 0.494893 -0.652256
v -0.161209 0.494893 -0.602606
v 0.161209 0.494893 0.602606
v -0.297876 0.494893 -0.461214
v -0.149425 0.195079 -0.331121
v -0.149425 0.177162 -0.331121
v -0.149425 0.195079 0.354439
v -0.149425 0.177162 0.354439
v 0.147284 0.177162 0.354439
v 0.147284 0.195079 0.354439
v 0.147284 0.177162 -0.331121
v 0.147284 0.195079 -0.331121
vt 0.7291 0.6307
vt 0.7397 0.7182
vt 0.7291 0.7182
vt 0.6124 0.0027
vt 0.7892 0.3272
vt 0.6124 0.3272
vt 0.7291 0.8921
vt 0.7186 0.8047
vt 0.7291 0.8047
vt 0.6073 -0.0019
vt 0.7874 0.3288
vt 0.6073 0.3288
vt 0.7713 0.8627
vt 0.7608 0.7854
vt 0.7713 0.7854
vt 0.8095 0.8627
vt 0.7989 0.7854
vt 0.8095 0.7854
vt 0.6073 0.9900
vt 0.7874 0.6594
vt 0.8895 0.9900
vt 0.6073 0.6594
vt 0.7291 0.7175
vt 0.7186 0.6307
vt 0.7291 0.6307
vt 0.7186 0.7175
vt 0.6124 0.9761
vt 0.7892 0.6517
vt 0.8895 0.9761
vt 0.6124 0.6517
vt 0.7291 0.8053
vt 0.7397 0.8921
vt 0.7291 0.8921
vt 0.7397 0.8053
vt 0.1586 0.3272
vt 0.3354 0.6517
vt 0.1586 0.6517
vt 0.3354 0.3272
vt 0.3354 0.9761
vt 0.0584 0.9761
vt 0.1449 0.3288
vt 0.3250 0.6594
vt 0.1449 0.6594
vt 0.3250 0.3288
vt 0.3250 0.9900
vt 0.0427 0.9900
vt 0.8095 0.7080
vt 0.7989 0.6307
vt 0.8095 0.6307
vt 0.7989 0.7080
vt 0.7713 0.7080
vt 0.7608 0.6307
vt 0.7713 0.6307
vt 0.7608 0.7080
vt 0.3250 -0.0019
vt 0.3354 0.0027
vt 0.7397 0.6307
vt 0.7502 0.7182
vt 0.7397 0.7182
vt 0.6059 0.0016
vt 0.7842 0.3289
vt 0.6059 0.3289
vt 0.7186 0.8921
vt 0.7080 0.8047
vt 0.7186 0.8047
vt 0.5983 0.0052
vt 0.7767 0.3327
vt 0.5983 0.3327
vt 0.7608 0.8627
vt 0.7502 0.7854
vt 0.7608 0.7854
vt 0.7989 0.8627
vt 0.7884 0.7854
vt 0.7989 0.7854
vt 0.5983 0.9876
vt 0.7767 0.6602
vt 0.8779 0.9876
vt 0.5983 0.6602
vt 0.7186 0.7175
vt 0.7080 0.6307
vt 0.7186 0.6307
vt 0.7080 0.7175
vt 0.6059 0.9835
vt 0.7842 0.6562
vt 0.8853 0.9835
vt 0.6059 0.6562
vt 0.7397 0.8053
vt 0.7502 0.8921
vt 0.7397 0.8921
vt 0.7502 0.8053
vt 0.1481 0.3289
vt 0.3264 0.6562
vt 0.1481 0.6562
vt 0.3264 0.3289
vt 0.3264 0.9835
vt 0.0470 0.9835
vt 0.1403 0.3327
vt 0.3187 0.6602
vt 0.1403 0.6602
vt 0.3187 0.3327
vt 0.3187 0.9876
vt 0.0391 0.9876
vt 0.7989 0.7080
vt 0.7884 0.6307
vt 0.7989 0.6307
vt 0.7884 0.7080
vt 0.7608 0.7080
vt 0.7502 0.6307
vt 0.7608 0.6307
vt 0.7502 0.7080
vt 0.3187 0.0052
vt 0.3264 0.0016
vt 0.9885 0.4516
vt 0.9992 0.3440
vt 0.9987 0.4550
vt 0.9646 0.5860
vt 0.9750 0.4550
vt 0.9748 0.5860
vt 0.9883 0.5860
vt 0.9985 0.5860
vt 0.9750 0.7170
vt 0.9648 0.7205
vt 0.9987 0.7170
vt 0.9885 0.7205
vt 0.9756 0.8281
vt 0.9654 0.8345
vt 0.9992 0.8281
vt 0.9890 0.8345
vt 0.9764 0.9023
vt 0.9662 0.9106
vt 1.0000 0.9023
vt 0.9898 0.9106
vt 0.6572 0.6307
vt 0.6673 0.7176
vt 0.6572 0.7176
vt 0.6793 0.8044
vt 0.6894 0.7176
vt 0.6894 0.8022
vt 0.6793 0.6307
vt 0.6793 0.7176
vt 0.6572 0.8044
vt 0.6673 0.8022
vt 0.9654 0.3376
vt 0.9764 0.2697
vt 0.9756 0.3440
vt 0.9890 0.3376
vt 1.0000 0.2697
vt 0.9648 0.4516
vt 0.9534 0.3440
vt 0.9529 0.4550
vt 0.9779 0.2697
vt 0.9771 0.3440
vt 0.9542 0.2697
vt 0.6452 0.7176
vt 0.6452 0.8022
vt 0.6673 0.7176
vt 0.6673 0.8022
vt 0.9779 0.9023
vt 0.9542 0.9023
vt 0.9771 0.8281
vt 0.9534 0.8281
vt 0.9765 0.7170
vt 0.9529 0.7170
vt 0.9765 0.4550
vt 0.9764 0.5860
vt 0.9527 0.5860
vt 0.5962 0.9697
vt 0.6257 0.0155
vt 0.7437 0.1187
vt 0.6987 1.0000
vt 0.7080 0.6307
vt 0.7080 1.0000
vt 0.7806 0.6307
vt 0.7713 0.7905
vt 0.7713 0.6307
vt 0.6894 1.0000
vt 0.6987 0.6307
vt 0.6987 1.0000
vt 0.0093 0.6791
vt 0.0000 0.8389
vt 0.0000 0.6791
vt 0.7989 0.2614
vt 0.6452 0.6307
vt 0.6452 0.2614
vt 0.9527 0.2614
vt 0.7989 0.6307
vt 0.7989 0.2614
vt 0.7397 0.6307
vt 0.8895 0.0027
vt 0.7186 0.8921
vt 0.8895 -0.0019
vt 0.7608 0.8627
vt 0.7989 0.8627
vt 0.0427 -0.0019
vt 0.0584 0.0027
vt 0.7502 0.6307
vt 0.8853 0.0016
vt 0.7080 0.8921
vt 0.8779 0.0052
vt 0.7502 0.8627
vt 0.7884 0.8627
vt 0.0391 0.0052
vt 0.0470 0.0016
vt 0.6673 0.6329
vt 0.6894 0.6329
vt 0.9662 0.2614
vt 0.9898 0.2614
vt 0.6673 0.6329
vt 0.6452 0.6329
vt 0.0936 0.5300
vt 0.1282 0.3303
vt 0.1160 0.7255
vt 0.2145 0.1569
vt 0.3394 0.0362
vt 0.3098 0.9904
vt 0.4838 -0.0134
vt 0.4518 1.0194
vt 0.8196 0.2804
vt 0.7210 0.8490
vt 0.8419 0.4760
vt 0.8073 0.6756
vt 0.1919 0.8872
vt 0.6987 0.6307
vt 0.7806 0.7905
vt 0.6894 0.6307
vt 0.0093 0.8389
vt 0.7989 0.6307
vt 0.9527 0.6307
vn -0.9521 -0.3057 0.0000
vn 0.0000 0.0000 -1.0000
vn 0.9521 -0.3057 0.0000
vn 0.0000 0.0000 1.0000
vn 0.0000 -1.0000 -0.0000
vn 0.0000 1.0000 -0.0000
vn 0.9521 0.3057 0.0000
vn 1.0000 0.0000 0.0000
vn -0.9521 0.3057 0.0000
vn -1.0000 0.0000 0.0000
vn 0.7885 -0.5124 0.3403
vn -0.8704 -0.4795 -0.1118
vn 0.8704 -0.4795 0.1118
vn -0.8704 -0.4795 0.1118
vn 0.8704 -0.4795 -0.1118
vn -0.7885 -0.5124 0.3403
vn 0.7885 -0.5124 -0.3403
vn -0.5892 -0.5731 0.5696
vn 0.5892 -0.5731 -0.5696
vn -0.2281 -0.6318 0.7408
vn -0.2281 -0.6319 -0.7408
vn 0.2281 -0.6318 -0.7408
vn 0.2281 -0.6319 0.7408
vn -0.5892 -0.5731 -0.5696
vn 0.5892 -0.5731 0.5696
vn -0.7885 -0.5124 -0.3403
vn -0.8196 0.4507 -0.3537
vn 0.6188 0.5092 0.5981
vn -0.6188 0.5092 -0.5981
vn 0.2423 0.5678 0.7867
vn 0.2423 0.5678 -0.7867
vn -0.2423 0.5678 -0.7867
vn -0.2423 0.5678 0.7867
vn 0.6188 0.5092 -0.5981
vn -0.6188 0.5092 0.5981
vn 0.8196 0.4507 -0.3537
vn -0.8196 0.4507 0.3537
vn 0.9003 0.4197 -0.1157
vn -0.9003 0.4197 0.1157
vn 0.9003 0.4197 0.1157
vn -0.9003 0.4197 -0.1157
vn 0.8196 0.4507 0.3537
vn -0.2281 -0.6319 0.7408
vn -0.2281 -0.6318 -0.7408
vn 0.2281 -0.6319 -0.7408
vn 0.2281 -0.6318 0.7408
usemtl None
s off
f 18/1/1 27/2/1 26/3/1
f 36/4/2 29/5/2 48/6/2
f 24/7/3 31/8/3 29/9/3
f 40/10/4 26/11/4 44/12/4
f 23/13/5 38/14/5 33/15/5
f 20/16/6 40/17/6 35/18/6
f 37/19/4 25/20/4 17/21/4
f 44/12/4 25/20/4 42/22/4
f 30/23/7 21/24/7 23/25/7
f 29/9/8 32/26/8 30/23/8
f 33/27/2 30/28/2 23/29/2
f 48/6/2 30/28/2 46/30/2
f 25/31/9 19/32/9 17/33/9
f 26/3/10 28/34/10 25/31/10
f 27/35/2 45/36/2 28/37/2
f 47/38/2 46/30/2 45/36/2
f 28/37/2 34/39/2 19/40/2
f 34/39/2 46/30/2 33/27/2
f 31/41/4 41/42/4 32/43/4
f 43/44/4 42/22/4 41/42/4
f 32/43/4 38/45/4 21/46/4
f 38/45/4 42/22/4 37/19/4
f 36/47/6 22/48/6 24/49/6
f 36/47/6 40/17/6 39/50/6
f 34/51/5 17/52/5 19/53/5
f 34/51/5 38/14/5 37/54/5
f 31/41/4 39/55/4 43/44/4
f 39/55/4 44/12/4 43/44/4
f 27/35/2 35/56/2 47/38/2
f 35/56/2 48/6/2 47/38/2
f 50/57/1 59/58/1 58/59/1
f 68/60/2 61/61/2 80/62/2
f 56/63/3 63/64/3 61/65/3
f 72/66/4 58/67/4 76/68/4
f 55/69/5 70/70/5 65/71/5
f 52/72/6 72/73/6 67/74/6
f 69/75/4 57/76/4 49/77/4
f 76/68/4 57/76/4 74/78/4
f 62/79/7 53/80/7 55/81/7
f 61/65/8 64/82/8 62/79/8
f 65/83/2 62/84/2 55/85/2
f 80/62/2 62/84/2 78/86/2
f 57/87/9 51/88/9 49/89/9
f 58/59/10 60/90/10 57/87/10
f 59/91/2 77/92/2 60/93/2
f 79/94/2 78/86/2 77/92/2
f 60/93/2 66/95/2 51/96/2
f 66/95/2 78/86/2 65/83/2
f 63/97/4 73/98/4 64/99/4
f 75/100/4 74/78/4 73/98/4
f 64/99/4 70/101/4 53/102/4
f 70/101/4 74/78/4 69/75/4
f 68/103/6 54/104/6 56/105/6
f 68/103/6 72/73/6 71/106/6
f 66/107/5 49/108/5 51/109/5
f 66/107/5 70/70/5 69/110/5
f 63/97/4 71/111/4 75/100/4
f 71/111/4 76/68/4 75/100/4
f 59/91/2 67/112/2 79/94/2
f 67/112/2 80/62/2 79/94/2
f 98/113/11 91/114/11 92/115/11
f 100/116/12 84/117/12 85/118/12
f 101/119/13 92/115/13 93/120/13
f 100/116/14 86/121/14 102/122/14
f 101/119/15 94/123/15 103/124/15
f 102/122/16 87/125/16 104/126/16
f 103/124/17 95/127/17 105/128/17
f 104/126/18 88/129/18 106/130/18
f 105/128/19 96/131/19 107/132/19
f 106/133/20 89/134/20 108/135/20
f 110/136/21 81/137/21 82/138/21
f 107/139/22 81/137/22 109/140/22
f 111/141/23 89/134/23 90/142/23
f 112/143/24 82/144/24 83/145/24
f 97/146/25 90/147/25 91/114/25
f 99/148/26 83/145/26 84/117/26
f 3/149/27 99/148/27 4/150/27
f 10/151/28 97/146/28 11/152/28
f 2/153/29 112/143/29 3/149/29
f 9/154/30 111/141/30 10/155/30
f 1/156/31 107/139/31 109/140/31
f 1/156/32 110/136/32 2/157/32
f 9/154/33 106/133/33 108/135/33
f 16/158/34 105/128/34 107/132/34
f 8/159/35 104/126/35 106/130/35
f 15/160/36 103/124/36 105/128/36
f 7/161/37 102/122/37 104/126/37
f 14/162/38 101/119/38 103/124/38
f 6/163/39 100/116/39 102/122/39
f 12/164/40 101/119/40 13/165/40
f 4/150/41 100/116/41 5/166/41
f 11/152/42 98/113/42 12/164/42
f 12/167/6 6/168/6 7/169/6
f 115/170/10 114/171/10 116/172/10
f 113/173/2 119/174/2 114/175/2
f 120/176/8 117/177/8 119/178/8
f 118/179/4 116/180/4 117/181/4
f 119/182/5 116/183/5 114/184/5
f 113/185/6 118/186/6 120/187/6
f 18/1/1 20/188/1 27/2/1
f 36/4/2 24/189/2 29/5/2
f 24/7/3 22/190/3 31/8/3
f 40/10/4 18/191/4 26/11/4
f 23/13/5 21/192/5 38/14/5
f 20/16/6 18/193/6 40/17/6
f 37/19/4 42/22/4 25/20/4
f 44/12/4 26/11/4 25/20/4
f 30/23/7 32/26/7 21/24/7
f 29/9/8 31/8/8 32/26/8
f 33/27/2 46/30/2 30/28/2
f 48/6/2 29/5/2 30/28/2
f 25/31/9 28/34/9 19/32/9
f 26/3/10 27/2/10 28/34/10
f 27/35/2 47/38/2 45/36/2
f 47/38/2 48/6/2 46/30/2
f 28/37/2 45/36/2 34/39/2
f 34/39/2 45/36/2 46/30/2
f 31/41/4 43/44/4 41/42/4
f 43/44/4 44/12/4 42/22/4
f 32/43/4 41/42/4 38/45/4
f 38/45/4 41/42/4 42/22/4
f 36/47/6 39/50/6 22/48/6
f 36/47/6 35/18/6 40/17/6
f 34/51/5 37/54/5 17/52/5
f 34/51/5 33/15/5 38/14/5
f 31/41/4 22/194/4 39/55/4
f 39/55/4 40/10/4 44/12/4
f 27/35/2 20/195/2 35/56/2
f 35/56/2 36/4/2 48/6/2
f 50/57/1 52/196/1 59/58/1
f 68/60/2 56/197/2 61/61/2
f 56/63/3 54/198/3 63/64/3
f 72/66/4 50/199/4 58/67/4
f 55/69/5 53/200/5 70/70/5
f 52/72/6 50/201/6 72/73/6
f 69/75/4 74/78/4 57/76/4
f 76/68/4 58/67/4 57/76/4
f 62/79/7 64/82/7 53/80/7
f 61/65/8 63/64/8 64/82/8
f 65/83/2 78/86/2 62/84/2
f 80/62/2 61/61/2 62/84/2
f 57/87/9 60/90/9 51/88/9
f 58/59/10 59/58/10 60/90/10
f 59/91/2 79/94/2 77/92/2
f 79/94/2 80/62/2 78/86/2
f 60/93/2 77/92/2 66/95/2
f 66/95/2 77/92/2 78/86/2
f 63/97/4 75/100/4 73/98/4
f 75/100/4 76/68/4 74/78/4
f 64/99/4 73/98/4 70/101/4
f 70/101/4 73/98/4 74/78/4
f 68/103/6 71/106/6 54/104/6
f 68/103/6 67/74/6 72/73/6
f 66/107/5 69/110/5 49/108/5
f 66/107/5 65/71/5 70/70/5
f 63/97/4 54/202/4 71/111/4
f 71/111/4 72/66/4 76/68/4
f 59/91/2 52/203/2 67/112/2
f 67/112/2 68/60/2 80/62/2
f 98/113/11 97/146/11 91/114/11
f 100/116/12 99/148/12 84/117/12
f 101/119/13 98/113/13 92/115/13
f 100/116/14 85/118/14 86/121/14
f 101/119/15 93/120/15 94/123/15
f 102/122/16 86/121/16 87/125/16
f 103/124/17 94/123/17 95/127/17
f 104/126/18 87/125/18 88/129/18
f 105/128/19 95/127/19 96/131/19
f 106/133/43 88/204/43 89/134/43
f 110/136/44 109/140/44 81/137/44
f 107/139/45 96/205/45 81/137/45
f 111/141/46 108/135/46 89/134/46
f 112/143/24 110/206/24 82/144/24
f 97/146/25 111/207/25 90/147/25
f 99/148/26 112/143/26 83/145/26
f 3/149/27 112/143/27 99/148/27
f 10/151/28 111/207/28 97/146/28
f 2/153/29 110/206/29 112/143/29
f 9/154/30 108/135/30 111/141/30
f 1/156/31 16/208/31 107/139/31
f 1/156/32 109/140/32 110/136/32
f 9/154/33 8/209/33 106/133/33
f 16/158/34 15/160/34 105/128/34
f 8/159/35 7/161/35 104/126/35
f 15/160/36 14/162/36 103/124/36
f 7/161/37 6/163/37 102/122/37
f 14/162/38 13/165/38 101/119/38
f 6/163/39 5/166/39 100/116/39
f 12/164/40 98/113/40 101/119/40
f 4/150/41 99/148/41 100/116/41
f 11/152/42 97/146/42 98/113/42
f 1/210/6 2/211/6 16/212/6
f 3/213/6 4/214/6 14/215/6
f 5/216/6 6/168/6 13/217/6
f 7/169/6 8/218/6 11/219/6
f 9/220/6 10/221/6 8/218/6
f 11/219/6 12/167/6 7/169/6
f 13/217/6 14/215/6 4/214/6
f 15/222/6 16/212/6 3/213/6
f 2/211/6 3/213/6 16/212/6
f 6/168/6 12/167/6 13/217/6
f 10/221/6 11/219/6 8/218/6
f 14/215/6 15/222/6 3/213/6
f 4/214/6 5/216/6 13/217/6
f 115/170/10 113/223/10 114/171/10
f 113/173/2 120/224/2 119/174/2
f 120/176/8 118/225/8 117/177/8
f 118/179/4 115/226/4 116/180/4
f 119/182/5 117/227/5 116/183/5
f 113/185/6 115/228/6 118/186/6
