# Blender v2.78 (sub 0) OBJ File: ''
# www.blender.org
mtllib dresser.mtl
o Plane.007
v -1.388713 0.823216 -0.703365
v 1.188877 0.823216 -0.703365
v -1.388713 0.823216 -1.410435
v 1.188877 0.823216 -1.410435
v 0.565267 0.823216 -0.703365
v 0.565267 0.823216 -1.410435
v 1.188877 0.823216 0.091192
v 0.565267 0.823216 0.091192
v 1.188877 0.823216 1.084389
v 0.565267 0.823216 0.455364
v 0.082515 0.823216 1.084389
v 0.082515 0.823216 0.455364
v -0.637553 0.823216 1.084389
v -0.637553 0.823216 0.455364
v -1.564537 0.823216 1.084389
v -1.564537 0.823216 0.455364
v -1.388713 0.864971 -0.703365
v 1.188877 0.864971 -0.703365
v -1.388713 0.864971 -1.410435
v 1.188877 0.864971 -1.410435
v 0.565267 0.864971 -0.703365
v 0.565267 0.864971 -1.410435
v 1.188877 0.864971 0.091192
v 0.565267 0.864971 0.091192
v 1.188877 0.864971 1.084389
v 0.565267 0.864971 0.455364
v 0.082515 0.864971 1.084389
v 0.082515 0.864971 0.455364
v -0.637553 0.864971 1.084389
v -0.637553 0.864971 0.455364
v -1.564537 0.864971 1.084389
v -1.564537 0.864971 0.455364
v -1.364530 0.817777 -0.730393
v 0.591226 0.817777 -0.730393
v -1.364530 0.817777 -1.383866
v 0.591226 0.817777 -1.383866
v 1.178315 0.817777 -1.383866
v 0.591226 0.817777 0.480343
v 0.085644 0.817777 0.480343
v -0.636142 0.817777 0.480343
v -1.564151 0.817777 0.480343
v -1.564151 0.817777 1.055776
v -1.364530 0.001829 -0.730393
v 0.591226 0.001829 -0.730393
v -1.364530 0.001829 -1.383866
v 0.591226 0.001829 -1.383866
v 1.178315 0.001829 -1.383866
v 0.591226 0.001829 0.480343
v 0.085644 0.001829 0.480343
v -0.636142 0.001829 0.480343
v -1.564151 0.001829 0.480343
v -1.564151 0.001829 1.055776
v -0.636142 0.641211 0.480343
v -1.564151 0.641211 1.055776
v -1.099816 0.817777 0.480343
v -1.099816 0.001829 0.480343
v -1.099816 0.641211 0.480343
v 0.591226 0.641211 -1.383866
v 1.178315 0.641211 -1.383866
v 0.085644 0.641211 0.480343
v 0.591226 0.641211 0.480343
v -1.364530 0.641211 -0.730393
v -1.364530 0.641211 -1.383866
v 0.591226 0.641211 -0.730393
v -0.712612 0.817777 -0.730393
v -0.060693 0.817777 -0.730393
v -0.712612 0.001829 -0.730393
v -0.060693 0.001829 -0.730393
v -0.712612 0.641211 -0.730393
v -0.060693 0.641211 -0.730393
v -0.645522 0.814205 0.457178
v -0.645522 0.644783 0.457178
v -1.090436 0.814205 0.457178
v -1.090436 0.644783 0.457178
v -0.683322 0.799811 0.457178
v -0.683322 0.659177 0.457178
v -1.052636 0.799811 0.457178
v -1.052636 0.659177 0.457178
v -0.683322 0.799811 0.471135
v -0.683322 0.659177 0.471135
v -1.052636 0.799811 0.471135
v -1.052636 0.659177 0.471135
v -0.874751 0.758073 0.482994
v -0.874751 0.784241 0.482994
v -0.874751 0.758073 0.448725
v -0.874751 0.784241 0.448725
v -0.848583 0.758073 0.482994
v -0.848583 0.784241 0.482994
v -0.848583 0.758073 0.448725
v -0.848583 0.784241 0.448725
v -1.100476 0.817777 0.480343
v -1.100476 0.641211 0.480343
v -1.564151 0.641211 0.480343
v -1.109857 0.814205 0.457178
v -1.109857 0.644783 0.457178
v -1.554770 0.814205 0.457178
v -1.554770 0.644783 0.457178
v -1.147656 0.799811 0.457178
v -1.147656 0.659177 0.457178
v -1.516971 0.799811 0.457178
v -1.516971 0.659177 0.457178
v -1.147656 0.799811 0.471135
v -1.147656 0.659177 0.471135
v -1.516971 0.799811 0.471135
v -1.516971 0.659177 0.471135
v -1.339086 0.758073 0.482994
v -1.339086 0.784241 0.482994
v -1.339086 0.758073 0.448725
v -1.339086 0.784241 0.448725
v -1.312918 0.758073 0.482994
v -1.312918 0.784241 0.482994
v -1.312918 0.758073 0.448725
v -1.312918 0.784241 0.448725
v -0.647366 0.017307 0.449156
v -0.647366 0.625733 0.449156
v -1.088592 0.017307 0.449156
v -1.088592 0.625733 0.449156
v -0.684374 0.068339 0.449156
v -0.684374 0.574701 0.449156
v -1.051584 0.068339 0.449156
v -1.051584 0.574701 0.449156
v -0.684374 0.068339 0.468499
v -0.684374 0.574701 0.468499
v -1.051584 0.068339 0.468499
v -1.051584 0.574701 0.468499
v -1.100476 0.001829 0.480343
v -1.100476 0.641211 0.480343
v -1.564151 0.001829 0.480343
v -1.564151 0.641211 0.480343
v -1.111700 0.017307 0.449156
v -1.111700 0.625733 0.449156
v -1.552927 0.017307 0.449156
v -1.552927 0.625733 0.449156
v -1.148708 0.068339 0.449156
v -1.148708 0.574701 0.449156
v -1.515919 0.068339 0.449156
v -1.515919 0.574701 0.449156
v -1.148708 0.068339 0.468499
v -1.148708 0.574701 0.468499
v -1.515919 0.068339 0.468499
v -1.515919 0.574701 0.468499
v -1.195770 0.518825 0.482994
v -1.195770 0.544993 0.482994
v -1.195770 0.518825 0.448725
v -1.195770 0.544993 0.448725
v -1.169602 0.518825 0.482994
v -1.169602 0.544993 0.482994
v -1.169602 0.518825 0.448725
v -1.169602 0.544993 0.448725
v -1.035204 0.518825 0.482994
v -1.035204 0.544993 0.482994
v -1.035204 0.518825 0.448725
v -1.035204 0.544993 0.448725
v -1.009037 0.518825 0.482994
v -1.009037 0.544993 0.482994
v -1.009037 0.518825 0.448725
v -1.009037 0.544993 0.448725
v 0.581515 0.014110 0.457493
v 0.095354 0.014110 0.457493
v 0.095354 0.628930 0.457493
v 0.581515 0.628930 0.457493
v 0.539857 0.066792 0.457493
v 0.137012 0.066792 0.457493
v 0.137012 0.576247 0.457493
v 0.539857 0.576247 0.457493
v 0.539857 0.066792 0.474364
v 0.137012 0.066792 0.474364
v 0.137012 0.576247 0.474364
v 0.539857 0.576247 0.474364
v 0.581975 0.814546 0.456840
v 0.094894 0.814546 0.456840
v 0.094894 0.644441 0.456840
v 0.581975 0.644441 0.456840
v 0.541725 0.800490 0.456840
v 0.135144 0.800490 0.456840
v 0.135144 0.658498 0.456840
v 0.541725 0.658498 0.456840
v 0.541725 0.800490 0.470205
v 0.135144 0.800490 0.470205
v 0.135144 0.658498 0.470205
v 0.541725 0.658498 0.470205
v 0.602820 0.536811 -0.032106
v 0.602820 0.562979 -0.032106
v 0.568551 0.536811 -0.032106
v 0.568551 0.562979 -0.032106
v 0.602820 0.536811 -0.058274
v 0.602820 0.562979 -0.058274
v 0.568551 0.536811 -0.058274
v 0.568551 0.562979 -0.058274
v 0.451065 0.528580 -0.696301
v 0.451065 0.554748 -0.696301
v 0.451065 0.528580 -0.730571
v 0.451065 0.554748 -0.730571
v 0.477233 0.528580 -0.696301
v 0.477233 0.554748 -0.696301
v 0.477233 0.528580 -0.730571
v 0.477233 0.554748 -0.730571
v 0.591226 0.817777 -0.125025
v 0.591226 0.001829 -0.125025
v 0.591226 0.641211 -0.125025
v 0.591226 0.817777 0.442253
v 0.591226 0.001829 0.442253
v 0.591226 0.641211 0.442253
v 0.591226 0.817777 -0.683134
v 0.591226 0.001829 -0.683134
v 0.591226 0.641211 -0.683134
v 0.576715 0.012110 -0.133999
v 0.576715 0.630930 -0.133999
v 0.576715 0.012110 -0.674160
v 0.576715 0.630930 -0.674160
v 0.576715 0.056866 -0.173066
v 0.576715 0.586174 -0.173066
v 0.576715 0.056866 -0.635093
v 0.576715 0.586174 -0.635093
v 0.594751 0.056866 -0.173066
v 0.594751 0.586174 -0.173066
v 0.594751 0.056866 -0.635093
v 0.594751 0.586174 -0.635093
v 0.572819 0.008205 -0.119368
v 0.572819 0.634835 -0.119368
v 0.572819 0.008205 0.436596
v 0.572819 0.634835 0.436596
v 0.572819 0.055230 -0.077646
v 0.572819 0.587810 -0.077646
v 0.572819 0.055230 0.394874
v 0.572819 0.587810 0.394874
v 0.594059 0.055230 -0.077646
v 0.594059 0.587810 -0.077646
v 0.594059 0.055230 0.394874
v 0.594059 0.587810 0.394874
v 0.602820 0.536811 -0.191308
v 0.602820 0.562979 -0.191308
v 0.568551 0.536811 -0.191308
v 0.568551 0.562979 -0.191308
v 0.602820 0.536811 -0.217476
v 0.602820 0.562979 -0.217476
v 0.568551 0.536811 -0.217476
v 0.568551 0.562979 -0.217476
v 0.547764 0.817777 -0.730393
v 0.547764 0.001829 -0.730393
v 0.547764 0.641211 -0.730393
v -0.052965 0.009950 -0.709710
v -0.052965 0.633090 -0.709710
v 0.540037 0.009950 -0.709710
v 0.540037 0.633090 -0.709710
v -0.005050 0.060300 -0.709710
v -0.005050 0.582740 -0.709710
v 0.492122 0.060300 -0.709710
v 0.492122 0.582740 -0.709710
v -0.005050 0.060300 -0.724543
v -0.005050 0.582740 -0.724543
v 0.492122 0.060300 -0.724543
v 0.492122 0.582740 -0.724543
v 0.591226 0.428083 -1.383866
v 0.591226 0.214956 -1.383866
v 0.085644 0.428083 0.480343
v 0.085644 0.214956 0.480343
v -1.364530 0.428083 -0.730393
v -1.364530 0.214956 -0.730393
v 1.178315 0.214956 -1.383866
v 1.178315 0.428083 -1.383866
v 0.591226 0.214956 0.480343
v 0.591226 0.428083 0.480343
v -1.364530 0.214956 -1.383866
v -1.364530 0.428083 -1.383866
v 0.591226 0.214956 -0.730393
v 0.591226 0.428083 -0.730393
v -0.712612 0.214956 -0.730393
v -0.712612 0.428083 -0.730393
v -0.060693 0.214956 -0.730393
v -0.060693 0.428083 -0.730393
v 0.095354 0.423990 0.457493
v 0.095354 0.219050 0.457493
v 0.581515 0.219050 0.457493
v 0.581515 0.423990 0.457493
v 0.137012 0.406429 0.457493
v 0.137012 0.236611 0.457493
v 0.539857 0.236611 0.457493
v 0.539857 0.406429 0.457493
v 0.137012 0.406429 0.474364
v 0.137012 0.236611 0.474364
v 0.539857 0.236611 0.474364
v 0.539857 0.406429 0.474364
v 0.591226 0.214956 -0.125025
v 0.591226 0.428083 -0.125025
v 0.591226 0.214956 0.442253
v 0.591226 0.428083 0.442253
v 0.591226 0.214956 -0.683134
v 0.591226 0.428083 -0.683134
v 0.576715 0.218383 -0.133999
v 0.576715 0.424656 -0.133999
v 0.576715 0.218383 -0.674160
v 0.576715 0.424656 -0.674160
v 0.576715 0.233302 -0.173066
v 0.576715 0.409738 -0.173066
v 0.576715 0.233302 -0.635093
v 0.576715 0.409738 -0.635093
v 0.594751 0.233302 -0.173066
v 0.594751 0.409738 -0.173066
v 0.594751 0.233302 -0.635093
v 0.594751 0.409738 -0.635093
v 0.572819 0.217082 -0.119368
v 0.572819 0.425958 -0.119368
v 0.572819 0.217082 0.436596
v 0.572819 0.425958 0.436596
v 0.572819 0.232756 -0.077646
v 0.572819 0.410283 -0.077646
v 0.572819 0.232756 0.394874
v 0.572819 0.410283 0.394874
v 0.594059 0.232756 -0.077646
v 0.594059 0.410283 -0.077646
v 0.594059 0.232756 0.394874
v 0.594059 0.410283 0.394874
v 0.547764 0.214956 -0.730393
v 0.547764 0.428083 -0.730393
v -0.052965 0.217663 -0.709710
v -0.052965 0.425377 -0.709710
v 0.540037 0.217663 -0.709710
v 0.540037 0.425377 -0.709710
v -0.005050 0.234447 -0.709710
v -0.005050 0.408593 -0.709710
v 0.492122 0.234447 -0.709710
v 0.492122 0.408593 -0.709710
v -0.005050 0.234447 -0.724543
v -0.005050 0.408593 -0.724543
v 0.492122 0.234447 -0.724543
v 0.492122 0.408593 -0.724543
v -1.345626 0.208776 -0.710451
v -1.345626 0.008010 -0.710451
v -0.731516 0.008010 -0.710451
v -0.731516 0.208776 -0.710451
v -0.693707 0.208776 -0.710451
v -0.693707 0.008010 -0.710451
v -0.079598 0.008010 -0.710451
v -0.079598 0.208776 -0.710451
v -0.693707 0.635030 -0.710451
v -0.693707 0.434264 -0.710451
v -0.079598 0.434264 -0.710451
v -0.079598 0.635030 -0.710451
v -0.693707 0.421903 -0.710451
v -0.693707 0.221137 -0.710451
v -0.079598 0.221137 -0.710451
v -0.079598 0.421903 -0.710451
v -1.345626 0.635030 -0.710451
v -1.345626 0.434264 -0.710451
v -0.731516 0.434264 -0.710451
v -0.731516 0.635030 -0.710451
v -1.345626 0.421903 -0.710451
v -1.345626 0.221137 -0.710451
v -0.731516 0.221137 -0.710451
v -0.731516 0.421903 -0.710451
vt 0.0111 0.0199
vt 0.3058 0.2573
vt 0.0111 0.2573
vt 0.3058 1.0011
vt 0.0111 1.0011
vt 0.0112 0.9955
vt 0.1811 0.7298
vt 0.4747 0.9956
vt 0.4747 0.5240
vt 0.0158 0.6295
vt 0.2958 0.2528
vt 0.2958 0.6296
vt 0.1207 0.0530
vt 0.1355 0.3523
vt 0.1207 0.3523
vt 0.0149 0.7991
vt 0.0326 0.9859
vt 0.0149 0.9859
vt 0.0657 1.0039
vt 0.0480 0.7306
vt 0.0657 0.7306
vt 0.0912 0.6727
vt 0.0770 0.3307
vt 0.0912 0.3307
vt 0.0834 1.0025
vt 0.0657 0.7306
vt 0.0834 0.7306
vt 0.1704 0.9957
vt 0.1534 0.2681
vt 0.1704 0.2681
vt 0.1262 0.9449
vt 0.1054 0.7791
vt 0.1262 0.7791
vt 0.1704 0.2679
vt 0.1874 0.9950
vt 0.1704 0.9950
vt 0.0612 0.6695
vt 0.0458 0.4578
vt 0.0612 0.4578
vt 0.1207 0.3724
vt 0.1060 0.0530
vt 0.1207 0.0530
vt 0.1534 0.0358
vt 0.1704 0.0358
vt 0.1207 0.6720
vt 0.1060 0.3724
vt 0.1207 0.3724
vt 0.9668 0.1288
vt 0.5188 0.1980
vt 0.5192 0.1235
vt 0.5263 0.3081
vt 0.9748 0.3759
vt 0.5268 0.3827
vt 0.5897 0.6947
vt 0.9612 0.6239
vt 0.9619 0.6852
vt 0.5156 0.8108
vt 0.9648 0.7295
vt 0.9653 0.8040
vt 0.9364 0.0020
vt 0.8462 0.2289
vt 0.8462 0.0020
vt 0.6879 0.8156
vt 0.5686 0.7838
vt 0.6900 0.7807
vt 0.9459 0.0873
vt 0.8338 0.9231
vt 0.8360 0.0867
vt 0.9536 0.1198
vt 0.9666 0.3053
vt 0.9533 0.3052
vt 0.9280 0.8565
vt 0.8365 0.8735
vt 0.8365 0.8565
vt 0.9364 0.2289
vt 0.8462 0.9848
vt 0.9451 0.1768
vt 0.6554 0.8410
vt 0.6502 0.1820
vt 0.5739 0.8424
vt 0.5688 0.1834
vt 0.6484 0.1552
vt 0.5241 0.7602
vt 0.6482 0.8035
vt 0.5264 0.8020
vt 0.5151 0.7363
vt 0.9632 0.6720
vt 0.9747 0.7293
vt 0.6656 0.2289
vt 0.5909 0.9848
vt 0.5909 0.2289
vt 0.6536 0.8565
vt 0.5778 0.8735
vt 0.5778 0.8565
vt 0.9527 0.6761
vt 0.9658 0.8298
vt 0.9525 0.8297
vt 0.6162 0.0854
vt 0.5230 0.9213
vt 0.5252 0.0849
vt 0.5391 0.4281
vt 0.8875 0.3896
vt 0.8939 0.4306
vt 0.6656 0.0020
vt 0.5909 0.0020
vt 0.6536 0.1081
vt 0.5778 0.3632
vt 0.5778 0.1081
vt 0.6536 0.3632
vt 0.5778 0.6184
vt 0.9332 0.9498
vt 0.9015 0.1304
vt 0.9332 0.0543
vt 0.5234 0.8873
vt 0.6480 0.8459
vt 0.6503 0.8888
vt 0.8407 0.8627
vt 0.5305 0.8965
vt 0.5244 0.8572
vt 0.8654 0.1148
vt 0.5465 0.1529
vt 0.5400 0.1125
vt 0.5303 0.0928
vt 0.7824 0.0735
vt 0.7822 0.0972
vt 0.5596 0.0543
vt 0.5913 0.8737
vt 0.5596 0.9498
vt 0.9015 0.8737
vt 0.5913 0.1304
vt 0.5496 0.9911
vt 0.9596 0.0085
vt 0.9596 0.9911
vt 0.6500 0.9502
vt 0.7512 0.9265
vt 0.7511 0.9514
vt 0.6501 0.9253
vt 0.7514 0.9017
vt 0.7512 0.9265
vt 0.7828 0.0262
vt 0.5307 0.0455
vt 0.5308 0.0218
vt 0.7721 0.9126
vt 0.8029 0.8774
vt 0.8023 0.9136
vt 0.6499 0.9809
vt 0.6200 0.9522
vt 0.6503 0.9532
vt 0.6807 0.9459
vt 0.6499 0.9809
vt 0.6504 0.9448
vt 0.5606 0.8777
vt 0.5904 0.9064
vt 0.5602 0.9053
vt 0.8624 0.9519
vt 0.8315 0.9870
vt 0.8321 0.9508
vt 0.8932 0.9167
vt 0.9240 0.8815
vt 0.9235 0.9177
vt 0.9327 0.9159
vt 0.9020 0.1249
vt 0.9327 0.0514
vt 0.5232 0.9301
vt 0.6478 0.8887
vt 0.6501 0.9316
vt 0.8656 0.0745
vt 0.5466 0.1126
vt 0.5402 0.0722
vt 0.8653 0.1551
vt 0.5463 0.1932
vt 0.5399 0.1528
vt 0.5301 0.1164
vt 0.7822 0.0972
vt 0.7821 0.1208
vt 0.5720 0.9159
vt 0.6026 0.1249
vt 0.6026 0.8424
vt 0.9020 0.8424
vt 0.5720 0.0514
vt 0.9452 0.0033
vt 0.5475 0.9564
vt 0.5475 0.0033
vt 0.7511 0.9514
vt 0.6499 0.9751
vt 0.6500 0.9502
vt 0.7515 0.8769
vt 0.6503 0.9005
vt 0.6504 0.8757
vt 0.7826 0.0499
vt 0.5305 0.0691
vt 0.5306 0.0455
vt 0.8023 0.9136
vt 0.7715 0.9488
vt 0.7721 0.9126
vt 0.5909 0.8787
vt 0.6207 0.9074
vt 0.5904 0.9064
vt 0.7110 0.9469
vt 0.6801 0.9819
vt 0.6807 0.9459
vt 0.6201 0.9436
vt 0.5903 0.9149
vt 0.6206 0.9160
vt 0.8013 0.9860
vt 0.8321 0.9508
vt 0.8315 0.9870
vt 0.9537 0.9187
vt 0.9229 0.9539
vt 0.9235 0.9177
vt 0.5279 0.9128
vt 0.5673 0.1420
vt 0.5671 0.8422
vt 0.5382 0.7081
vt 0.8558 0.6562
vt 0.8636 0.7103
vt 0.5260 0.2519
vt 0.9748 0.3013
vt 0.5375 0.3079
vt 0.8636 0.7103
vt 0.5458 0.7622
vt 0.5382 0.7081
vt 0.8714 0.6665
vt 0.5257 0.6931
vt 0.5259 0.6605
vt 0.9956 0.0716
vt 0.5281 0.0714
vt 0.9562 0.8424
vt 0.9954 0.9130
vt 0.9563 0.1422
vt 0.9735 0.1272
vt 0.5571 0.8377
vt 0.5698 0.1111
vt 0.5285 0.3274
vt 0.7793 0.2990
vt 0.7790 0.3317
vt 0.7800 0.2006
vt 0.5292 0.2290
vt 0.5295 0.1963
vt 0.5254 0.7258
vt 0.8711 0.6991
vt 0.8709 0.7319
vt 0.5166 0.5172
vt 0.9653 0.4651
vt 0.9761 0.5227
vt 0.5346 0.9051
vt 0.5726 0.1466
vt 0.5731 0.8356
vt 0.5384 0.6540
vt 0.8559 0.6022
vt 0.8638 0.6563
vt 0.9852 0.1887
vt 0.5371 0.2517
vt 0.5256 0.1957
vt 0.8634 0.7644
vt 0.5456 0.8163
vt 0.5380 0.7622
vt 0.8716 0.6339
vt 0.5259 0.6605
vt 0.5262 0.6279
vt 0.9939 0.0763
vt 0.5339 0.0772
vt 0.9559 0.8348
vt 0.9946 0.9042
vt 0.9553 0.1458
vt 0.9946 0.0698
vt 0.5298 0.9087
vt 0.5290 0.0708
vt 0.5287 0.2946
vt 0.7795 0.2662
vt 0.7793 0.2990
vt 0.7798 0.2334
vt 0.5290 0.2618
vt 0.5292 0.2290
vt 0.8709 0.7319
vt 0.5252 0.7586
vt 0.5254 0.7258
vt 0.7412 0.9477
vt 0.7721 0.9126
vt 0.7715 0.9488
vt 0.6196 0.9798
vt 0.5898 0.9511
vt 0.6200 0.9522
vt 0.7115 0.9107
vt 0.6807 0.9457
vt 0.6812 0.9097
vt 0.5899 0.9426
vt 0.5601 0.9139
vt 0.5903 0.9149
vt 0.8629 0.9156
vt 0.8937 0.8805
vt 0.8932 0.9167
vt 0.9224 0.9901
vt 0.9532 0.9550
vt 0.9527 0.9912
vt 0.7407 0.9839
vt 0.7715 0.9488
vt 0.7710 0.9850
vt 0.6510 0.9084
vt 0.6211 0.8797
vt 0.6514 0.8808
vt 0.6812 0.9095
vt 0.7120 0.8745
vt 0.7115 0.9105
vt 0.5893 0.9788
vt 0.5595 0.9501
vt 0.5898 0.9511
vt 0.8018 0.9498
vt 0.8326 0.9146
vt 0.8321 0.9508
vt 0.9543 0.8825
vt 0.9235 0.9177
vt 0.9240 0.8815
vt 0.9692 0.9495
vt 0.9239 0.1586
vt 0.9610 0.0836
vt 0.8031 0.9428
vt 0.9398 0.9844
vt 0.8000 0.9819
vt 0.8944 0.2696
vt 0.5463 0.3068
vt 0.5396 0.2671
vt 0.5393 0.3463
vt 0.8875 0.3091
vt 0.8941 0.3488
vt 0.8744 0.5445
vt 0.7584 0.5709
vt 0.7586 0.5424
vt 0.8139 0.0868
vt 0.8020 0.1613
vt 0.6751 0.9558
vt 0.5652 0.8840
vt 0.6870 0.8814
vt 0.5198 0.0932
vt 0.5281 0.9590
vt 0.5824 0.8687
vt 0.7116 0.1408
vt 0.7064 0.8707
vt 0.5402 0.0722
vt 0.6594 0.0437
vt 0.6593 0.0731
vt 0.5295 0.1963
vt 0.8045 0.1725
vt 0.8043 0.2011
vt 0.8048 0.1439
vt 0.5297 0.1677
vt 0.5299 0.1391
vt 0.5554 0.0227
vt 0.5851 0.8828
vt 0.5554 0.9602
vt 0.5239 0.8020
vt 0.6482 0.8459
vt 0.5260 0.8444
vt 0.6501 0.9316
vt 0.5253 0.9736
vt 0.5232 0.9301
vt 0.8875 0.3896
vt 0.5457 0.3873
vt 0.7527 0.8293
vt 0.6505 0.8519
vt 0.6507 0.8281
vt 0.8846 0.8828
vt 0.9142 0.9602
vt 0.9142 0.0227
vt 0.5851 0.1001
vt 0.8846 0.1001
vt 0.5542 0.9846
vt 0.9228 0.0214
vt 0.9228 0.9846
vt 0.8075 0.1213
vt 0.5299 0.1391
vt 0.5301 0.1164
vt 0.8958 0.5018
vt 0.6552 0.5252
vt 0.6551 0.5055
vt 0.7526 0.8531
vt 0.6504 0.8757
vt 0.6505 0.8519
vt 0.7104 0.9829
vt 0.7412 0.9478
vt 0.7407 0.9839
vt 0.6514 0.8808
vt 0.6812 0.9095
vt 0.6510 0.9084
vt 0.7110 0.9467
vt 0.7418 0.9115
vt 0.7412 0.9477
vt 0.5305 0.8767
vt 0.5602 0.9053
vt 0.5301 0.9043
vt 0.8332 0.8784
vt 0.8023 0.9136
vt 0.8029 0.8774
vt 0.8926 0.9529
vt 0.9235 0.9177
vt 0.9229 0.9539
vt 0.8018 0.9498
vt 0.7710 0.9850
vt 0.7715 0.9488
vt 0.6504 0.9446
vt 0.6206 0.9160
vt 0.6508 0.9170
vt 0.6812 0.9097
vt 0.6504 0.9446
vt 0.6509 0.9086
vt 0.5597 0.9416
vt 0.5298 0.9129
vt 0.5601 0.9139
vt 0.8926 0.9529
vt 0.8618 0.9881
vt 0.8624 0.9519
vt 0.8921 0.9891
vt 0.9229 0.9539
vt 0.9224 0.9901
vt 0.5586 0.6748
vt 0.7538 0.8291
vt 0.5584 0.8284
vt 0.5273 0.4773
vt 0.9021 0.4590
vt 0.9081 0.4839
vt 0.7541 0.6754
vt 0.5244 0.8572
vt 0.9077 0.8326
vt 0.9114 0.8640
vt 0.5429 0.1184
vt 0.5592 0.3039
vt 0.5426 0.3038
vt 0.5420 0.6747
vt 0.5418 0.8283
vt 0.8117 0.0327
vt 0.9255 0.1008
vt 0.8012 0.1011
vt 0.8307 0.4274
vt 0.9767 0.4519
vt 0.8284 0.4542
vt 0.5277 0.4277
vt 0.9021 0.4590
vt 0.5336 0.4526
vt 0.8296 0.2571
vt 0.9752 0.2853
vt 0.8270 0.2836
vt 0.5262 0.6279
vt 0.6468 0.5995
vt 0.6465 0.6300
vt 0.5211 0.0332
vt 0.5533 0.9095
vt 0.5218 0.9779
vt 0.6671 0.9777
vt 0.6776 0.9093
vt 0.9578 0.9771
vt 0.9570 0.0324
vt 0.5321 0.9586
vt 0.6698 0.0343
vt 0.6740 0.9571
vt 0.8423 0.5133
vt 0.5269 0.5384
vt 0.5271 0.5078
vt 0.8878 0.5731
vt 0.7672 0.6016
vt 0.7674 0.5710
vt 0.5271 0.5078
vt 0.8425 0.4828
vt 0.8423 0.5133
vt 0.5466 0.0542
vt 0.5805 0.8451
vt 0.5517 0.9097
vt 0.6885 0.4616
vt 0.5435 0.4282
vt 0.6901 0.4292
vt 0.8381 0.4626
vt 0.9831 0.4962
vt 0.8365 0.4952
vt 0.9119 0.8014
vt 0.5285 0.8260
vt 0.5249 0.7946
vt 0.5397 0.2301
vt 0.6644 0.1940
vt 0.6643 0.2310
vt 0.8055 0.0507
vt 0.9062 0.1135
vt 0.7961 0.1150
vt 0.6812 0.9079
vt 0.6905 0.8436
vt 0.9401 0.9043
vt 0.9349 0.0489
vt 0.9739 0.0274
vt 0.8155 0.9663
vt 0.8310 0.0221
vt 0.9135 0.2327
vt 0.7887 0.2689
vt 0.7889 0.2319
vt 0.9014 0.8469
vt 0.5620 0.8900
vt 0.5618 0.8521
vt 0.5249 0.7946
vt 0.8475 0.7642
vt 0.8472 0.8002
vt 0.7423 0.8754
vt 0.7115 0.9105
vt 0.7121 0.8743
vt 0.8630 0.9071
vt 0.8332 0.8784
vt 0.8634 0.8794
vt 0.7726 0.8764
vt 0.7418 0.9115
vt 0.7423 0.8753
vt 0.5294 0.9491
vt 0.5591 0.9778
vt 0.5290 0.9767
vt 0.8321 0.9508
vt 0.8629 0.9156
vt 0.8624 0.9519
vt 0.8624 0.9519
vt 0.8932 0.9167
vt 0.8926 0.9529
vt 0.6536 0.6184
vt 0.8379 0.5314
vt 0.9817 0.5668
vt 0.8359 0.5658
vt 0.8233 0.0171
vt 0.9253 0.0944
vt 0.8124 0.0942
vt 0.5388 0.5293
vt 0.9604 0.4961
vt 0.9658 0.5323
vt 0.6942 0.9463
vt 0.5725 0.9193
vt 0.6955 0.9162
vt 0.9657 0.5667
vt 0.5439 0.6000
vt 0.5386 0.5638
vt 0.5283 0.3525
vt 0.8677 0.3333
vt 0.8675 0.3584
vt 0.5538 0.0166
vt 0.5858 0.8935
vt 0.5530 0.9706
vt 0.9572 0.9713
vt 0.9581 0.0174
vt 0.6878 0.9708
vt 0.6987 0.8938
vt 0.9380 0.0556
vt 0.8164 0.9158
vt 0.8165 0.0555
vt 0.5279 0.4026
vt 0.6469 0.3797
vt 0.6467 0.4047
vt 0.5277 0.4277
vt 0.6467 0.4047
vt 0.6465 0.4298
vt 0.8675 0.3584
vt 0.5281 0.3776
vt 0.5283 0.3525
vt 0.7653 0.4319
vt 0.8843 0.4088
vt 0.8842 0.4340
vt 0.7655 0.4068
vt 0.7655 0.4068
vt 0.8845 0.3838
vt 0.8843 0.4088
vt 0.7657 0.3818
vt 0.6950 0.0554
vt 0.5733 0.9157
vt 0.5735 0.0554
vt 0.6948 0.9157
vt 0.8225 0.9711
vt 0.9246 0.8942
vt 0.8117 0.8940
vt 0.8204 0.9431
vt 0.9414 0.9099
vt 0.9465 0.9399
vt 0.8184 0.9130
vt 0.6886 0.0168
vt 0.5864 0.0937
vt 0.6994 0.0939
vt 0.6883 0.5303
vt 0.5443 0.5638
vt 0.5388 0.5293
vt 0.6901 0.5648
vt 0.6643 0.2310
vt 0.5396 0.2671
vt 0.5397 0.2301
vt 0.6642 0.2680
vt 0.6881 0.0168
vt 0.5297 0.9557
vt 0.5452 0.0115
vt 0.6726 0.9610
vt 0.8106 0.9061
vt 0.9106 0.8405
vt 0.8005 0.8420
vt 0.6760 0.0524
vt 0.5761 0.1180
vt 0.6861 0.1165
vt 0.7889 0.2319
vt 0.9136 0.1958
vt 0.9135 0.2327
vt 0.7890 0.1949
vt 0.6885 0.4616
vt 0.5433 0.4931
vt 0.5390 0.4606
vt 0.6899 0.4942
vt 0.8381 0.4626
vt 0.9833 0.4312
vt 0.9877 0.4637
vt 0.8367 0.4302
vt 0.6470 0.5689
vt 0.5264 0.5973
vt 0.5266 0.5668
vt 0.6468 0.5995
vt 0.8159 0.9556
vt 0.9537 0.0314
vt 0.9579 0.9542
vt 0.8117 0.0329
vt 0.8124 0.9774
vt 0.9262 0.9089
vt 0.8019 0.9091
vt 0.7669 0.6321
vt 0.8875 0.6037
vt 0.8873 0.6342
vt 0.7672 0.6016
vt 0.6764 0.2553
vt 0.5304 0.2800
vt 0.5232 0.2535
vt 0.6787 0.2818
vt 0.6775 0.4297
vt 0.5319 0.4586
vt 0.5243 0.4320
vt 0.6801 0.4564
vt 0.6664 0.0330
vt 0.5526 0.1015
vt 0.6769 0.1013
vt 0.5423 0.4893
vt 0.5589 0.4893
vt 0.7785 0.0739
vt 0.8978 0.0453
vt 0.8977 0.0747
vt 0.7786 0.0445
vt 0.8303 0.8727
vt 0.9596 0.1449
vt 0.9543 0.8747
vt 0.8356 0.1428
vt 0.8222 0.9527
vt 0.9307 0.8761
vt 0.8089 0.8787
vt 0.6669 0.0900
vt 0.5583 0.1666
vt 0.6802 0.1639
vt 0.6427 0.5404
vt 0.5266 0.5668
vt 0.5269 0.5384
vt 0.6425 0.5689
vt 0.6577 0.9403
vt 0.5204 0.9770
vt 0.5123 0.9377
vt 0.6602 0.9795
vt 0.7559 0.2289
vt 0.6656 0.9848
vt 0.7559 0.9848
vt 0.7451 0.8565
vt 0.6536 0.8735
vt 0.7451 0.8735
vt 0.9530 0.4907
vt 0.9661 0.6762
vt 0.9663 0.4907
vt 0.7261 0.0860
vt 0.6140 0.9218
vt 0.7239 0.9225
vt 0.8141 0.8124
vt 0.9326 0.7745
vt 0.9403 0.8092
vt 0.8113 0.7776
vt 0.7559 0.0020
vt 0.5853 0.9097
vt 0.9105 0.0028
vt 0.9105 0.9097
vt 0.9205 0.9392
vt 0.5753 0.9392
vt 0.9696 0.6719
vt 0.5144 0.6431
vt 0.9830 0.6360
vt 0.6730 0.7301
vt 0.5244 0.6964
vt 0.6776 0.6982
vt 0.5331 0.0523
vt 0.9879 0.0933
vt 0.5194 0.0878
vt 0.5971 0.9623
vt 0.9366 0.0153
vt 0.9366 0.9623
vt 0.9471 0.9931
vt 0.5866 0.9931
vt 0.9805 0.1888
vt 0.5253 0.1600
vt 0.9939 0.1529
vt 0.5295 0.5689
vt 0.6781 0.6025
vt 0.5249 0.6007
vt 0.9742 0.1289
vt 0.5194 0.0878
vt 0.5697 0.9526
vt 0.9033 0.0218
vt 0.9033 0.9526
vt 0.9136 0.9829
vt 0.5594 0.9829
vt 0.5387 0.1240
vt 0.9939 0.1529
vt 0.5253 0.1600
vt 0.6735 0.6344
vt 0.5249 0.6007
vt 0.6781 0.6025
vt 0.9688 0.5290
vt 0.5135 0.5002
vt 0.9821 0.4931
vt 0.9270 0.0664
vt 0.6039 0.9676
vt 0.6039 0.0664
vt 0.5940 0.0371
vt 0.9370 0.0371
vt 0.9694 0.6362
vt 0.5142 0.6074
vt 0.9828 0.6003
vt 0.6778 0.8231
vt 0.5289 0.8532
vt 0.5246 0.8213
vt 0.5384 0.0883
vt 0.9937 0.1172
vt 0.5251 0.1243
vt 0.5912 0.9416
vt 0.9245 0.0118
vt 0.9245 0.9416
vt 0.9348 0.9718
vt 0.5809 0.9718
vt 0.9692 0.6005
vt 0.5140 0.5716
vt 0.9826 0.5645
vt 0.6733 0.6663
vt 0.5248 0.6326
vt 0.6779 0.6344
vt 0.5366 0.2801
vt 0.9914 0.3212
vt 0.5229 0.3157
vt 0.9009 0.0369
vt 0.5676 0.9666
vt 0.5676 0.0369
vt 0.5574 0.0067
vt 0.9112 0.0067
vt 0.5274 0.5357
vt 0.9826 0.5645
vt 0.5140 0.5716
vt 0.6774 0.7301
vt 0.5285 0.7603
vt 0.5243 0.7283
vt 0.9762 0.4171
vt 0.5214 0.3760
vt 0.9899 0.3816
vt 0.3058 0.0199
vt 0.0112 0.7297
vt 0.1811 0.5240
vt 0.0158 0.2527
vt 0.1355 0.0530
vt 0.0326 0.7991
vt 0.0480 1.0039
vt 0.0770 0.6727
vt 0.0657 1.0025
vt 0.1534 0.9957
vt 0.1054 0.9449
vt 0.1874 0.2679
vt 0.0458 0.6695
vt 0.1060 0.3724
vt 0.1060 0.6720
vt 0.9664 0.2033
vt 0.9743 0.3013
vt 0.5890 0.6333
vt 0.5151 0.7363
vt 0.5618 0.8189
vt 0.9437 0.9238
vt 0.9669 0.1198
vt 0.9280 0.8735
vt 0.9364 0.9848
vt 0.9503 0.8357
vt 0.5702 0.1566
vt 0.6510 0.7617
vt 0.5258 0.6787
vt 0.5457 0.3873
vt 0.5262 0.8444
vt 0.8341 0.9018
vt 0.8587 0.1551
vt 0.5305 0.0691
vt 0.5496 0.0085
vt 0.6501 0.9253
vt 0.6503 0.9005
vt 0.7826 0.0499
vt 0.7726 0.8764
vt 0.6196 0.9798
vt 0.6801 0.9819
vt 0.5909 0.8787
vt 0.8618 0.9881
vt 0.8937 0.8805
vt 0.5260 0.8873
vt 0.8589 0.1147
vt 0.8586 0.1954
vt 0.5303 0.0928
vt 0.9452 0.9564
vt 0.7510 0.9763
vt 0.7514 0.9017
vt 0.7824 0.0735
vt 0.8018 0.9498
vt 0.6211 0.8797
vt 0.7104 0.9829
vt 0.5899 0.9426
vt 0.8018 0.9498
vt 0.9532 0.9549
vt 0.5461 0.6541
vt 0.9856 0.2450
vt 0.8555 0.7644
vt 0.8711 0.6991
vt 0.9608 0.8538
vt 0.5287 0.2946
vt 0.7798 0.2334
vt 0.5257 0.6931
vt 0.5280 0.4599
vt 0.5463 0.6000
vt 0.9745 0.2451
vt 0.8553 0.8185
vt 0.8714 0.6665
vt 0.9954 0.9077
vt 0.5290 0.2618
vt 0.7795 0.2662
vt 0.8706 0.7647
vt 0.7418 0.9115
vt 0.5893 0.9788
vt 0.7110 0.9467
vt 0.5597 0.9416
vt 0.8634 0.8794
vt 0.9229 0.9539
vt 0.7412 0.9477
vt 0.6207 0.9074
vt 0.6818 0.8734
vt 0.5591 0.9778
vt 0.8023 0.9136
vt 0.9537 0.9187
vt 0.9485 0.9454
vt 0.8875 0.3091
vt 0.5463 0.3068
vt 0.8742 0.5729
vt 0.5877 0.1388
vt 0.5402 0.0428
vt 0.5297 0.1677
vt 0.8045 0.1725
vt 0.6508 0.8035
vt 0.6476 0.9750
vt 0.7526 0.8531
vt 0.5542 0.0214
vt 0.8073 0.1439
vt 0.8959 0.5214
vt 0.7525 0.8769
vt 0.7110 0.9468
vt 0.6816 0.8818
vt 0.7115 0.9105
vt 0.5606 0.8777
vt 0.8326 0.9146
vt 0.8932 0.9167
vt 0.8013 0.9860
vt 0.6201 0.9436
vt 0.6807 0.9457
vt 0.5294 0.9405
vt 0.8921 0.9891
vt 0.8926 0.9529
vt 0.5336 0.4526
vt 0.5284 0.8260
vt 0.5594 0.1184
vt 0.9839 0.4251
vt 0.9085 0.4344
vt 0.9827 0.2589
vt 0.5264 0.5973
vt 0.5279 0.0358
vt 0.8421 0.5439
vt 0.8875 0.6037
vt 0.5273 0.4773
vt 0.5390 0.4606
vt 0.9877 0.4637
vt 0.9078 0.8326
vt 0.5398 0.1932
vt 0.9584 0.9716
vt 0.9133 0.2697
vt 0.9017 0.8848
vt 0.5252 0.7586
vt 0.7418 0.9115
vt 0.8328 0.9061
vt 0.7721 0.9126
vt 0.5595 0.9501
vt 0.8326 0.9146
vt 0.8629 0.9156
vt 0.9875 0.5324
vt 0.5442 0.4932
vt 0.5680 0.9495
vt 0.9601 0.6029
vt 0.5285 0.3274
vt 0.9379 0.9159
vt 0.5279 0.4026
vt 0.8673 0.3835
vt 0.5853 0.0028
vt 0.5282 0.6786
vt 0.5287 0.7284
vt 0.9745 0.0575
vt 0.5971 0.0153
vt 0.5391 0.1955
vt 0.6738 0.5706
vt 0.5328 0.1237
vt 0.5697 0.0218
vt 0.9802 0.1174
vt 0.5292 0.6327
vt 0.5274 0.5357
vt 0.9270 0.9676
vt 0.5280 0.6429
vt 0.6732 0.8549
vt 0.9798 0.0817
vt 0.5912 0.0118
vt 0.5278 0.6072
vt 0.5290 0.6646
vt 0.9780 0.2854
vt 0.9009 0.9666
vt 0.9688 0.5290
vt 0.6728 0.7620
vt 0.5349 0.4119
vn 0.0000 1.0000 0.0000
vn 0.0000 0.0000 1.0000
vn 0.0000 0.0000 -1.0000
vn -1.0000 0.0000 0.0000
vn 1.0000 0.0000 0.0000
vn 0.9203 0.0000 -0.3911
vn -0.9269 0.0000 -0.3753
vn 0.9409 0.0000 -0.3386
vn 0.0000 0.9907 -0.1362
vn 0.9269 0.0000 -0.3753
vn 0.0000 -0.9883 -0.1524
vn 0.0000 0.9883 -0.1524
vn 0.0000 -1.0000 0.0000
vn 0.0000 -0.8958 -0.4445
vn -0.9409 0.0000 -0.3386
vn 0.0000 0.8958 -0.4445
vn -0.9203 0.0000 -0.3911
vn 0.0000 -0.8808 -0.4734
vn 0.0000 0.8808 -0.4734
vn -0.9305 0.0000 -0.3662
vn 0.9305 0.0000 -0.3662
vn 0.0000 -0.9907 -0.1362
vn -0.5781 -0.8160 0.0000
vn -0.3273 -0.9449 0.0000
vn -0.5260 0.0000 0.8505
vn -0.5781 0.8160 0.0000
vn -0.5260 0.0000 -0.8505
vn -0.2937 0.0000 -0.9559
vn -0.2938 0.0000 0.9559
vn -0.3273 0.9449 0.0000
vn 0.9367 0.0000 0.3500
vn 0.0000 0.9308 0.3655
vn -0.9368 0.0000 0.3500
vn 0.0000 -0.9308 0.3655
vn -0.2937 0.0000 0.9559
vn -0.7257 0.0000 0.6880
vn 0.0000 -0.9552 0.2960
vn 0.7257 0.0000 0.6880
vn 0.0000 0.9552 0.2960
vn -0.9367 0.0000 0.3500
vn 0.9368 0.0000 0.3500
usemtl None
s off
f 18/1/1 22/2/1 21/3/1
f 21/3/1 19/4/1 17/5/1
f 23/6/1 26/7/1 25/8/1
f 26/7/1 27/9/1 25/8/1
f 30/10/1 31/11/1 29/12/1
f 13/13/2 31/14/2 15/15/2
f 12/16/3 26/17/3 10/18/3
f 1/19/4 19/20/4 3/21/4
f 9/22/2 27/23/2 11/24/2
f 4/25/5 18/26/5 2/27/5
f 3/28/3 22/29/3 6/30/3
f 10/31/4 24/32/4 8/33/4
f 5/34/2 17/35/2 1/36/2
f 15/37/4 32/38/4 16/39/4
f 7/40/5 25/41/5 9/42/5
f 6/30/3 20/43/3 4/44/3
f 16/45/3 30/46/3 14/47/3
f 21/48/2 2/49/2 18/50/2
f 7/51/3 24/52/3 23/53/3
f 28/54/4 11/55/4 27/56/4
f 29/57/5 14/58/5 30/59/5
f 47/60/3 255/61/3 260/62/3
f 262/63/6 158/64/6 274/65/6
f 45/66/4 259/67/4 264/68/4
f 202/69/4 262/70/4 286/71/4
f 240/72/2 266/73/2 314/74/2
f 46/75/3 264/76/3 255/61/3
f 51/77/4 54/78/4 93/79/4
f 93/79/4 42/80/4 41/81/4
f 41/81/7 97/82/7 93/79/7
f 57/83/7 73/84/7 74/85/7
f 50/86/8 115/87/8 53/88/8
f 58/89/3 35/90/3 36/91/3
f 241/92/2 34/93/2 239/94/2
f 203/95/4 38/96/4 201/97/4
f 63/98/4 33/99/4 35/100/4
f 38/101/9 171/102/9 39/103/9
f 59/104/3 36/91/3 37/105/3
f 62/106/2 65/107/2 33/108/2
f 69/109/2 66/110/2 65/107/2
f 71/111/3 77/112/3 73/113/3
f 53/114/10 71/115/10 40/116/10
f 57/117/11 72/118/11 53/119/11
f 40/120/12 73/121/12 55/122/12
f 78/123/1 80/124/1 76/125/1
f 74/126/3 76/127/3 72/128/3
f 72/128/3 75/129/3 71/111/3
f 73/113/3 78/130/3 74/126/3
f 80/131/3 81/132/3 79/133/3
f 76/134/4 79/135/4 75/136/4
f 77/137/5 82/138/5 78/139/5
f 75/140/13 81/141/13 77/142/13
f 84/143/4 85/144/4 83/145/4
f 86/146/3 89/147/3 85/148/3
f 90/149/5 87/150/5 89/151/5
f 88/152/2 83/153/2 87/154/2
f 89/155/13 83/156/13 85/157/13
f 86/158/1 88/159/1 90/160/1
f 94/161/3 100/162/3 96/163/3
f 92/164/10 94/165/10 91/166/10
f 93/167/11 95/168/11 92/169/11
f 91/170/12 96/171/12 41/172/12
f 101/173/1 103/174/1 99/175/1
f 95/176/3 101/177/3 99/178/3
f 95/176/3 98/179/3 94/161/3
f 96/163/3 101/177/3 97/180/3
f 103/181/3 104/182/3 102/183/3
f 99/184/4 102/185/4 98/186/4
f 100/187/5 105/188/5 101/189/5
f 98/190/13 104/191/13 100/192/13
f 107/193/4 108/194/4 106/195/4
f 109/196/3 112/197/3 108/198/3
f 113/199/5 110/200/5 112/201/5
f 111/202/2 106/203/2 110/204/2
f 112/205/13 106/206/13 108/207/13
f 109/208/1 111/209/1 113/210/1
f 117/211/3 119/212/3 121/213/3
f 56/214/14 114/215/14 50/216/14
f 56/217/15 117/218/15 116/219/15
f 53/220/16 117/221/16 57/222/16
f 121/223/5 124/224/5 120/225/5
f 114/226/3 119/212/3 115/227/3
f 117/211/3 120/228/3 116/229/3
f 116/229/3 118/230/3 114/226/3
f 122/231/3 125/232/3 123/233/3
f 120/234/1 122/235/1 118/236/1
f 119/237/13 125/238/13 121/239/13
f 118/240/4 123/241/4 119/242/4
f 126/243/8 131/244/8 127/245/8
f 133/246/3 135/247/3 137/248/3
f 128/249/14 130/250/14 126/251/14
f 129/252/15 132/253/15 128/254/15
f 127/255/16 133/256/16 129/257/16
f 137/258/5 140/259/5 136/260/5
f 130/261/3 135/247/3 131/262/3
f 133/246/3 136/263/3 132/264/3
f 132/264/3 134/265/3 130/261/3
f 138/266/3 141/267/3 139/268/3
f 136/269/1 138/270/1 134/271/1
f 135/272/13 141/273/13 137/274/13
f 134/275/4 139/276/4 135/277/4
f 143/278/4 144/279/4 142/280/4
f 145/281/3 148/282/3 144/283/3
f 149/284/5 146/285/5 148/286/5
f 147/287/2 142/288/2 146/289/2
f 148/290/13 142/291/13 144/292/13
f 145/293/1 147/294/1 149/295/1
f 151/296/4 152/297/4 150/298/4
f 153/299/3 156/300/3 152/301/3
f 157/302/5 154/303/5 156/304/5
f 155/305/2 150/306/2 154/307/2
f 156/308/13 150/309/13 152/310/13
f 153/311/1 155/312/1 157/313/1
f 161/314/3 164/315/3 160/316/3
f 256/317/17 160/318/17 272/319/17
f 49/320/18 158/321/18 48/322/18
f 61/323/19 160/324/19 60/325/19
f 164/326/5 280/327/5 276/328/5
f 272/329/3 164/315/3 276/330/3
f 274/331/3 162/332/3 278/333/3
f 159/334/3 162/332/3 158/335/3
f 166/336/3 281/337/3 282/338/3
f 162/339/4 282/340/4 278/341/4
f 163/342/1 166/343/1 162/344/1
f 165/345/13 168/346/13 164/347/13
f 172/348/3 177/349/3 173/350/3
f 60/351/20 171/352/20 172/353/20
f 61/354/21 170/355/21 38/356/21
f 61/323/22 172/357/22 173/358/22
f 175/359/5 180/360/5 176/361/5
f 173/350/3 174/362/3 170/363/3
f 171/364/3 176/365/3 172/348/3
f 170/363/3 175/366/3 171/364/3
f 181/367/3 179/368/3 178/369/3
f 174/370/13 179/371/13 175/372/13
f 176/373/1 181/374/1 177/375/1
f 177/376/4 178/377/4 174/378/4
f 183/379/2 184/380/2 182/381/2
f 185/382/4 188/383/4 184/384/4
f 189/385/3 186/386/3 188/387/3
f 187/388/5 182/389/5 186/390/5
f 188/391/13 182/392/13 184/393/13
f 185/394/1 187/395/1 189/396/1
f 191/397/4 192/398/4 190/399/4
f 193/400/3 196/401/3 192/402/3
f 197/403/5 194/404/5 196/405/5
f 195/406/2 190/407/2 194/408/2
f 196/409/13 190/410/13 192/411/13
f 193/412/1 195/413/1 197/414/1
f 206/415/4 198/416/4 204/417/4
f 199/418/23 209/419/23 205/420/23
f 200/421/4 201/97/4 198/416/4
f 202/422/24 219/423/24 199/424/24
f 44/425/4 288/426/4 266/427/4
f 64/428/4 204/417/4 34/429/4
f 291/430/4 212/431/4 295/432/4
f 285/433/25 208/434/25 291/435/25
f 200/436/26 210/437/26 208/438/26
f 288/439/27 209/440/27 292/441/27
f 212/442/3 299/443/3 295/444/3
f 207/445/4 213/446/4 209/447/4
f 292/448/4 213/446/4 296/449/4
f 210/450/4 212/431/4 208/451/4
f 217/452/4 298/453/4 300/454/4
f 211/455/1 217/456/1 213/457/1
f 213/458/2 300/459/2 296/460/2
f 214/461/13 216/462/13 212/463/13
f 220/464/4 226/465/4 222/466/4
f 284/467/28 219/468/28 302/469/28
f 287/470/29 222/471/29 305/472/29
f 200/473/30 222/474/30 203/475/30
f 223/476/2 310/477/2 306/478/2
f 302/479/4 223/480/4 306/481/4
f 305/482/4 226/465/4 309/483/4
f 221/484/4 223/480/4 219/485/4
f 227/486/4 312/487/4 310/488/4
f 226/489/3 313/490/3 309/491/3
f 225/492/1 227/493/1 223/494/1
f 224/495/13 230/496/13 226/497/13
f 232/498/2 233/499/2 231/500/2
f 234/501/4 237/502/4 233/503/4
f 238/504/3 235/505/3 237/506/3
f 236/507/5 231/508/5 235/509/5
f 237/510/13 231/511/13 233/512/13
f 234/513/1 236/514/1 238/515/1
f 70/516/2 239/94/2 66/110/2
f 315/517/31 245/518/31 319/519/31
f 319/520/2 249/521/2 323/522/2
f 70/523/32 245/524/32 241/525/32
f 270/526/33 242/527/33 316/528/33
f 240/529/34 242/530/34 68/531/34
f 247/532/13 253/533/13 249/534/13
f 244/535/2 246/536/2 242/537/2
f 243/538/2 249/521/2 245/539/2
f 316/540/2 246/536/2 320/541/2
f 250/542/2 326/543/2 324/544/2
f 246/545/5 324/546/5 320/547/5
f 249/548/4 327/549/4 323/550/4
f 248/551/1 250/552/1 246/553/1
f 322/554/4 252/555/4 248/556/4
f 323/550/4 326/557/4 322/554/4
f 321/558/5 251/559/5 247/560/5
f 320/547/5 325/561/5 321/558/5
f 325/562/2 253/563/2 251/564/2
f 324/544/2 327/565/2 325/562/2
f 317/566/2 247/567/2 243/538/2
f 316/540/2 321/568/2 317/566/2
f 271/569/33 243/570/33 70/571/33
f 271/569/33 316/528/33 317/572/33
f 318/573/2 248/574/2 244/535/2
f 319/520/2 322/575/2 318/573/2
f 314/576/31 244/577/31 240/578/31
f 315/517/31 318/579/31 314/576/31
f 308/580/3 229/581/3 225/582/3
f 309/491/3 312/583/3 308/580/3
f 311/584/4 230/585/4 228/586/4
f 310/488/4 313/587/4 311/584/4
f 304/588/4 225/589/4 221/484/4
f 305/482/4 308/590/4 304/588/4
f 303/591/4 224/592/4 220/464/4
f 302/479/4 307/593/4 303/591/4
f 307/594/2 228/595/2 224/596/2
f 306/478/2 311/597/2 307/594/2
f 286/598/35 221/599/35 202/600/35
f 286/598/29 305/472/29 304/601/29
f 285/602/28 220/603/28 200/604/28
f 284/467/28 303/605/28 285/602/28
f 297/606/2 218/607/2 214/608/2
f 296/460/2 301/609/2 297/606/2
f 301/610/4 216/611/4 218/612/4
f 300/454/4 299/613/4 301/610/4
f 293/614/4 214/615/4 210/450/4
f 292/448/4 297/616/4 293/614/4
f 294/617/3 215/618/3 211/619/3
f 295/444/3 298/620/3 294/617/3
f 289/621/27 210/622/27 206/623/27
f 289/621/27 292/441/27 293/624/27
f 284/625/25 207/626/25 199/627/25
f 285/433/25 290/628/25 284/625/25
f 290/629/4 211/630/4 207/445/4
f 291/430/4 294/631/4 290/629/4
f 267/632/4 206/415/4 64/428/4
f 266/427/4 289/633/4 267/632/4
f 279/634/4 169/635/4 165/636/4
f 278/341/4 283/637/4 279/634/4
f 283/638/3 168/639/3 169/640/3
f 282/338/3 280/641/3 283/638/3
f 275/642/3 165/643/3 161/314/3
f 274/331/3 279/644/3 275/642/3
f 273/645/3 163/646/3 159/334/3
f 273/645/3 276/330/3 277/647/3
f 277/648/5 167/649/5 163/650/5
f 276/328/5 281/651/5 277/648/5
f 257/652/17 159/653/17 49/654/17
f 256/317/17 273/655/17 257/652/17
f 254/656/3 63/657/3 58/89/3
f 255/61/3 265/658/3 254/656/3
f 315/659/2 64/660/2 241/92/2
f 314/74/2 267/661/2 315/659/2
f 287/662/4 61/663/4 203/95/4
f 286/71/4 263/664/4 287/662/4
f 265/665/4 62/666/4 63/98/4
f 264/68/4 258/667/4 265/665/4
f 263/668/6 161/669/6 61/670/6
f 263/668/6 274/65/6 275/671/6
f 261/672/3 58/89/3 59/104/3
f 260/62/3 254/656/3 261/672/3
f 329/673/2 331/674/2 328/675/2
f 329/673/36 259/676/36 43/677/36
f 330/678/37 43/679/37 67/680/37
f 331/681/38 67/682/38 268/683/38
f 328/684/39 268/685/39 259/686/39
f 333/687/2 335/688/2 332/689/2
f 333/687/36 268/690/36 67/691/36
f 334/692/37 67/693/37 68/694/37
f 335/695/38 68/696/38 270/697/38
f 332/698/39 270/699/39 268/685/39
f 337/700/2 339/701/2 336/702/2
f 337/700/36 69/703/36 269/704/36
f 338/705/37 269/706/37 271/707/37
f 339/708/38 271/709/38 70/710/38
f 336/711/39 70/712/39 69/713/39
f 341/714/2 343/715/2 340/716/2
f 341/714/36 269/717/36 268/718/36
f 342/719/37 268/720/37 270/721/37
f 271/722/38 342/723/38 270/724/38
f 340/725/39 271/726/39 269/727/39
f 345/728/2 347/729/2 344/730/2
f 345/728/36 62/731/36 258/732/36
f 346/733/37 258/734/37 269/735/37
f 347/736/38 269/737/38 69/738/38
f 344/739/39 69/740/39 62/741/39
f 349/742/2 351/743/2 348/744/2
f 349/742/36 258/745/36 259/746/36
f 350/747/37 259/748/37 268/749/37
f 269/750/38 350/751/38 268/752/38
f 348/753/39 269/754/39 258/755/39
f 18/1/1 20/756/1 22/2/1
f 21/3/1 22/2/1 19/4/1
f 23/6/1 24/757/1 26/7/1
f 26/7/1 28/758/1 27/9/1
f 30/10/1 32/759/1 31/11/1
f 13/13/2 29/760/2 31/14/2
f 12/16/3 28/761/3 26/17/3
f 1/19/4 17/762/4 19/20/4
f 9/22/2 25/763/2 27/23/2
f 4/25/5 20/764/5 18/26/5
f 3/28/3 19/765/3 22/29/3
f 10/31/4 26/766/4 24/32/4
f 5/34/2 21/767/2 17/35/2
f 15/37/4 31/768/4 32/38/4
f 7/40/5 23/769/5 25/41/5
f 6/30/3 22/29/3 20/43/3
f 16/45/3 32/770/3 30/46/3
f 21/48/2 5/771/2 2/49/2
f 7/51/3 8/772/3 24/52/3
f 28/54/4 12/773/4 11/55/4
f 29/57/5 13/774/5 14/58/5
f 47/60/3 46/75/3 255/61/3
f 262/63/6 48/775/6 158/64/6
f 45/66/4 43/776/4 259/67/4
f 202/69/4 48/777/4 262/70/4
f 240/72/2 44/778/2 266/73/2
f 46/75/3 45/779/3 264/76/3
f 51/77/4 52/780/4 54/78/4
f 93/79/4 54/78/4 42/80/4
f 41/81/7 96/781/7 97/82/7
f 57/83/7 55/782/7 73/84/7
f 50/86/8 114/783/8 115/87/8
f 58/89/3 63/657/3 35/90/3
f 241/92/2 64/660/2 34/93/2
f 203/95/4 61/663/4 38/96/4
f 63/98/4 62/666/4 33/99/4
f 38/101/9 170/784/9 171/102/9
f 59/104/3 58/89/3 36/91/3
f 62/106/2 69/109/2 65/107/2
f 69/109/2 70/516/2 66/110/2
f 71/111/3 75/129/3 77/112/3
f 53/114/10 72/785/10 71/115/10
f 57/117/11 74/786/11 72/118/11
f 40/120/12 71/787/12 73/121/12
f 78/123/1 82/788/1 80/124/1
f 74/126/3 78/130/3 76/127/3
f 72/128/3 76/127/3 75/129/3
f 73/113/3 77/112/3 78/130/3
f 80/131/3 82/789/3 81/132/3
f 76/134/4 80/790/4 79/135/4
f 77/137/5 81/791/5 82/138/5
f 75/140/13 79/792/13 81/141/13
f 84/143/4 86/793/4 85/144/4
f 86/146/3 90/794/3 89/147/3
f 90/149/5 88/795/5 87/150/5
f 88/152/2 84/796/2 83/153/2
f 89/155/13 87/797/13 83/156/13
f 86/158/1 84/798/1 88/159/1
f 94/161/3 98/179/3 100/162/3
f 92/164/10 95/799/10 94/165/10
f 93/167/11 97/800/11 95/168/11
f 91/170/12 94/801/12 96/171/12
f 101/173/1 105/802/1 103/174/1
f 95/176/3 97/180/3 101/177/3
f 95/176/3 99/178/3 98/179/3
f 96/163/3 100/162/3 101/177/3
f 103/181/3 105/803/3 104/182/3
f 99/184/4 103/804/4 102/185/4
f 100/187/5 104/805/5 105/188/5
f 98/190/13 102/806/13 104/191/13
f 107/193/4 109/807/4 108/194/4
f 109/196/3 113/808/3 112/197/3
f 113/199/5 111/809/5 110/200/5
f 111/202/2 107/810/2 106/203/2
f 112/205/13 110/811/13 106/206/13
f 109/208/1 107/812/1 111/209/1
f 117/211/3 115/227/3 119/212/3
f 56/214/14 116/813/14 114/215/14
f 56/217/15 57/814/15 117/218/15
f 53/220/16 115/815/16 117/221/16
f 121/223/5 125/816/5 124/224/5
f 114/226/3 118/230/3 119/212/3
f 117/211/3 121/213/3 120/228/3
f 116/229/3 120/228/3 118/230/3
f 122/231/3 124/817/3 125/232/3
f 120/234/1 124/818/1 122/235/1
f 119/237/13 123/819/13 125/238/13
f 118/240/4 122/820/4 123/241/4
f 126/243/8 130/821/8 131/244/8
f 133/246/3 131/262/3 135/247/3
f 128/249/14 132/822/14 130/250/14
f 129/252/15 133/823/15 132/253/15
f 127/255/16 131/824/16 133/256/16
f 137/258/5 141/825/5 140/259/5
f 130/261/3 134/265/3 135/247/3
f 133/246/3 137/248/3 136/263/3
f 132/264/3 136/263/3 134/265/3
f 138/266/3 140/826/3 141/267/3
f 136/269/1 140/827/1 138/270/1
f 135/272/13 139/828/13 141/273/13
f 134/275/4 138/829/4 139/276/4
f 143/278/4 145/830/4 144/279/4
f 145/281/3 149/831/3 148/282/3
f 149/284/5 147/832/5 146/285/5
f 147/287/2 143/833/2 142/288/2
f 148/290/13 146/834/13 142/291/13
f 145/293/1 143/835/1 147/294/1
f 151/296/4 153/836/4 152/297/4
f 153/299/3 157/837/3 156/300/3
f 157/302/5 155/838/5 154/303/5
f 155/305/2 151/839/2 150/306/2
f 156/308/13 154/840/13 150/309/13
f 153/311/1 151/841/1 155/312/1
f 161/314/3 165/643/3 164/315/3
f 256/317/17 60/842/17 160/318/17
f 49/320/18 159/843/18 158/321/18
f 61/323/19 161/844/19 160/324/19
f 164/326/5 168/845/5 280/327/5
f 272/329/3 160/316/3 164/315/3
f 274/331/3 158/335/3 162/332/3
f 159/334/3 163/646/3 162/332/3
f 166/336/3 167/846/3 281/337/3
f 162/339/4 166/847/4 282/340/4
f 163/342/1 167/848/1 166/343/1
f 165/345/13 169/849/13 168/346/13
f 172/348/3 176/365/3 177/349/3
f 60/351/20 39/850/20 171/352/20
f 61/354/21 173/851/21 170/355/21
f 61/323/22 60/325/22 172/357/22
f 175/359/5 179/852/5 180/360/5
f 173/350/3 177/349/3 174/362/3
f 171/364/3 175/366/3 176/365/3
f 170/363/3 174/362/3 175/366/3
f 181/367/3 180/853/3 179/368/3
f 174/370/13 178/854/13 179/371/13
f 176/373/1 180/855/1 181/374/1
f 177/376/4 181/856/4 178/377/4
f 183/379/2 185/857/2 184/380/2
f 185/382/4 189/858/4 188/383/4
f 189/385/3 187/859/3 186/386/3
f 187/388/5 183/860/5 182/389/5
f 188/391/13 186/861/13 182/392/13
f 185/394/1 183/862/1 187/395/1
f 191/397/4 193/863/4 192/398/4
f 193/400/3 197/864/3 196/401/3
f 197/403/5 195/865/5 194/404/5
f 195/406/2 191/866/2 190/407/2
f 196/409/13 194/867/13 190/410/13
f 193/412/1 191/868/1 195/413/1
f 206/415/4 200/421/4 198/416/4
f 199/418/23 207/869/23 209/419/23
f 200/421/4 203/95/4 201/97/4
f 202/422/24 221/870/24 219/423/24
f 44/425/4 205/871/4 288/426/4
f 64/428/4 206/415/4 204/417/4
f 291/430/4 208/451/4 212/431/4
f 285/433/25 200/872/25 208/434/25
f 200/436/26 206/873/26 210/437/26
f 288/439/27 205/874/27 209/440/27
f 212/442/3 216/875/3 299/443/3
f 207/445/4 211/630/4 213/446/4
f 292/448/4 209/447/4 213/446/4
f 210/450/4 214/615/4 212/431/4
f 217/452/4 215/876/4 298/453/4
f 211/455/1 215/877/1 217/456/1
f 213/458/2 217/878/2 300/459/2
f 214/461/13 218/879/13 216/462/13
f 220/464/4 224/592/4 226/465/4
f 284/467/28 199/880/28 219/468/28
f 287/470/35 203/881/35 222/471/35
f 200/473/30 220/882/30 222/474/30
f 223/476/2 227/883/2 310/477/2
f 302/479/4 219/485/4 223/480/4
f 305/482/4 222/466/4 226/465/4
f 221/484/4 225/589/4 223/480/4
f 227/486/4 229/884/4 312/487/4
f 226/489/3 230/885/3 313/490/3
f 225/492/1 229/886/1 227/493/1
f 224/495/13 228/887/13 230/496/13
f 232/498/2 234/888/2 233/499/2
f 234/501/4 238/889/4 237/502/4
f 238/504/3 236/890/3 235/505/3
f 236/507/5 232/891/5 231/508/5
f 237/510/13 235/892/13 231/511/13
f 234/513/1 232/893/1 236/514/1
f 70/516/2 241/92/2 239/94/2
f 315/517/31 241/894/31 245/518/31
f 319/520/2 245/539/2 249/521/2
f 70/523/32 243/895/32 245/524/32
f 270/526/40 68/896/40 242/527/40
f 240/529/34 244/897/34 242/530/34
f 247/532/13 251/898/13 253/533/13
f 244/535/2 248/574/2 246/536/2
f 243/538/2 247/567/2 249/521/2
f 316/540/2 242/537/2 246/536/2
f 250/542/2 252/899/2 326/543/2
f 246/545/5 250/552/5 324/546/5
f 249/548/4 253/900/4 327/549/4
f 248/551/1 252/901/1 250/552/1
f 322/554/4 326/557/4 252/555/4
f 323/550/4 327/549/4 326/557/4
f 321/558/5 325/561/5 251/559/5
f 320/547/5 324/546/5 325/561/5
f 325/562/2 327/565/2 253/563/2
f 324/544/2 326/543/2 327/565/2
f 317/566/2 321/568/2 247/567/2
f 316/540/2 320/541/2 321/568/2
f 271/569/33 317/572/33 243/570/33
f 271/569/40 270/526/40 316/528/40
f 318/573/2 322/575/2 248/574/2
f 319/520/2 323/522/2 322/575/2
f 314/576/41 318/579/41 244/577/41
f 315/517/41 319/519/41 318/579/41
f 308/580/3 312/583/3 229/581/3
f 309/491/3 313/490/3 312/583/3
f 311/584/4 313/587/4 230/585/4
f 310/488/4 312/487/4 313/587/4
f 304/588/4 308/590/4 225/589/4
f 305/482/4 309/483/4 308/590/4
f 303/591/4 307/593/4 224/592/4
f 302/479/4 306/481/4 307/593/4
f 307/594/2 311/597/2 228/595/2
f 306/478/2 310/477/2 311/597/2
f 286/598/29 304/601/29 221/599/29
f 286/598/35 287/470/35 305/472/35
f 285/602/28 303/605/28 220/603/28
f 284/467/28 302/469/28 303/605/28
f 297/606/2 301/609/2 218/607/2
f 296/460/2 300/459/2 301/609/2
f 301/610/4 299/613/4 216/611/4
f 300/454/4 298/453/4 299/613/4
f 293/614/4 297/616/4 214/615/4
f 292/448/4 296/449/4 297/616/4
f 294/617/3 298/620/3 215/618/3
f 295/444/3 299/443/3 298/620/3
f 289/621/27 293/624/27 210/622/27
f 289/621/27 288/439/27 292/441/27
f 284/625/25 290/628/25 207/626/25
f 285/433/25 291/435/25 290/628/25
f 290/629/4 294/631/4 211/630/4
f 291/430/4 295/432/4 294/631/4
f 267/632/4 289/633/4 206/415/4
f 266/427/4 288/426/4 289/633/4
f 279/634/4 283/637/4 169/635/4
f 278/341/4 282/340/4 283/637/4
f 283/638/3 280/641/3 168/639/3
f 282/338/3 281/337/3 280/641/3
f 275/642/3 279/644/3 165/643/3
f 274/331/3 278/333/3 279/644/3
f 273/645/3 277/647/3 163/646/3
f 273/645/3 272/329/3 276/330/3
f 277/648/5 281/651/5 167/649/5
f 276/328/5 280/327/5 281/651/5
f 257/652/17 273/655/17 159/653/17
f 256/317/17 272/319/17 273/655/17
f 254/656/3 265/658/3 63/657/3
f 255/61/3 264/76/3 265/658/3
f 315/659/2 267/661/2 64/660/2
f 314/74/2 266/73/2 267/661/2
f 287/662/4 263/664/4 61/663/4
f 286/71/4 262/70/4 263/664/4
f 265/665/4 258/667/4 62/666/4
f 264/68/4 259/67/4 258/667/4
f 263/668/6 275/671/6 161/669/6
f 263/668/6 262/63/6 274/65/6
f 261/672/3 254/656/3 58/89/3
f 260/62/3 255/61/3 254/656/3
f 329/673/2 330/902/2 331/674/2
f 329/673/36 328/675/36 259/676/36
f 330/678/37 329/903/37 43/679/37
f 331/681/38 330/904/38 67/682/38
f 328/684/39 331/905/39 268/685/39
f 333/687/2 334/906/2 335/688/2
f 333/687/36 332/689/36 268/690/36
f 334/692/37 333/907/37 67/693/37
f 335/695/38 334/908/38 68/696/38
f 332/698/39 335/909/39 270/699/39
f 337/700/2 338/910/2 339/701/2
f 337/700/36 336/702/36 69/703/36
f 338/705/37 337/911/37 269/706/37
f 339/708/38 338/912/38 271/709/38
f 336/711/39 339/913/39 70/712/39
f 341/714/2 342/914/2 343/715/2
f 341/714/36 340/716/36 269/717/36
f 342/719/37 341/915/37 268/720/37
f 271/722/38 343/916/38 342/723/38
f 340/725/39 343/917/39 271/726/39
f 345/728/2 346/918/2 347/729/2
f 345/728/36 344/730/36 62/731/36
f 346/733/37 345/919/37 258/734/37
f 347/736/38 346/920/38 269/737/38
f 344/739/39 347/921/39 69/740/39
f 349/742/2 350/922/2 351/743/2
f 349/742/36 348/744/36 258/745/36
f 350/747/37 349/923/37 259/748/37
f 269/750/38 351/924/38 350/751/38
f 348/753/39 351/925/39 269/754/39
