# Blender v2.78 (sub 0) OBJ File: ''
# www.blender.org
mtllib livingroom_floor.mtl
o Plane.001
v -0.357299 0.000000 1.412299
v 4.225630 0.000000 1.412299
v -0.357299 0.000000 -2.891723
v 4.225630 0.000000 -2.891723
v 1.495374 0.000000 1.412299
v 1.495374 0.000000 -2.891723
v -0.357299 0.000000 2.103505
v 0.767788 0.000000 2.103505
v -0.357299 0.000000 3.643561
v 0.767788 0.000000 3.643561
v -0.357299 0.000000 1.011362
v 4.225630 0.000000 1.011362
v 1.495374 0.000000 1.011362
v -1.630574 0.000000 1.412299
v -1.630574 0.000000 2.103505
v -1.630574 0.000000 3.643561
v -1.630574 0.000000 1.011362
vt 2.2060 0.1682
vt 0.6153 2.2060
vt 0.6153 0.1682
vt -0.4642 2.2060
vt -0.4642 0.1682
vt -0.4642 -0.0411
vt 0.1914 -0.4020
vt 0.6153 -0.0411
vt -0.4642 -0.4020
vt 0.1914 -1.2060
vt 2.2060 -0.0411
vt -1.2060 -1.2060
vt -0.4642 -1.2060
vt -1.2060 -0.4020
vt -1.2060 -0.0411
vt 2.2060 2.2060
vt -1.2060 0.1682
vn 0.0000 1.0000 0.0000
usemtl Material.001
s off
f 12/1/1 6/2/1 13/3/1
f 13/3/1 3/4/1 11/5/1
f 1/6/1 8/7/1 5/8/1
f 7/9/1 10/10/1 8/7/1
f 5/8/1 11/5/1 1/6/1
f 2/11/1 13/3/1 5/8/1
f 7/9/1 16/12/1 9/13/1
f 1/6/1 15/14/1 7/9/1
f 11/5/1 14/15/1 1/6/1
f 12/1/1 4/16/1 6/2/1
f 13/3/1 6/2/1 3/4/1
f 1/6/1 7/9/1 8/7/1
f 7/9/1 9/13/1 10/10/1
f 5/8/1 13/3/1 11/5/1
f 2/11/1 12/1/1 13/3/1
f 7/9/1 15/14/1 16/12/1
f 1/6/1 14/15/1 15/14/1
f 11/5/1 17/17/1 14/15/1
