# Blender v2.78 (sub 0) OBJ File: ''
# www.blender.org
mtllib outer_walls.mtl
o Plane.013_Plane.012
v -0.469242 0.000000 -3.005168
v -0.270941 0.000000 -3.005168
v -0.195474 0.000000 -3.005168
v -0.834499 0.000000 -3.005168
v 0.912373 0.000000 -3.005168
v 4.199692 0.000000 -3.005168
v 4.426091 0.000000 -2.827067
v 4.426091 0.000000 -3.005168
v 4.199692 0.000000 -4.348471
v 4.426091 0.000000 -4.348471
v 4.199692 0.000000 -4.547703
v 4.426091 0.000000 -4.547703
v 3.689538 0.000000 -4.348471
v 3.689538 0.000000 -4.547703
v -2.638807 0.000000 -4.348471
v -2.638807 0.000000 -4.547703
v -2.845370 0.000000 -4.547703
v -2.626119 0.000000 -4.321133
v -2.055894 0.000000 -3.092426
v -1.645915 0.000000 -3.005168
v -1.993664 0.000000 -3.005168
v -2.015399 0.000000 -3.005168
v -4.084227 0.000000 -4.547703
v -4.316061 0.000000 -4.348471
v -4.316061 0.000000 -4.547703
v -4.316061 0.000000 0.893852
v -4.316061 0.000000 1.102502
v -4.316061 0.000000 2.454378
v -4.316061 0.000000 2.649987
v -0.897248 0.000000 4.675627
v -1.754306 0.000000 4.675627
v -1.567390 0.000000 4.675627
v -4.316061 0.000000 4.493059
v -4.084227 0.000000 4.675627
v -4.316061 0.000000 4.675627
v -0.081585 0.000000 4.675627
v 0.606044 0.000000 4.675627
v 0.805275 0.000000 4.675627
v 0.805275 0.000000 4.493059
v 0.805275 0.000000 4.088559
v 4.426091 0.000000 -1.414926
v 4.426091 0.000000 -0.062876
v 4.426091 0.000000 1.439402
v 4.426091 0.000000 2.776429
v 4.426091 0.000000 3.901402
v 4.199692 0.000000 4.088559
v 4.426091 0.000000 4.088559
v -0.469242 0.111606 -3.005168
v -0.270941 0.111606 -3.005168
v -0.195474 0.111606 -3.005168
v -0.834499 0.111606 -3.005168
v 0.912373 0.111606 -3.005168
v 4.199692 0.111606 -3.005168
v 4.426091 0.111606 -2.827067
v 4.426091 0.111606 -3.005168
v 4.199692 0.111606 -4.348471
v 4.426091 0.111606 -4.348471
v 4.199692 0.111606 -4.547703
v 4.426091 0.111606 -4.547703
v 3.689538 0.111606 -4.348471
v 3.689538 0.111606 -4.547703
v -2.638807 0.111606 -4.348471
v -2.638807 0.111606 -4.547703
v -2.845370 0.111606 -4.547703
v -2.626119 0.111606 -4.321133
v -2.055894 0.111606 -3.092426
v -1.645915 0.111606 -3.005168
v -1.993664 0.111606 -3.005168
v -2.015399 0.111606 -3.005168
v -4.084227 0.111606 -4.547703
v -4.316061 0.111606 -4.348471
v -4.316061 0.111606 -4.547703
v -4.316061 0.111606 0.893852
v -4.316061 0.111606 1.102502
v -4.316061 0.111606 2.454378
v -4.316061 0.111606 2.649987
v -0.897248 0.111606 4.675627
v -1.754306 0.111606 4.675627
v -1.567390 0.111606 4.675627
v -4.316061 0.111606 4.493059
v -4.084227 0.111606 4.675627
v -4.316061 0.111606 4.675627
v -0.081585 0.111606 4.675627
v 0.606044 0.111606 4.675627
v 0.805275 0.111606 4.675627
v 0.805275 0.111606 4.493059
v 0.805275 0.111606 4.088559
v 4.426091 0.111606 -1.414926
v 4.426091 0.111606 -0.062876
v 4.426091 0.111606 1.439402
v 4.426091 0.111606 2.776429
v 4.426091 0.111606 3.901402
v 4.199692 0.111606 4.088559
v 4.426091 0.111606 4.088559
v -0.469242 0.966010 -3.005168
v -0.270941 0.966010 -3.005168
v -0.195474 0.966010 -3.005168
v -0.834499 0.966010 -3.005168
v 0.912373 0.966010 -3.005168
v 4.199692 0.966010 -3.005168
v 4.426091 0.966010 -2.827067
v 4.426091 0.966010 -3.005168
v 4.199692 0.966010 -4.348471
v 4.426091 0.966010 -4.348471
v 4.199692 0.966010 -4.547703
v 4.426091 0.966010 -4.547703
v 3.689538 0.966010 -4.348471
v 3.689538 0.966010 -4.547703
v -2.638807 0.966010 -4.348471
v -2.638807 0.966010 -4.547703
v -2.845370 0.966010 -4.547703
v -2.626119 0.966010 -4.321133
v -2.055894 0.966010 -3.092426
v -1.645915 0.966010 -3.005168
v -1.993664 0.966010 -3.005168
v -2.015399 0.966010 -3.005168
v -4.084227 0.966010 -4.547703
v -4.316061 0.966010 -4.348471
v -4.316061 0.966010 -4.547703
v -4.316061 0.966010 0.893852
v -4.316061 0.966010 1.102502
v -4.316061 0.966010 2.454378
v -4.316061 0.966010 2.649987
v -0.897248 0.966010 4.675627
v -1.754306 0.966010 4.675627
v -1.567390 0.966010 4.675627
v -4.316061 0.966010 4.493059
v -4.084227 0.966010 4.675627
v -4.316061 0.966010 4.675627
v -0.081585 0.966010 4.675627
v 0.606044 0.966010 4.675627
v 0.805275 0.966010 4.675627
v 0.805275 0.966010 4.493059
v 0.805275 0.966010 4.088559
v 4.426091 0.966010 -1.414926
v 4.426091 0.966010 -0.062876
v 4.426091 0.966010 1.439402
v 4.426091 0.966010 2.776429
v 4.426091 0.966010 3.901402
v 4.199692 0.966010 4.088559
v 4.426091 0.966010 4.088559
v -0.469242 2.216444 -3.005168
v -0.270941 2.216444 -3.005168
v -0.195474 2.216444 -3.005168
v -0.834499 2.216444 -3.005168
v 0.912373 2.216444 -3.005168
v 4.199692 2.216444 -3.005168
v 4.426091 2.216444 -2.827067
v 4.426091 2.216444 -3.005168
v 4.199692 2.216444 -4.348471
v 4.426091 2.216444 -4.348471
v 4.199692 2.216444 -4.547703
v 4.426091 2.216444 -4.547703
v 3.689538 2.216444 -4.348471
v 3.689538 2.216444 -4.547703
v -2.638807 2.216444 -4.348471
v -2.638807 2.216444 -4.547703
v -2.845370 2.216444 -4.547703
v -2.626119 2.216444 -4.321133
v -2.055894 2.216444 -3.092426
v -1.645915 2.216444 -3.005168
v -1.993664 2.216444 -3.005168
v -2.015399 2.216444 -3.005168
v -4.084227 2.216444 -4.547703
v -4.316061 2.216444 -4.348471
v -4.316061 2.216444 -4.547703
v -4.316061 2.216444 0.893852
v -4.316061 2.216444 1.102502
v -4.316061 2.216444 2.454378
v -4.316061 2.216444 2.649987
v -0.897248 2.216444 4.675627
v -1.754306 2.216444 4.675627
v -1.567390 2.216444 4.675627
v -4.316061 2.216444 4.493059
v -4.084227 2.216444 4.675627
v -4.316061 2.216444 4.675627
v -0.081585 2.216444 4.675627
v 0.606044 2.216444 4.675627
v 0.805275 2.216444 4.675627
v 0.805275 2.216444 4.493059
v 0.805275 2.216444 4.088559
v 4.426091 2.216444 -1.414926
v 4.426091 2.216444 -0.062876
v 4.426091 2.216444 1.439402
v 4.426091 2.216444 2.776429
v 4.426091 2.216444 3.901402
v 4.199692 2.216444 4.088559
v 4.426091 2.216444 4.088559
v -0.469242 2.818160 -3.005168
v -0.270941 2.818160 -3.005168
v -0.195474 2.818160 -3.005168
v -0.834499 2.818160 -3.005168
v 0.912373 2.818160 -3.005168
v 4.199692 2.818160 -3.005168
v 4.426091 2.818160 -2.827067
v 4.426091 2.818160 -3.005168
v 4.199692 2.818160 -4.348471
v 4.426091 2.818160 -4.348471
v 4.199692 2.818160 -4.547703
v 4.426091 2.818160 -4.547703
v 3.689538 2.818160 -4.348471
v 3.689538 2.818160 -4.547703
v -2.638807 2.818160 -4.348471
v -2.638807 2.818160 -4.547703
v -2.845370 2.818160 -4.547703
v -2.626119 2.818160 -4.321133
v -2.055894 2.818160 -3.092426
v -1.645915 2.818160 -3.005168
v -1.993664 2.818160 -3.005168
v -2.015399 2.818160 -3.005168
v -4.084227 2.818160 -4.547703
v -4.316061 2.818160 -4.348471
v -4.316061 2.818160 -4.547703
v -4.316061 2.818160 0.893852
v -4.316061 2.818160 1.102502
v -4.316061 2.818160 2.454378
v -4.316061 2.818160 2.649987
v -0.897248 2.818160 4.675627
v -1.754306 2.818160 4.675627
v -1.567390 2.818160 4.675627
v -4.316061 2.818160 4.493059
v -4.084227 2.818160 4.675627
v -4.316061 2.818160 4.675627
v -0.081585 2.818160 4.675627
v 0.606044 2.818160 4.675627
v 0.805275 2.818160 4.675627
v 0.805275 2.818160 4.493059
v 0.805275 2.818160 4.088559
v 4.426091 2.818160 -1.414926
v 4.426091 2.818160 -0.062876
v 4.426091 2.818160 1.439402
v 4.426091 2.818160 2.776429
v 4.426091 2.818160 3.901402
v 4.199692 2.818160 4.088559
v 4.426091 2.818160 4.088559
v -4.316061 0.000000 2.919814
v -4.316061 0.111606 2.919814
v -4.316061 1.671216 2.919814
v -4.316061 2.216444 2.919814
v -4.316061 2.818160 2.919814
v -4.316061 0.000000 4.241050
v -4.316061 0.111606 4.241050
v -4.316061 1.671216 4.241050
v -4.316061 2.216444 4.241050
v -4.316061 2.818160 4.241050
v -4.316061 0.000000 -2.408006
v -4.316061 0.000000 -1.045121
v -4.316061 0.111606 -2.408006
v -4.316061 0.111606 -1.045121
v -4.316061 0.966010 -2.408006
v -4.316061 0.966010 -1.045121
v -4.316061 2.216444 -2.408006
v -4.316061 2.216444 -1.045121
v -4.316061 2.818160 -2.408006
v -4.316061 2.818160 -1.045121
vt 7.2095 -2.3586
vt 5.0829 -1.5763
vt 5.0829 -2.3586
vt 9.0928 1.2690
vt 9.0239 2.0512
vt 9.0239 1.2690
vt 0.7395 4.2204
vt 0.5492 5.0027
vt 0.5492 4.2204
vt -1.2192 5.0027
vt -1.2192 4.2204
vt 7.9918 -2.3586
vt 7.3801 -1.5763
vt 7.3801 -2.3586
vt 9.2738 1.2690
vt 9.0928 2.0512
vt 3.5658 1.6402
vt 3.3542 2.4225
vt 3.3542 1.6402
vt 3.9983 4.2204
vt 3.8318 5.0027
vt 3.8318 4.2204
vt -4.2319 4.2204
vt -4.4136 5.0027
vt -4.4136 4.2204
vt 4.8713 -1.5763
vt 4.8713 -2.3586
vt 3.6020 4.2204
vt 3.6020 5.6484
vt 9.5999 3.9027
vt 9.5745 4.6826
vt 9.5745 3.9027
vt -9.4837 -1.7663
vt -6.3854 -2.5485
vt -6.3854 -1.7663
vt 10.6851 1.2690
vt 10.6652 2.0512
vt 10.6652 1.2690
vt -4.2429 -0.9400
vt -4.4136 -0.1577
vt -4.4136 -0.9400
vt 7.2095 -1.5763
vt -9.6903 -1.7663
vt -9.4837 -2.5485
vt 10.3478 2.0512
vt 10.3478 1.2690
vt -3.2169 -0.9400
vt -4.2429 -0.1577
vt 2.2234 2.4225
vt 2.2234 1.6402
vt -1.9974 -0.9400
vt -3.2169 -0.1577
vt 7.9136 -3.5547
vt 6.7694 -2.7749
vt 6.7694 -3.5547
vt 6.6881 -2.7749
vt 6.6881 -3.5547
vt -0.6272 -0.9400
vt -1.9974 -0.1577
vt 7.3801 -2.4607
vt 7.2095 -2.4607
vt -4.2429 -1.0421
vt -4.4136 -1.0421
vt 10.6851 1.1668
vt 10.6652 1.1668
vt -9.4837 -1.6641
vt -6.3854 -1.6641
vt 7.9391 -3.6566
vt 7.9136 -3.6566
vt 3.8318 4.1183
vt 3.6020 4.1183
vt 10.3478 1.1668
vt 9.6072 1.2690
vt 9.6072 1.1668
vt 5.0829 -2.4607
vt 4.8713 -2.4607
vt -4.2319 4.1183
vt -4.4136 4.1183
vt 3.9983 4.1183
vt 3.5658 1.5381
vt 3.3542 1.5381
vt 9.0239 1.1668
vt 8.0127 1.2690
vt 8.0127 1.1668
vt 9.2738 1.1668
vt 9.0928 1.1668
vt 7.9918 -2.4607
vt 0.5492 4.1183
vt -1.2192 4.1183
vt 0.7395 4.1183
vt 9.3639 -2.4607
vt 8.7363 -2.3586
vt 8.7363 -2.4607
vt 3.4633 -1.0421
vt 3.2816 -0.9400
vt 3.2816 -1.0421
vt 1.9725 4.1183
vt -4.2070 1.5381
vt -4.4136 1.6402
vt -4.4136 1.5381
vt 6.1158 -2.5907
vt 6.2828 -2.6925
vt 6.2828 -2.5907
vt 9.5458 -2.4607
vt 9.3639 -2.3586
vt 2.1509 4.1183
vt 1.9725 4.2204
vt 5.0122 1.2690
vt 5.0122 1.1668
vt 2.0564 -1.0421
vt 1.8940 -0.9400
vt 1.8940 -1.0421
vt 5.7457 -2.5907
vt 6.1158 -2.6925
vt 2.0564 -0.9400
vt -4.0567 3.2354
vt -2.8278 3.1336
vt -2.8278 3.2354
vt -3.7413 1.5381
vt -4.2070 1.6402
vt -4.4136 -1.0421
vt -3.9480 -1.1443
vt -3.9480 -1.0421
vt 2.0349 1.5381
vt -3.7413 1.6402
vt 1.8282 -1.1443
vt 1.8282 -1.0421
vt 0.6060 -0.9400
vt 0.6060 -1.0421
vt 2.2234 1.5381
vt 2.0349 1.6402
vt -0.6272 -1.0421
vt -1.9974 -1.0421
vt 6.7694 -3.6566
vt 6.6881 -3.6566
vt -3.2169 -1.0421
vt -9.6903 -1.6641
vt 3.8318 6.1475
vt 3.6020 6.1475
vt 9.5999 4.6826
vt 9.5745 5.8239
vt -6.3854 -3.6934
vt 10.6851 2.0512
vt 10.6652 3.1961
vt -4.4136 0.9871
vt 7.2095 -0.4314
vt -9.6903 -2.5485
vt -9.4837 -3.6934
vt 10.3478 3.1961
vt -4.2429 0.9871
vt 2.2234 3.5673
vt 6.6881 -1.6335
vt -0.6272 -0.1577
vt -1.9974 0.9871
vt 2.0349 3.5673
vt 2.0349 2.4225
vt 0.6060 -0.1577
vt 1.8940 0.9871
vt 0.6060 0.9871
vt -4.4136 -1.9266
vt -3.9480 -3.0714
vt -3.9480 -1.9266
vt -3.7413 2.4225
vt -4.2070 3.5673
vt -4.2070 2.4225
vt 9.2738 2.0512
vt 8.7363 -1.5763
vt 3.4633 -0.9400
vt 3.2816 -0.1577
vt 0.7395 5.0027
vt -4.4136 2.4225
vt 6.2828 -3.4724
vt 9.5458 -2.3586
vt 9.3639 -1.5763
vt 2.1509 4.2204
vt 1.9725 5.0027
vt 5.0122 2.0512
vt 1.8940 -0.1577
vt 5.7457 -2.6925
vt 6.1158 -3.4724
vt 2.0564 -0.1577
vt -4.0567 3.1336
vt -2.8278 2.3537
vt -4.4136 -1.1443
vt 7.8560 -7.0804
vt 2.0798 -6.8980
vt 2.0798 -7.0804
vt 7.6846 6.5257
vt 6.9047 6.7080
vt 6.9047 6.5257
vt -6.3854 -4.2443
vt 10.6851 3.1961
vt 10.6652 3.7470
vt -4.4136 1.5381
vt 7.3801 -0.4314
vt 7.2095 0.1195
vt -9.6903 -3.6934
vt -9.4837 -4.2443
vt 10.3478 3.7470
vt -3.2169 0.9871
vt -4.2429 1.5381
vt 8.7363 -0.4314
vt 7.9918 0.1195
vt 7.9918 -0.4314
vt 3.3542 3.5673
vt 2.2234 4.1183
vt -3.2169 1.5381
vt 7.9136 -1.6335
vt 6.7694 -1.0843
vt 6.7694 -1.6335
vt 6.6881 -1.0843
vt -0.6272 0.9871
vt -1.9974 1.5381
vt -0.6272 1.5381
vt 2.0349 4.1183
vt 0.6060 1.5380
vt 1.8282 -3.6223
vt 1.8282 -3.0714
vt -3.7413 4.1183
vt -3.7413 3.5673
vt -4.4136 -3.0714
vt -3.9480 -3.6223
vt -4.2070 4.1183
vt -4.0567 1.2123
vt -2.8278 0.6631
vt -2.8278 1.2123
vt 3.2816 0.9871
vt 2.0564 1.5380
vt 2.0564 0.9871
vt 4.8713 -0.4314
vt -4.2319 5.0027
vt -4.4136 6.1475
vt 3.9983 5.0027
vt 3.5658 2.4225
vt 9.0928 3.1961
vt 7.9918 -1.5763
vt -1.2192 6.1475
vt 0.5492 6.1475
vt 9.0239 3.1961
vt 5.0829 -0.4314
vt 9.6072 2.0512
vt 9.2738 3.1961
vt 3.4633 -0.1577
vt 0.7395 6.1475
vt -4.4136 3.5673
vt 6.2828 -4.6137
vt 9.5458 -1.5763
vt 9.3639 -0.4314
vt 2.1509 5.0027
vt 1.9725 6.1475
vt 8.0127 2.0512
vt 5.0122 3.1961
vt 5.7457 -3.4724
vt 6.1158 -4.6137
vt -4.0567 2.3537
vt 9.5999 5.8239
vt 9.5745 6.3731
vt 3.6020 6.6985
vt 9.6072 3.7470
vt 9.6072 3.1961
vt 4.8713 0.1195
vt -4.2319 6.1475
vt -4.4136 6.6985
vt 3.9983 6.1475
vt 3.8318 6.6985
vt 3.5658 3.5673
vt 3.3542 4.1183
vt 8.0127 3.7470
vt 8.0127 3.1961
vt 9.0928 3.7470
vt 7.3801 0.1195
vt -1.2192 6.6985
vt 0.5492 6.6985
vt 9.0239 3.7470
vt 5.0829 0.1195
vt 9.2738 3.7470
vt 8.7363 0.1195
vt 3.4633 0.9871
vt 3.2816 1.5380
vt 0.7395 6.6985
vt -4.4136 4.1183
vt 6.2828 -5.1630
vt 9.5458 -0.4314
vt 9.3639 0.1195
vt 2.1509 6.1475
vt 1.9725 6.6985
vt 5.0122 3.7470
vt 1.8940 1.5380
vt 5.7457 -4.6137
vt 6.1158 -5.1630
vt 5.7174 -5.3749
vt 4.9376 -5.1927
vt 4.9376 -5.3749
vt 5.7634 6.7080
vt 5.7634 6.5257
vt -5.3376 -7.1602
vt 0.4386 -6.9778
vt -5.3376 -6.9778
vt 6.8588 -5.1927
vt 6.8588 -5.3749
vt 2.3970 6.1475
vt 2.1509 6.6985
vt 2.3970 5.6484
vt 2.3970 4.1183
vt 2.3970 4.2204
vt 2.3970 6.6985
vt -2.4622 6.1475
vt -4.2319 6.6985
vt -2.4622 6.6985
vt -2.4622 5.0027
vt -2.4622 4.1183
vt -2.4622 4.2204
vt 7.9136 -2.7749
vt 7.9391 -3.5547
vt 7.8560 -6.8980
vt 7.6846 6.7080
vt 10.6851 3.7470
vt -9.6903 -4.2443
vt 7.9136 -1.0843
vt -4.4136 -3.6223
vt -4.0567 0.6631
vt 9.5999 6.3731
vt 3.9983 6.6985
vt 3.5658 4.1183
vt 3.4633 1.5380
vt 9.5458 0.1195
vt 5.7457 -5.1630
vt 5.7174 -5.1927
vt 0.4386 -7.1602
vn 0.0000 0.0000 1.0000
vn 0.0000 0.0000 -1.0000
vn -1.0000 0.0000 0.0000
vn 0.9071 0.0000 -0.4210
vn 1.0000 0.0000 0.0000
vn 0.0000 1.0000 0.0000
vn 0.0000 -1.0000 0.0000
usemtl None
s off
f 78/1/1 128/2/1 81/3/1
f 49/4/2 97/5/2 50/6/2
f 74/7/3 120/8/3 73/9/3
f 73/9/3 251/10/3 249/11/3
f 77/12/1 126/13/1 79/14/1
f 48/15/2 96/16/2 49/4/2
f 72/17/2 117/18/2 70/19/2
f 82/20/3 127/21/3 80/22/3
f 71/23/3 119/24/3 72/25/3
f 81/3/1 129/26/1 82/27/1
f 242/28/3 127/21/3 243/29/3
f 62/30/4 112/31/4 65/32/4
f 93/33/1 134/34/1 87/35/1
f 69/36/2 115/37/2 68/38/2
f 92/39/5 141/40/5 94/41/5
f 79/14/1 125/42/1 78/1/1
f 94/43/1 140/44/1 93/33/1
f 68/38/2 114/45/2 67/46/2
f 91/47/5 139/48/5 92/39/5
f 70/19/2 111/49/2 64/50/2
f 90/51/5 138/52/5 91/47/5
f 65/53/4 113/54/4 66/55/4
f 66/55/4 116/56/4 69/57/4
f 89/58/5 137/59/5 90/51/5
f 32/60/1 78/1/1 31/61/1
f 45/62/5 94/41/5 47/63/5
f 22/64/2 68/38/2 21/65/2
f 46/66/1 87/35/1 40/67/1
f 15/68/4 65/53/4 18/69/4
f 33/70/3 242/28/3 241/71/3
f 20/72/2 51/73/2 4/74/2
f 34/75/1 82/27/1 35/76/1
f 24/77/3 72/25/3 25/78/3
f 35/79/3 80/22/3 33/70/3
f 25/80/2 70/19/2 23/81/2
f 3/82/2 52/83/2 5/84/2
f 1/85/2 49/4/2 2/86/2
f 30/87/1 79/14/1 32/60/1
f 26/88/3 249/11/3 247/89/3
f 27/90/3 73/9/3 26/88/3
f 2/86/2 50/6/2 3/82/2
f 31/61/1 81/3/1 34/75/1
f 4/74/2 48/15/2 1/85/2
f 37/91/1 83/92/1 36/93/1
f 12/94/5 57/95/5 10/96/5
f 28/97/3 74/7/3 27/90/3
f 11/98/2 59/99/2 12/100/2
f 39/101/5 85/102/5 38/103/5
f 38/104/1 84/105/1 37/91/1
f 29/106/3 75/107/3 28/97/3
f 5/84/2 53/108/2 6/109/2
f 8/110/5 54/111/5 7/112/5
f 40/113/5 86/114/5 39/101/5
f 10/96/5 55/115/5 8/110/5
f 6/116/3 56/117/3 9/118/3
f 14/119/2 58/120/2 11/98/2
f 9/121/1 60/122/1 13/123/1
f 16/124/2 61/125/2 14/119/2
f 13/123/1 62/126/1 15/127/1
f 7/112/5 88/128/5 41/129/5
f 17/130/2 63/131/2 16/124/2
f 41/129/5 89/58/5 42/132/5
f 42/132/5 90/51/5 43/133/5
f 19/134/4 69/57/4 22/135/4
f 18/69/4 66/55/4 19/134/4
f 43/133/5 91/47/5 44/136/5
f 23/81/2 64/50/2 17/130/2
f 36/93/1 77/12/1 30/87/1
f 44/136/5 92/39/5 45/62/5
f 21/65/2 67/46/2 20/72/2
f 47/137/1 93/33/1 46/66/1
f 243/29/3 174/138/3 244/139/3
f 109/140/4 159/141/4 112/31/4
f 140/44/1 181/142/1 134/34/1
f 116/143/2 162/144/2 115/37/2
f 139/48/5 188/145/5 141/40/5
f 126/13/1 172/146/1 125/42/1
f 141/147/1 187/148/1 140/44/1
f 115/37/2 161/149/2 114/45/2
f 138/52/5 186/150/5 139/48/5
f 117/18/2 158/151/2 111/49/2
f 113/54/4 163/152/4 116/56/4
f 136/153/5 184/154/5 137/59/5
f 111/49/2 157/155/2 110/156/2
f 135/157/5 148/158/5 182/159/5
f 103/160/1 154/161/1 107/162/1
f 108/163/2 152/164/2 105/165/2
f 51/73/2 95/166/2 48/15/2
f 84/105/1 130/167/1 83/92/1
f 59/168/5 104/169/5 57/95/5
f 75/107/3 121/170/3 74/7/3
f 58/120/2 106/171/2 59/99/2
f 86/114/5 132/172/5 85/102/5
f 85/173/1 131/174/1 84/105/1
f 76/175/3 122/176/3 75/107/3
f 52/83/2 100/177/2 53/108/2
f 55/115/5 101/178/5 54/111/5
f 87/179/5 133/180/5 86/114/5
f 57/95/5 102/181/5 55/115/5
f 53/182/3 103/183/3 56/117/3
f 61/125/2 105/165/2 58/120/2
f 56/184/1 107/162/1 60/122/1
f 63/185/6 60/186/6 61/187/6
f 62/188/5 110/189/5 109/190/5
f 54/111/5 135/157/5 88/128/5
f 64/50/2 110/156/2 63/131/2
f 88/128/5 136/153/5 89/58/5
f 187/148/1 228/191/1 181/142/1
f 163/192/2 209/193/2 162/144/2
f 186/150/5 235/194/5 188/145/5
f 173/195/1 219/196/1 172/146/1
f 188/197/1 234/198/1 187/148/1
f 162/144/2 208/199/2 161/149/2
f 185/200/5 233/201/5 186/150/5
f 177/202/1 218/203/1 171/204/1
f 164/205/2 205/206/2 158/151/2
f 184/154/5 232/207/5 185/200/5
f 159/208/4 207/209/4 160/210/4
f 160/210/4 210/211/4 163/152/4
f 183/212/5 231/213/5 184/154/5
f 182/159/5 230/214/5 183/212/5
f 158/151/2 204/215/2 157/155/2
f 148/158/5 229/216/5 182/159/5
f 154/161/1 203/217/1 156/218/1
f 157/155/2 202/219/2 155/220/2
f 150/221/1 201/222/1 154/161/1
f 155/220/2 199/223/2 152/164/2
f 147/224/3 197/225/3 150/226/3
f 151/227/5 196/228/5 149/229/5
f 128/2/1 176/230/1 129/26/1
f 118/231/3 166/232/3 119/24/3
f 129/233/3 174/138/3 127/21/3
f 119/234/2 164/205/2 117/18/2
f 95/166/2 143/235/2 96/16/2
f 124/236/1 173/195/1 126/13/1
f 120/8/3 253/237/3 251/10/3
f 121/170/3 167/238/3 120/8/3
f 96/16/2 144/239/2 97/5/2
f 125/42/1 175/240/1 128/2/1
f 98/241/2 142/242/2 95/166/2
f 131/174/1 177/202/1 130/167/1
f 106/243/5 151/227/5 104/169/5
f 122/176/3 168/244/3 121/170/3
f 105/165/2 153/245/2 106/171/2
f 133/180/5 179/246/5 132/172/5
f 132/247/1 178/248/1 131/174/1
f 123/249/3 169/250/3 122/176/3
f 99/251/2 147/252/2 100/177/2
f 102/181/5 148/158/5 101/178/5
f 134/253/5 180/254/5 133/180/5
f 104/169/5 149/229/5 102/181/5
f 100/255/3 150/226/3 103/183/3
f 156/256/4 206/257/4 159/141/4
f 174/138/3 245/258/3 244/139/3
f 161/149/2 192/259/2 145/260/2
f 175/240/1 223/261/1 176/230/1
f 165/262/3 213/263/3 166/232/3
f 176/264/3 221/265/3 174/138/3
f 166/266/2 211/267/2 164/205/2
f 144/239/2 193/268/2 146/269/2
f 142/242/2 190/270/2 143/235/2
f 171/204/1 220/271/1 173/195/1
f 167/238/3 255/272/3 253/237/3
f 168/244/3 214/273/3 167/238/3
f 143/235/2 191/274/2 144/239/2
f 172/146/1 222/275/1 175/240/1
f 145/260/2 189/276/2 142/242/2
f 178/248/1 224/277/1 177/202/1
f 153/278/5 198/279/5 151/227/5
f 169/250/3 215/280/3 168/244/3
f 152/164/2 200/281/2 153/245/2
f 180/254/5 226/282/5 179/246/5
f 179/283/1 225/284/1 178/248/1
f 170/285/3 216/286/3 169/250/3
f 146/269/2 194/287/2 147/252/2
f 149/229/5 195/288/5 148/158/5
f 181/289/5 227/290/5 180/254/5
f 107/291/3 61/292/3 60/293/3
f 109/190/5 157/294/5 156/295/5
f 154/296/7 157/297/7 155/298/7
f 155/299/3 107/291/3 154/300/3
f 239/301/3 217/302/3 170/285/3
f 238/303/3 170/285/3 123/249/3
f 236/304/3 76/175/3 29/106/3
f 237/305/3 123/249/3 76/175/3
f 244/139/3 240/306/3 239/301/3
f 241/71/3 237/305/3 236/304/3
f 242/28/3 238/303/3 237/305/3
f 252/307/3 212/308/3 165/262/3
f 253/237/3 254/309/3 252/307/3
f 250/310/3 165/262/3 118/231/3
f 246/311/3 71/23/3 24/77/3
f 247/89/3 248/312/3 246/311/3
f 248/312/3 118/231/3 71/23/3
f 249/11/3 250/310/3 248/312/3
f 78/1/1 125/42/1 128/2/1
f 49/4/2 96/16/2 97/5/2
f 74/7/3 121/170/3 120/8/3
f 73/9/3 120/8/3 251/10/3
f 77/12/1 124/236/1 126/13/1
f 48/15/2 95/166/2 96/16/2
f 72/17/2 119/234/2 117/18/2
f 82/20/3 129/233/3 127/21/3
f 71/23/3 118/231/3 119/24/3
f 81/3/1 128/2/1 129/26/1
f 242/28/3 80/22/3 127/21/3
f 62/30/4 109/140/4 112/31/4
f 93/33/1 140/44/1 134/34/1
f 69/36/2 116/143/2 115/37/2
f 92/39/5 139/48/5 141/40/5
f 79/14/1 126/13/1 125/42/1
f 94/43/1 141/147/1 140/44/1
f 68/38/2 115/37/2 114/45/2
f 91/47/5 138/52/5 139/48/5
f 70/19/2 117/18/2 111/49/2
f 90/51/5 137/59/5 138/52/5
f 65/53/4 112/313/4 113/54/4
f 66/55/4 113/54/4 116/56/4
f 89/58/5 136/153/5 137/59/5
f 32/60/1 79/14/1 78/1/1
f 45/62/5 92/39/5 94/41/5
f 22/64/2 69/36/2 68/38/2
f 46/66/1 93/33/1 87/35/1
f 15/68/4 62/314/4 65/53/4
f 33/70/3 80/22/3 242/28/3
f 20/72/2 67/46/2 51/73/2
f 34/75/1 81/3/1 82/27/1
f 24/77/3 71/23/3 72/25/3
f 35/79/3 82/20/3 80/22/3
f 25/80/2 72/17/2 70/19/2
f 3/82/2 50/6/2 52/83/2
f 1/85/2 48/15/2 49/4/2
f 30/87/1 77/12/1 79/14/1
f 26/88/3 73/9/3 249/11/3
f 27/90/3 74/7/3 73/9/3
f 2/86/2 49/4/2 50/6/2
f 31/61/1 78/1/1 81/3/1
f 4/74/2 51/73/2 48/15/2
f 37/91/1 84/105/1 83/92/1
f 12/94/5 59/168/5 57/95/5
f 28/97/3 75/107/3 74/7/3
f 11/98/2 58/120/2 59/99/2
f 39/101/5 86/114/5 85/102/5
f 38/104/1 85/173/1 84/105/1
f 29/106/3 76/175/3 75/107/3
f 5/84/2 52/83/2 53/108/2
f 8/110/5 55/115/5 54/111/5
f 40/113/5 87/179/5 86/114/5
f 10/96/5 57/95/5 55/115/5
f 6/116/3 53/182/3 56/117/3
f 14/119/2 61/125/2 58/120/2
f 9/121/1 56/184/1 60/122/1
f 16/124/2 63/131/2 61/125/2
f 13/123/1 60/122/1 62/126/1
f 7/112/5 54/111/5 88/128/5
f 17/130/2 64/50/2 63/131/2
f 41/129/5 88/128/5 89/58/5
f 42/132/5 89/58/5 90/51/5
f 19/134/4 66/55/4 69/57/4
f 18/69/4 65/53/4 66/55/4
f 43/133/5 90/51/5 91/47/5
f 23/81/2 70/19/2 64/50/2
f 36/93/1 83/92/1 77/12/1
f 44/136/5 91/47/5 92/39/5
f 21/65/2 68/38/2 67/46/2
f 47/137/1 94/43/1 93/33/1
f 243/29/3 127/21/3 174/138/3
f 109/140/4 156/256/4 159/141/4
f 140/44/1 187/148/1 181/142/1
f 116/143/2 163/192/2 162/144/2
f 139/48/5 186/150/5 188/145/5
f 126/13/1 173/195/1 172/146/1
f 141/147/1 188/197/1 187/148/1
f 115/37/2 162/144/2 161/149/2
f 138/52/5 185/200/5 186/150/5
f 117/18/2 164/205/2 158/151/2
f 113/54/4 160/210/4 163/152/4
f 136/153/5 183/212/5 184/154/5
f 111/49/2 158/151/2 157/155/2
f 135/157/5 101/178/5 148/158/5
f 103/160/1 150/221/1 154/161/1
f 108/163/2 155/220/2 152/164/2
f 51/73/2 98/241/2 95/166/2
f 84/105/1 131/174/1 130/167/1
f 59/168/5 106/243/5 104/169/5
f 75/107/3 122/176/3 121/170/3
f 58/120/2 105/165/2 106/171/2
f 86/114/5 133/180/5 132/172/5
f 85/173/1 132/247/1 131/174/1
f 76/175/3 123/249/3 122/176/3
f 52/83/2 99/251/2 100/177/2
f 55/115/5 102/181/5 101/178/5
f 87/179/5 134/253/5 133/180/5
f 57/95/5 104/169/5 102/181/5
f 53/182/3 100/255/3 103/183/3
f 61/125/2 108/163/2 105/165/2
f 56/184/1 103/160/1 107/162/1
f 63/185/6 62/315/6 60/186/6
f 62/188/5 63/316/5 110/189/5
f 54/111/5 101/178/5 135/157/5
f 64/50/2 111/49/2 110/156/2
f 88/128/5 135/157/5 136/153/5
f 187/148/1 234/198/1 228/191/1
f 163/192/2 210/317/2 209/193/2
f 186/150/5 233/201/5 235/194/5
f 173/195/1 220/271/1 219/196/1
f 188/197/1 235/318/1 234/198/1
f 162/144/2 209/193/2 208/199/2
f 185/200/5 232/207/5 233/201/5
f 177/202/1 224/277/1 218/203/1
f 164/205/2 211/267/2 205/206/2
f 184/154/5 231/213/5 232/207/5
f 159/208/4 206/319/4 207/209/4
f 160/210/4 207/209/4 210/211/4
f 183/212/5 230/214/5 231/213/5
f 182/159/5 229/216/5 230/214/5
f 158/151/2 205/206/2 204/215/2
f 148/158/5 195/288/5 229/216/5
f 154/161/1 201/222/1 203/217/1
f 157/155/2 204/215/2 202/219/2
f 150/221/1 197/320/1 201/222/1
f 155/220/2 202/219/2 199/223/2
f 147/224/3 194/321/3 197/225/3
f 151/227/5 198/279/5 196/228/5
f 128/2/1 175/240/1 176/230/1
f 118/231/3 165/262/3 166/232/3
f 129/233/3 176/264/3 174/138/3
f 119/234/2 166/266/2 164/205/2
f 95/166/2 142/242/2 143/235/2
f 124/236/1 171/204/1 173/195/1
f 120/8/3 167/238/3 253/237/3
f 121/170/3 168/244/3 167/238/3
f 96/16/2 143/235/2 144/239/2
f 125/42/1 172/146/1 175/240/1
f 98/241/2 145/260/2 142/242/2
f 131/174/1 178/248/1 177/202/1
f 106/243/5 153/278/5 151/227/5
f 122/176/3 169/250/3 168/244/3
f 105/165/2 152/164/2 153/245/2
f 133/180/5 180/254/5 179/246/5
f 132/247/1 179/283/1 178/248/1
f 123/249/3 170/285/3 169/250/3
f 99/251/2 146/269/2 147/252/2
f 102/181/5 149/229/5 148/158/5
f 134/253/5 181/289/5 180/254/5
f 104/169/5 151/227/5 149/229/5
f 100/255/3 147/224/3 150/226/3
f 156/256/4 203/322/4 206/257/4
f 174/138/3 221/265/3 245/258/3
f 161/149/2 208/199/2 192/259/2
f 175/240/1 222/275/1 223/261/1
f 165/262/3 212/308/3 213/263/3
f 176/264/3 223/323/3 221/265/3
f 166/266/2 213/324/2 211/267/2
f 144/239/2 191/274/2 193/268/2
f 142/242/2 189/276/2 190/270/2
f 171/204/1 218/203/1 220/271/1
f 167/238/3 214/273/3 255/272/3
f 168/244/3 215/280/3 214/273/3
f 143/235/2 190/270/2 191/274/2
f 172/146/1 219/196/1 222/275/1
f 145/260/2 192/259/2 189/276/2
f 178/248/1 225/284/1 224/277/1
f 153/278/5 200/325/5 198/279/5
f 169/250/3 216/286/3 215/280/3
f 152/164/2 199/223/2 200/281/2
f 180/254/5 227/290/5 226/282/5
f 179/283/1 226/326/1 225/284/1
f 170/285/3 217/302/3 216/286/3
f 146/269/2 193/268/2 194/287/2
f 149/229/5 196/228/5 195/288/5
f 181/289/5 228/327/5 227/290/5
f 107/291/3 108/328/3 61/292/3
f 109/190/5 110/189/5 157/294/5
f 154/296/7 156/329/7 157/297/7
f 155/299/3 108/328/3 107/291/3
f 239/301/3 240/306/3 217/302/3
f 238/303/3 239/301/3 170/285/3
f 236/304/3 237/305/3 76/175/3
f 237/305/3 238/303/3 123/249/3
f 244/139/3 245/258/3 240/306/3
f 241/71/3 242/28/3 237/305/3
f 242/28/3 243/29/3 238/303/3
f 252/307/3 254/309/3 212/308/3
f 253/237/3 255/272/3 254/309/3
f 250/310/3 252/307/3 165/262/3
f 246/311/3 248/312/3 71/23/3
f 247/89/3 249/11/3 248/312/3
f 248/312/3 250/310/3 118/231/3
f 249/11/3 251/10/3 250/310/3
