# Blender v2.78 (sub 0) OBJ File: ''
# www.blender.org
mtllib pouf.mtl
o Plane.010_Plane.008
v -0.138854 0.285577 0.173532
v 0.138854 0.285577 0.173532
v -0.138854 0.285577 -0.173532
v 0.138854 0.285577 -0.173532
v -0.149924 0.285577 0.000000
v 0.000000 0.285577 0.187367
v 0.149924 0.285577 0.000000
v 0.000000 0.285577 -0.187367
v 0.000000 0.300178 0.000000
v -0.145791 0.285577 0.091101
v 0.072896 0.285577 0.182203
v 0.145791 0.285577 -0.091101
v -0.072896 0.285577 -0.182203
v -0.145791 0.285577 -0.091101
v -0.072896 0.285577 0.182203
v 0.145791 0.285577 0.091101
v 0.072896 0.285577 -0.182203
v 0.000000 0.295667 -0.093684
v 0.000000 0.295667 0.093684
v -0.074962 0.295667 0.000000
v 0.074962 0.295667 0.000000
v 0.072896 0.266985 0.091101
v -0.072896 0.266985 0.091101
v -0.072896 0.266985 -0.091101
v 0.072896 0.266985 -0.091101
v -0.142431 0.285577 0.133502
v 0.106823 0.285577 0.178003
v 0.142431 0.285577 -0.133502
v -0.106823 0.285577 -0.178003
v -0.147529 0.285577 -0.046094
v -0.036882 0.285577 0.184375
v 0.147529 0.285577 0.046094
v 0.036882 0.285577 -0.184375
v 0.000000 0.291435 -0.140525
v 0.000000 0.297505 0.046842
v -0.112443 0.291435 0.000000
v 0.037481 0.297505 0.000000
v -0.147529 0.285577 0.046094
v 0.036882 0.285577 0.184375
v 0.147529 0.285577 -0.046094
v -0.036882 0.285577 -0.184375
v -0.142431 0.285577 -0.133502
v -0.106823 0.285577 0.178003
v 0.142431 0.285577 0.133502
v 0.106823 0.285577 -0.178003
v 0.000000 0.297505 -0.046842
v 0.000000 0.291435 0.140525
v -0.037481 0.297505 0.000000
v 0.112443 0.291435 0.000000
v 0.073765 0.289733 0.046094
v 0.072896 0.283840 0.136652
v 0.036882 0.289733 0.092187
v 0.109344 0.283840 0.091101
v -0.073765 0.289733 0.046094
v -0.072896 0.283840 0.136652
v -0.109344 0.283840 0.091101
v -0.036882 0.289733 0.092187
v -0.072896 0.283840 -0.136652
v -0.073765 0.289733 -0.046094
v -0.109344 0.283840 -0.091101
v -0.036882 0.289733 -0.092187
v 0.072896 0.283840 -0.136652
v 0.073765 0.289733 -0.046094
v 0.036882 0.289733 -0.092187
v 0.109344 0.283840 -0.091101
v 0.110647 0.289733 -0.046094
v 0.036882 0.293965 -0.046094
v 0.036882 0.289733 -0.138281
v -0.036882 0.293965 -0.046094
v -0.110647 0.289733 -0.046094
v -0.106823 0.289733 -0.133502
v -0.036882 0.289733 0.138281
v -0.106823 0.289733 0.133502
v -0.110647 0.289733 0.046094
v 0.106823 0.289733 0.133502
v 0.036882 0.289733 0.138281
v 0.036882 0.293965 0.046094
v 0.110647 0.289733 0.046094
v -0.036882 0.293965 0.046094
v -0.036882 0.289733 -0.138281
v 0.106823 0.289733 -0.133502
v 0.117152 0.002202 -0.195214
v 0.156203 0.002202 0.146411
v -0.117152 0.002202 0.195214
v -0.156203 0.002202 -0.146411
v -0.040448 0.002202 -0.202202
v 0.161794 0.002202 -0.050551
v 0.040448 0.002202 0.202202
v -0.161794 0.002202 0.050551
v 0.040448 0.002202 -0.202202
v 0.161794 0.002202 0.050551
v -0.040448 0.002202 0.202202
v -0.161794 0.002202 -0.050551
v -0.117152 0.002202 -0.195214
v 0.156203 0.002202 -0.146411
v 0.117152 0.002202 0.195214
v -0.156203 0.002202 0.146411
v 0.079944 0.002202 -0.199820
v 0.159888 0.002202 0.099910
v -0.079944 0.002202 0.199820
v -0.159888 0.002202 -0.099910
v -0.079944 0.002202 -0.199820
v 0.159888 0.002202 -0.099910
v 0.079944 0.002202 0.199820
v -0.159888 0.002202 0.099910
v -0.000000 0.002202 -0.205484
v 0.164420 0.002202 0.000000
v -0.000000 0.002202 0.205484
v -0.164420 0.002202 0.000000
v 0.152279 0.002202 -0.190311
v -0.152279 0.002202 -0.190311
v 0.152279 0.002202 0.190311
v -0.152279 0.002202 0.190311
v -0.165029 0.102559 0.051561
v -0.161794 0.202916 0.050551
v 0.081542 0.102559 -0.203815
v 0.079944 0.202916 -0.199820
v -0.165029 0.102559 -0.051561
v -0.161794 0.202916 -0.050551
v 0.163085 0.102559 0.101908
v 0.159888 0.202916 0.099910
v -0.119494 0.102559 -0.199118
v -0.117152 0.202916 -0.195214
v -0.152279 0.202916 -0.190311
v -0.155324 0.102559 -0.194117
v -0.081542 0.102559 -0.203815
v -0.079944 0.202916 -0.199820
v 0.155324 0.102559 0.194117
v 0.152279 0.202916 0.190311
v 0.165029 0.102559 -0.051561
v 0.161794 0.202916 -0.050551
v -0.159326 0.102559 0.149338
v -0.156203 0.202916 0.146411
v 0.041257 0.102559 0.206245
v 0.040448 0.202916 0.202202
v 0.164420 0.202916 0.000000
v 0.167707 0.102559 0.000000
v -0.159888 0.202916 0.099910
v -0.163085 0.102559 0.101908
v -0.000000 0.202916 0.205484
v -0.000000 0.102559 0.209592
v -0.163085 0.102559 -0.101908
v -0.159888 0.202916 -0.099910
v 0.155324 0.102559 -0.194117
v 0.152279 0.202916 -0.190311
v -0.041257 0.102559 -0.206245
v -0.040448 0.202916 -0.202202
v 0.119494 0.102559 0.199118
v 0.117152 0.202916 0.195214
v 0.159326 0.102559 0.149338
v 0.156203 0.202916 0.146411
v 0.041257 0.102559 -0.206245
v 0.040448 0.202916 -0.202202
v 0.119494 0.102559 -0.199118
v 0.117152 0.202916 -0.195214
v -0.081542 0.102559 0.203815
v -0.079944 0.202916 0.199820
v 0.159326 0.102559 -0.149338
v 0.156203 0.202916 -0.146411
v 0.081542 0.102559 0.203815
v 0.079944 0.202916 0.199820
v -0.155324 0.102559 0.194117
v -0.152279 0.202916 0.190311
v 0.165029 0.102559 0.051561
v 0.161794 0.202916 0.050551
v -0.000000 0.202916 -0.205484
v -0.000000 0.102559 -0.209592
v -0.041257 0.102559 0.206245
v -0.040448 0.202916 0.202202
v 0.163085 0.102559 -0.101908
v 0.159888 0.202916 -0.099910
v -0.119494 0.102559 0.199118
v -0.117152 0.202916 0.195214
v -0.167707 0.102559 0.000000
v -0.164420 0.202916 0.000000
v -0.159326 0.102559 -0.149338
v -0.156203 0.202916 -0.146411
v -0.156733 0.269910 0.048969
v 0.077444 0.269910 -0.193570
v -0.156733 0.269910 -0.048969
v 0.154887 0.269910 0.096785
v -0.113488 0.269910 -0.189109
v -0.077444 0.269910 -0.193570
v 0.147517 0.269910 0.184359
v 0.156733 0.269910 -0.048969
v -0.151317 0.269910 0.141831
v 0.039183 0.269910 0.195878
v -0.154887 0.269910 -0.096785
v 0.147517 0.269910 -0.184359
v -0.039183 0.269910 -0.195878
v 0.113488 0.269910 0.189109
v 0.151317 0.269910 0.141831
v 0.039183 0.269910 -0.195878
v 0.113488 0.269910 -0.189109
v -0.077444 0.269910 0.193570
v 0.151317 0.269910 -0.141831
v 0.077444 0.269910 0.193570
v -0.147517 0.269910 0.184359
v 0.156733 0.269910 0.048969
v -0.039183 0.269910 0.195878
v 0.154887 0.269910 -0.096785
v -0.113488 0.269910 0.189109
v -0.159277 0.269910 0.000000
v -0.151317 0.269910 -0.141831
v -0.147517 0.269910 -0.184359
v 0.159277 0.269910 0.000000
v -0.154887 0.269910 0.096785
v -0.000000 0.269910 0.199057
v -0.000000 0.269910 -0.199057
vt 0.7921 0.1393
vt 0.8818 0.0317
vt 0.8905 0.1392
vt 0.8034 0.4979
vt 0.8989 0.6216
vt 0.7970 0.6217
vt 0.3894 0.6223
vt 0.4928 0.4983
vt 0.4913 0.6242
vt 0.3967 0.0032
vt 0.4972 0.1209
vt 0.3952 0.1270
vt 0.3938 0.2509
vt 0.4943 0.3725
vt 0.3923 0.3747
vt 0.1936 0.2540
vt 0.2905 0.3748
vt 0.1886 0.3749
vt 0.2033 0.0206
vt 0.2957 0.1316
vt 0.2019 0.1401
vt 0.3865 0.8699
vt 0.4898 0.7500
vt 0.4884 0.8758
vt 0.1935 0.8573
vt 0.2885 0.7433
vt 0.2871 0.8657
vt 0.1857 0.6226
vt 0.2857 0.4986
vt 0.2876 0.6224
vt 0.7920 0.7426
vt 0.8821 0.8564
vt 0.7837 0.8565
vt 0.5918 0.7458
vt 0.6899 0.8651
vt 0.5903 0.8696
vt 0.5963 0.4982
vt 0.6951 0.6219
vt 0.5932 0.6220
vt 0.7999 0.3741
vt 0.8984 0.2531
vt 0.9018 0.3740
vt 0.5976 0.2506
vt 0.6980 0.3742
vt 0.5961 0.3744
vt 0.5990 0.1268
vt 0.6999 0.0087
vt 0.6985 0.1310
vt 0.6970 0.2534
vt 0.4957 0.2467
vt 0.6005 0.0030
vt 0.6999 0.4980
vt 0.9070 0.4978
vt 0.7977 0.2532
vt 0.6913 0.7428
vt 0.6884 0.9875
vt 0.5889 0.9934
vt 0.4869 1.0016
vt 0.8709 0.9639
vt 0.7823 0.9760
vt 0.1878 0.7434
vt 0.0872 0.7436
vt 0.0838 0.6227
vt 0.1821 0.4988
vt 0.1921 0.9769
vt 0.2857 0.9880
vt 0.1037 0.9650
vt 0.0951 0.8575
vt 0.3851 0.9937
vt 0.3880 0.7461
vt 0.2943 0.2539
vt 0.1035 0.1403
vt 0.0929 0.2542
vt 0.1146 0.0327
vt 0.0867 0.3751
vt 0.0786 0.4989
vt 0.3892 0.4985
vt 0.2971 0.0092
vt 0.8927 0.7425
vt 0.7935 0.0198
vt 0.1614 0.3545
vt 0.0760 0.0026
vt 0.1692 0.0029
vt -0.1444 0.3585
vt -0.2341 0.0192
vt -0.1389 0.0195
vt 0.6736 0.3590
vt 0.7671 0.0131
vt 0.7728 0.3598
vt 0.1696 0.3609
vt 0.2699 0.0230
vt 0.2726 0.3621
vt -0.0414 0.3592
vt -0.0379 0.0201
vt 0.7952 0.3602
vt 0.8837 0.0098
vt 0.8902 0.3616
vt -0.2415 0.3582
vt -0.3239 0.0190
vt 0.4604 0.3579
vt 0.3551 0.0114
vt 0.4608 0.0113
vt 0.5529 0.3650
vt 0.4705 0.0257
vt 0.5603 0.0259
vt 0.5683 0.3585
vt 0.6698 0.0124
vt 0.6946 0.3587
vt 0.7906 0.0084
vt 0.2473 0.3580
vt 0.1546 0.0117
vt 0.2519 0.0114
vt 0.3689 0.3555
vt 0.2679 0.0032
vt 0.3726 0.0039
vt 1.1640 0.3701
vt 1.2492 0.0323
vt 1.2556 0.3714
vt 0.5666 0.0119
vt 0.4783 0.3561
vt 0.4799 0.0045
vt 0.0641 0.3597
vt 0.1689 0.0219
vt 0.5877 0.3575
vt 0.6919 0.0070
vt 1.0669 0.3688
vt 1.1594 0.0310
vt 0.8584 0.3664
vt 0.7564 0.0268
vt 0.8599 0.0273
vt 0.3526 0.3580
vt 0.3696 0.3634
vt 0.4549 0.0256
vt 0.4613 0.3647
vt 0.5872 0.0058
vt 0.2621 0.3548
vt 0.1481 0.3583
vt 0.0628 0.0120
vt 0.9639 0.3677
vt 1.0643 0.0297
vt 0.3651 0.0243
vt 0.0655 0.0206
vt 0.9633 0.0286
vt 0.6499 0.3653
vt 0.6554 0.0262
vt 0.7529 0.3659
vt 0.8589 0.0139
vt 0.8665 0.3605
vt 0.8454 0.9403
vt 0.7663 0.7073
vt 0.8581 0.7080
vt 0.6580 0.9326
vt 0.7536 0.7058
vt 0.7558 0.9332
vt 0.6526 0.7052
vt 0.5658 0.9323
vt 0.5574 0.7049
vt 0.9562 0.9349
vt 0.8570 0.7063
vt 0.9604 0.7076
vt -0.0385 0.9265
vt 0.0627 0.6996
vt 0.0617 0.9270
vt -0.0408 0.6991
vt 0.3519 0.9305
vt 0.2671 0.7020
vt 0.3622 0.7033
vt 1.0541 0.9360
vt 1.0614 0.7087
vt 0.0741 0.9385
vt 0.1538 0.7058
vt 0.1631 0.9382
vt 0.0620 0.7062
vt 0.1747 0.9429
vt 0.2647 0.7074
vt 0.2703 0.9433
vt 0.1661 0.7071
vt 0.5796 0.9458
vt 0.4768 0.7087
vt 0.5840 0.7100
vt 0.4389 0.9318
vt 0.4520 0.7046
vt 0.2573 0.9379
vt 0.3543 0.7055
vt 0.3573 0.9379
vt 0.2511 0.7055
vt 0.8560 0.9337
vt 1.1462 0.9372
vt 1.1566 0.7100
vt 0.6811 0.9469
vt 0.6888 0.7112
vt 0.1619 0.9282
vt 0.1661 0.7009
vt 0.3718 0.9439
vt 0.4757 0.9445
vt 0.3695 0.7081
vt 0.5622 0.9384
vt 0.4600 0.7054
vt 0.5658 0.7060
vt 1.2332 0.9385
vt 1.2464 0.7113
vt 0.7767 0.9483
vt 0.7874 0.7126
vt 0.6622 0.9389
vt 0.6690 0.7065
vt 0.4788 0.9321
vt 0.4676 0.7047
vt 0.4598 0.9378
vt -0.3155 0.9254
vt -0.2369 0.6982
vt -0.2285 0.9256
vt -0.3267 0.6980
vt 0.8669 0.9496
vt 0.8806 0.7140
vt -0.1363 0.9259
vt -0.1418 0.6985
vt 0.2597 0.9292
vt 0.7564 0.9396
vt 0.0845 0.9426
vt 0.0729 0.7068
vt 0.1072 0.9990
vt 0.1922 0.9993
vt -0.2117 0.9800
vt -0.1249 0.9802
vt 0.7389 0.9950
vt 0.2479 0.9834
vt -0.0328 0.9808
vt 0.8437 1.0056
vt -0.2936 0.9798
vt 0.3633 0.9934
vt 0.4597 0.9933
vt 0.5008 0.9865
vt 0.5827 0.9867
vt 0.6502 0.9943
vt 0.7587 1.0044
vt 0.1805 0.9937
vt 0.2691 0.9934
vt 0.2821 0.9996
vt 0.3776 1.0002
vt 1.2109 0.9925
vt 0.5561 0.9938
vt 0.4755 1.0008
vt 0.1558 0.9824
vt 0.6688 1.0031
vt 1.1290 0.9913
vt 0.7615 0.9875
vt 0.8558 0.9880
vt 0.4165 0.9858
vt 0.5733 1.0020
vt 0.0967 0.9940
vt 1.0422 0.9901
vt 0.3346 0.9846
vt 0.0615 0.9812
vt 0.9501 0.9891
vt 0.6694 0.9869
vt 0.8227 0.9957
vt 0.4987 -0.0049
vt 0.0664 0.3542
vt -0.3331 0.3580
vt 0.0544 0.3587
vn 0.0130 0.9956 -0.0930
vn -0.0514 0.9946 -0.0897
vn -0.0709 0.9945 0.0773
vn 0.1119 0.9929 0.0410
vn 0.1137 0.9905 0.0775
vn 0.1615 0.9869 0.0000
vn 0.1149 0.9848 -0.1300
vn -0.1121 0.9928 0.0410
vn 0.4150 0.8975 -0.1494
vn -0.1588 0.9873 0.0000
vn 0.1621 0.9825 -0.0917
vn 0.0000 0.9915 -0.1298
vn -0.0970 0.9911 -0.0910
vn 0.0054 0.9959 -0.0898
vn 0.1135 0.9894 -0.0908
vn -0.0472 0.9906 -0.1283
vn -0.3827 0.8275 -0.4108
vn 0.0000 0.9918 -0.1277
vn 0.1119 0.9929 -0.0410
vn 0.1603 0.9863 -0.0387
vn 0.0965 0.9937 -0.0567
vn 0.1137 0.9905 -0.0775
vn 0.0101 0.9922 -0.1241
vn 0.0514 0.9946 -0.0899
vn -0.4983 0.7699 -0.3987
vn -0.0486 0.9905 -0.1288
vn -0.0709 0.9945 -0.0773
vn -0.1120 0.9937 -0.0043
vn -0.1544 0.9880 -0.0080
vn -0.1121 0.9928 -0.0410
vn -0.1159 0.9932 -0.0104
vn 0.0476 0.9989 0.0038
vn 0.4150 0.8975 0.1494
vn -0.5030 0.8106 -0.2999
vn -0.1597 0.9864 -0.0376
vn -0.0514 0.9946 0.0897
vn 0.0476 0.9989 -0.0038
vn -0.1159 0.9932 0.0104
vn 0.1621 0.9825 0.0917
vn -0.1544 0.9880 0.0080
vn -0.1120 0.9937 0.0043
vn 0.0000 0.9915 0.1298
vn -0.1915 0.9205 -0.3406
vn -0.0047 0.9993 -0.0381
vn 0.0130 0.9956 0.0930
vn 0.0514 0.9946 0.0899
vn 0.0101 0.9922 0.1241
vn 0.0054 0.9959 0.0898
vn 0.0965 0.9937 0.0567
vn 0.1603 0.9863 0.0387
vn 0.1135 0.9894 0.0908
vn 0.0000 0.9918 0.1277
vn -0.3827 0.8275 0.4108
vn -0.0472 0.9906 0.1283
vn -0.0486 0.9905 0.1288
vn -0.4983 0.7699 0.3987
vn -0.0970 0.9911 0.0910
vn -0.1597 0.9864 0.0376
vn -0.5030 0.8106 0.2999
vn -0.0047 0.9993 0.0381
vn -0.1915 0.9205 0.3406
vn 0.1149 0.9848 0.1300
vn 0.9955 -0.0336 0.0890
vn -0.9963 -0.0333 -0.0790
vn -0.1227 -0.0414 -0.9916
vn -0.9987 -0.0326 0.0386
vn -0.9987 -0.0326 -0.0386
vn 0.9955 -0.0336 -0.0890
vn -0.9955 -0.0336 -0.0890
vn 0.0808 -0.0408 -0.9959
vn -0.1381 -0.0417 0.9895
vn -0.0602 -0.0407 -0.9974
vn 0.9963 -0.0333 -0.0790
vn 0.1227 -0.0414 -0.9916
vn 0.9987 -0.0326 0.0386
vn 0.1381 -0.0417 0.9895
vn -0.0808 -0.0408 -0.9959
vn 0.9981 -0.0327 0.0518
vn -0.9981 -0.0327 0.0518
vn 0.9987 -0.0326 -0.0386
vn 0.1227 -0.0414 0.9916
vn -0.0808 -0.0408 0.9959
vn 0.0602 -0.0407 -0.9974
vn -0.9955 -0.0336 0.0890
vn 0.9981 -0.0327 -0.0518
vn 0.9963 -0.0333 0.0790
vn 0.1381 -0.0417 -0.9895
vn 0.0602 -0.0407 0.9974
vn -0.9963 -0.0333 0.0790
vn -0.9981 -0.0327 -0.0518
vn 0.0808 -0.0408 0.9959
vn -0.1227 -0.0414 0.9916
vn -0.0602 -0.0407 0.9974
vn -0.1381 -0.0417 -0.9895
vn -0.1376 0.0974 -0.9857
vn -0.1381 0.0417 -0.9895
vn -0.0599 0.0949 0.9937
vn -0.0602 0.0407 0.9974
vn -0.1223 0.0967 0.9878
vn -0.1227 0.0414 0.9916
vn 0.0805 0.0952 0.9922
vn 0.0808 0.0408 0.9959
vn -0.9957 0.0764 -0.0517
vn -0.9981 0.0327 -0.0518
vn -0.9938 0.0779 0.0788
vn -0.9963 0.0333 0.0790
vn 0.0599 0.0949 0.9937
vn 0.0602 0.0407 0.9974
vn 0.1376 0.0974 -0.9857
vn 0.1381 0.0417 -0.9895
vn 0.9938 0.0779 0.0788
vn 0.9963 0.0333 0.0790
vn 0.9957 0.0764 -0.0517
vn 0.9981 0.0327 -0.0518
vn -0.9930 0.0785 0.0887
vn -0.9955 0.0336 0.0890
vn 0.0599 0.0949 -0.9937
vn 0.0602 0.0407 -0.9974
vn -0.0805 0.0952 0.9922
vn -0.0808 0.0408 0.9959
vn 0.1223 0.0967 0.9878
vn 0.1227 0.0414 0.9916
vn 0.9964 0.0762 -0.0385
vn 0.9987 0.0326 -0.0386
vn -0.9957 0.0764 0.0517
vn -0.9981 0.0327 0.0518
vn 0.9957 0.0764 0.0517
vn 0.9981 0.0327 0.0518
vn -0.0805 0.0952 -0.9922
vn -0.0808 0.0408 -0.9959
vn 0.1376 0.0974 0.9857
vn 0.1381 0.0417 0.9895
vn 0.9964 0.0762 0.0385
vn 0.9987 0.0326 0.0386
vn 0.1223 0.0967 -0.9878
vn 0.1227 0.0414 -0.9916
vn 0.9938 0.0779 -0.0788
vn 0.9963 0.0333 -0.0790
vn -0.0599 0.0949 -0.9937
vn -0.0602 0.0407 -0.9974
vn -0.1376 0.0974 0.9857
vn -0.1381 0.0417 0.9895
vn 0.0805 0.0952 -0.9922
vn 0.0808 0.0408 -0.9959
vn -0.9930 0.0785 -0.0887
vn -0.9955 0.0336 -0.0890
vn 0.9930 0.0785 -0.0887
vn 0.9955 0.0336 -0.0890
vn -0.9964 0.0762 -0.0385
vn -0.9987 0.0326 -0.0386
vn -0.9964 0.0762 0.0385
vn -0.9987 0.0326 0.0386
vn -0.1223 0.0967 -0.9878
vn -0.1227 0.0414 -0.9916
vn -0.9938 0.0779 -0.0788
vn -0.9963 0.0333 -0.0790
vn 0.9930 0.0785 0.0887
vn 0.9955 0.0336 0.0890
vn 0.8495 0.5221 0.0759
vn -0.8520 0.5191 -0.0675
vn -0.0980 0.6029 -0.7918
vn -0.8591 0.5108 0.0332
vn -0.8591 0.5108 -0.0332
vn 0.8495 0.5221 -0.0759
vn -0.8495 0.5221 -0.0759
vn 0.0649 0.5967 -0.7998
vn -0.1100 0.6055 0.7882
vn -0.0484 0.5957 -0.8017
vn 0.8520 0.5191 -0.0675
vn 0.0980 0.6029 -0.7918
vn 0.8591 0.5108 0.0332
vn 0.1100 0.6055 0.7882
vn -0.0649 0.5967 -0.7998
vn 0.8578 0.5121 0.0446
vn -0.8578 0.5121 0.0446
vn 0.8591 0.5108 -0.0332
vn 0.0980 0.6029 0.7918
vn -0.0649 0.5967 0.7998
vn 0.0484 0.5957 -0.8017
vn -0.8495 0.5221 0.0759
vn 0.8578 0.5121 -0.0446
vn 0.8520 0.5191 0.0675
vn 0.1100 0.6055 -0.7882
vn 0.0484 0.5957 0.8017
vn -0.8520 0.5191 0.0675
vn -0.8578 0.5121 -0.0446
vn 0.0649 0.5967 0.7998
vn -0.0980 0.6029 0.7918
vn -0.0484 0.5957 0.8017
vn -0.1100 0.6055 -0.7882
vn 0.1159 0.9932 -0.0104
vn -0.0101 0.9922 -0.1241
vn -0.0965 0.9937 0.0567
vn 0.1544 0.9880 0.0080
vn 0.0486 0.9905 0.1288
vn 0.5030 0.8106 -0.2999
vn -0.0476 0.9989 -0.0038
vn 0.1915 0.9205 -0.3406
vn -0.0514 0.9946 0.0899
vn 0.0047 0.9993 0.0381
vn 0.3827 0.8275 -0.4108
vn -0.1603 0.9863 -0.0387
vn 0.1597 0.9864 0.0376
vn 0.4983 0.7699 -0.3987
vn 0.1120 0.9937 -0.0043
vn 0.1121 0.9928 -0.0410
vn 0.1544 0.9880 -0.0080
vn 0.0970 0.9911 -0.0910
vn 0.0709 0.9945 -0.0773
vn 0.0486 0.9905 -0.1288
vn 0.0514 0.9946 -0.0897
vn 0.1588 0.9873 0.0000
vn 0.5030 0.8106 0.2999
vn -0.1135 0.9894 -0.0908
vn -0.1137 0.9905 -0.0775
vn -0.0965 0.9937 -0.0567
vn 0.0472 0.9906 -0.1283
vn -0.1119 0.9929 -0.0410
vn -0.0130 0.9956 -0.0930
vn -0.1149 0.9848 0.1300
vn 0.1915 0.9205 0.3406
vn -0.1615 0.9869 0.0000
vn -0.0054 0.9959 0.0898
vn -0.0101 0.9922 0.1241
vn -0.1149 0.9848 -0.1300
vn -0.0130 0.9956 0.0930
vn 0.0047 0.9993 -0.0381
vn -0.1119 0.9929 0.0410
vn 0.0472 0.9906 0.1283
vn 0.3827 0.8275 0.4108
vn -0.4150 0.8975 -0.1494
vn -0.1621 0.9825 0.0917
vn 0.1159 0.9932 0.0104
vn 0.0514 0.9946 0.0897
vn 0.1597 0.9864 -0.0376
vn 0.0709 0.9945 0.0773
vn 0.0970 0.9911 0.0910
vn 0.4983 0.7699 0.3987
vn 0.1121 0.9928 0.0410
vn 0.1120 0.9937 0.0043
vn -0.1137 0.9905 0.0775
vn -0.1135 0.9894 0.0908
vn -0.1603 0.9863 0.0387
vn -0.0054 0.9959 -0.0898
vn -0.0514 0.9946 -0.0899
vn -0.1621 0.9825 -0.0917
vn -0.4150 0.8975 0.1494
vn -0.0476 0.9989 0.0038
usemtl None
s off
f 81/1/1 4/2/1 45/3/1
f 34/4/2 41/5/2 80/6/2
f 79/7/3 9/8/3 48/9/3
f 32/10/4 49/11/4 78/12/4
f 50/13/5 37/14/5 77/15/5
f 51/16/6 52/17/6 76/18/6
f 44/19/7 53/20/7 75/21/7
f 74/22/8 20/23/8 36/24/8
f 73/25/9 23/26/9 56/27/9
f 72/28/10 19/29/10 57/30/10
f 58/31/11 29/32/11 71/33/11
f 59/34/12 60/35/12 70/36/12
f 46/37/13 61/38/13 69/39/13
f 68/40/14 17/41/14 33/42/14
f 63/43/15 64/44/15 67/45/15
f 66/46/16 12/47/16 65/48/16
f 63/43/17 65/48/17 25/49/17
f 21/50/18 66/46/18 63/43/18
f 49/11/19 40/51/19 66/46/19
f 46/37/20 64/44/20 18/52/20
f 9/8/21 67/45/21 46/37/21
f 37/14/22 63/43/22 67/45/22
f 34/4/23 33/42/23 8/53/23
f 18/52/24 68/40/24 34/4/24
f 64/44/6 62/54/6 68/40/6
f 59/34/25 61/38/25 24/55/25
f 48/9/26 59/34/26 20/23/26
f 9/8/27 69/39/27 48/9/27
f 70/36/28 14/56/28 30/57/28
f 36/24/29 30/57/29 5/58/29
f 20/23/30 70/36/30 36/24/30
f 71/33/31 3/59/31 42/60/31
f 60/35/32 42/60/32 14/56/32
f 24/55/33 71/33/33 60/35/33
f 55/61/34 57/30/34 23/26/34
f 15/62/35 72/28/35 55/61/35
f 31/63/36 47/64/36 72/28/36
f 26/65/37 56/27/37 10/66/37
f 1/67/38 73/25/38 26/65/38
f 43/68/39 55/61/39 73/25/39
f 38/69/40 36/24/40 5/58/40
f 10/66/41 74/22/41 38/69/41
f 56/27/42 54/70/42 74/22/42
f 75/21/43 22/71/43 51/16/43
f 27/72/44 51/16/44 11/73/44
f 2/74/45 75/21/45 27/72/45
f 76/18/46 19/29/46 47/64/46
f 39/75/47 47/64/47 6/76/47
f 11/73/48 76/18/48 39/75/48
f 77/15/49 9/8/49 35/77/49
f 52/17/50 35/77/50 19/29/50
f 52/17/51 50/13/51 77/15/51
f 78/12/52 21/50/52 50/13/52
f 53/20/53 50/13/53 22/71/53
f 16/78/54 78/12/54 53/20/54
f 54/70/55 48/9/55 20/23/55
f 57/30/56 54/70/56 23/26/56
f 57/30/57 35/77/57 79/7/57
f 80/6/58 13/79/58 58/31/58
f 61/38/59 58/31/59 24/55/59
f 18/52/10 80/6/10 61/38/10
f 62/54/60 45/3/60 17/41/60
f 25/49/61 81/1/61 62/54/61
f 65/48/62 28/80/62 81/1/62
f 150/81/63 112/82/63 83/83/63
f 142/84/64 85/85/64 101/86/64
f 126/87/65 94/88/65 122/89/65
f 114/90/66 105/91/66 139/92/66
f 118/93/67 101/86/67 93/94/67
f 158/95/68 110/96/68 144/97/68
f 176/98/69 111/99/69 85/85/69
f 167/100/70 90/101/70 106/102/70
f 172/103/71 113/104/71 84/105/71
f 146/106/72 102/107/72 126/87/72
f 170/108/73 95/109/73 158/95/73
f 116/110/74 82/111/74 98/112/74
f 164/113/75 99/114/75 91/115/75
f 148/116/76 112/117/76 128/118/76
f 167/100/77 86/119/77 146/106/77
f 137/120/78 91/115/78 107/121/78
f 174/122/79 89/123/79 114/90/79
f 130/124/80 103/125/80 170/108/80
f 160/126/81 96/127/81 148/116/81
f 141/128/82 92/129/82 108/130/82
f 152/131/83 98/112/83 90/101/83
f 132/132/84 113/133/84 162/134/84
f 137/120/85 87/135/85 130/124/85
f 120/136/86 83/83/86 99/114/86
f 154/137/87 110/138/87 82/111/87
f 134/139/88 104/140/88 160/126/88
f 139/92/89 97/141/89 132/132/89
f 174/122/90 93/94/90 109/142/90
f 141/128/91 88/143/91 134/139/91
f 156/144/92 84/105/92 100/145/92
f 168/146/93 100/145/93 92/129/93
f 122/89/94 111/147/94 125/148/94
f 205/149/95 123/150/95 124/151/95
f 124/151/96 122/89/96 125/148/96
f 195/152/97 169/153/97 200/154/97
f 157/155/98 168/146/98 169/153/98
f 202/156/99 157/155/99 195/152/99
f 173/157/100 156/144/100 157/155/100
f 187/158/101 140/159/101 135/160/101
f 135/160/102 141/128/102 134/139/102
f 180/161/103 175/162/103 203/163/103
f 119/164/104 174/122/104 175/162/104
f 186/165/105 138/166/105 133/167/105
f 133/167/106 139/92/106 132/132/106
f 197/168/107 135/160/107 161/169/107
f 161/169/108 134/139/108 160/126/108
f 189/170/109 155/171/109 194/172/109
f 145/173/110 154/137/110 155/171/110
f 192/174/111 121/175/111 181/176/111
f 151/177/112 120/136/112 121/175/112
f 185/178/113 136/179/113 131/180/113
f 131/180/114 137/120/114 130/124/114
f 198/181/115 133/167/115 163/182/115
f 163/182/116 132/132/116 162/134/116
f 179/183/117 153/184/117 193/185/117
f 117/186/118 152/131/118 153/184/118
f 200/154/119 140/159/119 208/187/119
f 169/153/120 141/128/120 140/159/120
f 191/188/121 161/169/121 149/189/121
f 149/189/122 160/126/122 148/116/122
f 201/190/123 131/180/123 171/191/123
f 171/191/124 130/124/124 170/108/124
f 178/192/125 175/162/125 115/193/125
f 115/193/126 174/122/126 114/90/126
f 199/194/127 136/179/127 206/195/127
f 165/196/128 137/120/128 136/179/128
f 190/197/129 166/198/129 147/199/129
f 147/199/130 167/100/130 146/106/130
f 184/200/131 149/189/131 129/201/131
f 129/201/132 148/116/132 128/118/132
f 181/176/133 165/196/133 199/194/133
f 121/175/134 164/113/134 165/196/134
f 194/172/135 117/186/135 179/183/135
f 155/171/136 116/110/136 117/186/136
f 196/202/137 171/191/137 159/203/137
f 159/203/138 170/108/138 158/95/138
f 183/204/139 147/199/139 127/205/139
f 127/205/140 146/106/140 126/87/140
f 198/206/141 173/157/141 202/156/141
f 163/207/142 172/103/142 173/157/142
f 193/185/143 166/198/143 209/208/143
f 153/184/144 167/100/144 166/198/144
f 205/209/145 177/210/145 204/211/145
f 124/212/146 176/98/146 177/210/146
f 189/213/147 159/203/147 145/214/147
f 145/214/148 158/95/148 144/97/148
f 188/215/149 119/164/149 180/161/149
f 143/216/150 118/93/150 119/164/150
f 207/217/151 115/193/151 138/166/151
f 138/166/152 114/90/152 139/92/152
f 182/218/153 127/205/153 123/150/153
f 123/150/154 126/87/154 122/89/154
f 204/211/155 143/216/155 188/215/155
f 177/210/156 142/84/156 143/216/156
f 184/219/157 151/177/157 192/174/157
f 129/220/158 150/81/158 151/177/158
f 2/221/159 192/174/159 44/222/159
f 42/223/160 188/215/160 14/224/160
f 29/225/161 183/204/161 182/218/161
f 10/226/162 178/192/162 207/217/162
f 14/224/163 180/161/163 30/227/163
f 4/228/164 196/202/164 189/213/164
f 3/229/165 204/211/165 42/223/165
f 33/230/166 209/208/166 8/231/166
f 1/232/167 202/156/167 43/233/167
f 13/234/168 190/197/168 183/204/168
f 28/235/169 201/190/169 196/202/169
f 45/236/170 179/183/170 17/237/170
f 16/238/171 199/194/171 32/239/171
f 2/240/172 191/188/172 184/200/172
f 41/241/173 209/208/173 190/197/173
f 32/239/174 206/195/174 7/242/174
f 38/243/175 203/163/175 178/192/175
f 12/244/176 185/178/176 201/190/176
f 27/245/177 197/168/177 191/188/177
f 31/246/178 208/187/178 6/247/178
f 17/237/179 193/185/179 33/230/179
f 1/248/180 186/165/180 198/181/180
f 40/249/181 206/195/181 185/178/181
f 44/222/182 181/176/182 16/238/182
f 4/250/183 194/172/183 45/236/183
f 11/251/184 187/158/184 197/168/184
f 26/252/185 207/217/185 186/165/185
f 30/227/186 203/163/186 5/253/186
f 39/254/187 208/187/187 187/158/187
f 43/233/188 195/152/188 15/255/188
f 15/255/189 200/154/189 31/246/189
f 3/256/190 182/218/190 205/149/190
f 81/1/191 28/80/191 4/2/191
f 34/4/192 8/53/192 41/5/192
f 79/7/193 35/77/193 9/8/193
f 32/10/194 7/257/194 49/11/194
f 50/13/195 21/50/195 37/14/195
f 51/16/196 22/71/196 52/17/196
f 44/19/197 16/78/197 53/20/197
f 74/22/52 54/70/52 20/23/52
f 73/25/198 55/61/198 23/26/198
f 72/28/199 47/64/199 19/29/199
f 58/31/200 13/79/200 29/32/200
f 59/34/201 24/55/201 60/35/201
f 46/37/202 18/52/202 61/38/202
f 68/40/203 62/54/203 17/41/203
f 63/43/204 25/49/204 64/44/204
f 66/46/205 40/51/205 12/47/205
f 63/43/12 66/46/12 65/48/12
f 21/50/206 49/11/206 66/46/206
f 49/11/207 7/257/207 40/51/207
f 46/37/208 67/45/208 64/44/208
f 9/8/209 37/14/209 67/45/209
f 37/14/210 21/50/210 63/43/210
f 34/4/211 68/40/211 33/42/211
f 18/52/212 64/44/212 68/40/212
f 64/44/213 25/49/213 62/54/213
f 59/34/214 69/39/214 61/38/214
f 48/9/215 69/39/215 59/34/215
f 9/8/216 46/37/216 69/39/216
f 70/36/217 60/35/217 14/56/217
f 36/24/218 70/36/218 30/57/218
f 20/23/18 59/34/18 70/36/18
f 71/33/219 29/32/219 3/59/219
f 60/35/220 71/33/220 42/60/220
f 24/55/221 58/31/221 71/33/221
f 55/61/222 72/28/222 57/30/222
f 15/62/223 31/63/223 72/28/223
f 31/63/224 6/76/224 47/64/224
f 26/65/225 73/25/225 56/27/225
f 1/67/226 43/68/226 73/25/226
f 43/68/227 15/62/227 55/61/227
f 38/69/228 74/22/228 36/24/228
f 10/66/229 56/27/229 74/22/229
f 56/27/230 23/26/230 54/70/230
f 75/21/231 53/20/231 22/71/231
f 27/72/232 75/21/232 51/16/232
f 2/74/233 44/19/233 75/21/233
f 76/18/212 52/17/212 19/29/212
f 39/75/234 76/18/234 47/64/234
f 11/73/235 51/16/235 76/18/235
f 77/15/236 37/14/236 9/8/236
f 52/17/237 77/15/237 35/77/237
f 52/17/238 22/71/238 50/13/238
f 78/12/239 49/11/239 21/50/239
f 53/20/42 78/12/42 50/13/42
f 16/78/240 32/10/240 78/12/240
f 54/70/241 79/7/241 48/9/241
f 57/30/242 79/7/242 54/70/242
f 57/30/243 19/29/243 35/77/243
f 80/6/244 41/5/244 13/79/244
f 61/38/222 80/6/222 58/31/222
f 18/52/245 34/4/245 80/6/245
f 62/54/246 81/1/246 45/3/246
f 25/49/247 65/48/247 81/1/247
f 65/48/248 12/47/248 28/80/248
f 150/81/63 128/258/63 112/82/63
f 142/84/64 176/98/64 85/85/64
f 126/87/65 102/107/65 94/88/65
f 114/90/66 89/123/66 105/91/66
f 118/93/67 142/84/67 101/86/67
f 158/95/68 95/109/68 110/96/68
f 176/98/69 125/259/69 111/99/69
f 167/100/70 152/131/70 90/101/70
f 172/103/71 162/134/71 113/104/71
f 146/106/72 86/119/72 102/107/72
f 170/108/73 103/125/73 95/109/73
f 116/110/74 154/137/74 82/111/74
f 164/113/75 120/136/75 99/114/75
f 148/116/76 96/127/76 112/117/76
f 167/100/77 106/102/77 86/119/77
f 137/120/78 164/113/78 91/115/78
f 174/122/79 109/142/79 89/123/79
f 130/124/80 87/135/80 103/125/80
f 160/126/81 104/140/81 96/127/81
f 141/128/82 168/146/82 92/129/82
f 152/131/83 116/110/83 98/112/83
f 132/132/84 97/141/84 113/133/84
f 137/120/85 107/121/85 87/135/85
f 120/136/86 150/81/86 83/83/86
f 154/137/87 144/260/87 110/138/87
f 134/139/88 88/143/88 104/140/88
f 139/92/89 105/91/89 97/141/89
f 174/122/90 118/93/90 93/94/90
f 141/128/91 108/130/91 88/143/91
f 156/144/92 172/103/92 84/105/92
f 168/146/93 156/144/93 100/145/93
f 122/89/94 94/88/94 111/147/94
f 205/149/95 182/218/95 123/150/95
f 124/151/96 123/150/96 122/89/96
f 195/152/97 157/155/97 169/153/97
f 157/155/98 156/144/98 168/146/98
f 202/156/99 173/157/99 157/155/99
f 173/157/100 172/103/100 156/144/100
f 187/158/101 208/187/101 140/159/101
f 135/160/102 140/159/102 141/128/102
f 180/161/103 119/164/103 175/162/103
f 119/164/104 118/93/104 174/122/104
f 186/165/105 207/217/105 138/166/105
f 133/167/106 138/166/106 139/92/106
f 197/168/107 187/158/107 135/160/107
f 161/169/108 135/160/108 134/139/108
f 189/170/109 145/173/109 155/171/109
f 145/173/110 144/260/110 154/137/110
f 192/174/111 151/177/111 121/175/111
f 151/177/112 150/81/112 120/136/112
f 185/178/113 206/195/113 136/179/113
f 131/180/114 136/179/114 137/120/114
f 198/181/115 186/165/115 133/167/115
f 163/182/116 133/167/116 132/132/116
f 179/183/117 117/186/117 153/184/117
f 117/186/118 116/110/118 152/131/118
f 200/154/119 169/153/119 140/159/119
f 169/153/120 168/146/120 141/128/120
f 191/188/121 197/168/121 161/169/121
f 149/189/122 161/169/122 160/126/122
f 201/190/123 185/178/123 131/180/123
f 171/191/124 131/180/124 130/124/124
f 178/192/125 203/163/125 175/162/125
f 115/193/126 175/162/126 174/122/126
f 199/194/127 165/196/127 136/179/127
f 165/196/128 164/113/128 137/120/128
f 190/197/129 209/208/129 166/198/129
f 147/199/130 166/198/130 167/100/130
f 184/200/131 191/188/131 149/189/131
f 129/201/132 149/189/132 148/116/132
f 181/176/133 121/175/133 165/196/133
f 121/175/134 120/136/134 164/113/134
f 194/172/135 155/171/135 117/186/135
f 155/171/136 154/137/136 116/110/136
f 196/202/137 201/190/137 171/191/137
f 159/203/138 171/191/138 170/108/138
f 183/204/139 190/197/139 147/199/139
f 127/205/140 147/199/140 146/106/140
f 198/206/141 163/207/141 173/157/141
f 163/207/142 162/134/142 172/103/142
f 193/185/143 153/184/143 166/198/143
f 153/184/144 152/131/144 167/100/144
f 205/209/145 124/212/145 177/210/145
f 124/212/146 125/259/146 176/98/146
f 189/213/147 196/202/147 159/203/147
f 145/214/148 159/203/148 158/95/148
f 188/215/149 143/216/149 119/164/149
f 143/216/150 142/84/150 118/93/150
f 207/217/151 178/192/151 115/193/151
f 138/166/152 115/193/152 114/90/152
f 182/218/153 183/204/153 127/205/153
f 123/150/154 127/205/154 126/87/154
f 204/211/155 177/210/155 143/216/155
f 177/210/156 176/98/156 142/84/156
f 184/219/157 129/220/157 151/177/157
f 129/220/158 128/258/158 150/81/158
f 2/221/159 184/219/159 192/174/159
f 42/223/160 204/211/160 188/215/160
f 29/225/161 13/234/161 183/204/161
f 10/226/162 38/243/162 178/192/162
f 14/224/163 188/215/163 180/161/163
f 4/228/164 28/235/164 196/202/164
f 3/229/165 205/209/165 204/211/165
f 33/230/166 193/185/166 209/208/166
f 1/232/167 198/206/167 202/156/167
f 13/234/168 41/241/168 190/197/168
f 28/235/169 12/244/169 201/190/169
f 45/236/170 194/172/170 179/183/170
f 16/238/171 181/176/171 199/194/171
f 2/240/172 27/245/172 191/188/172
f 41/241/173 8/231/173 209/208/173
f 32/239/174 199/194/174 206/195/174
f 38/243/175 5/253/175 203/163/175
f 12/244/176 40/249/176 185/178/176
f 27/245/177 11/251/177 197/168/177
f 31/246/178 200/154/178 208/187/178
f 17/237/179 179/183/179 193/185/179
f 1/248/180 26/252/180 186/165/180
f 40/249/181 7/242/181 206/195/181
f 44/222/182 192/174/182 181/176/182
f 4/250/183 189/170/183 194/172/183
f 11/251/184 39/254/184 187/158/184
f 26/252/185 10/226/185 207/217/185
f 30/227/186 180/161/186 203/163/186
f 39/254/187 6/247/187 208/187/187
f 43/233/188 202/156/188 195/152/188
f 15/255/189 195/152/189 200/154/189
f 3/256/190 29/225/190 182/218/190
