# Blender v2.78 (sub 0) OBJ File: ''
# www.blender.org
mtllib shelf05.mtl
o Cube.001_Cube.011
v -0.107964 0.415956 1.379367
v -0.107964 0.464607 1.379367
v -0.107964 0.415956 -1.379367
v -0.107964 0.464607 -1.379367
v 0.107964 0.415956 1.379367
v 0.107964 0.464607 1.379367
v 0.107964 0.415956 -1.379367
v 0.107964 0.464607 -1.379367
v -0.107964 0.415956 -1.334584
v -0.107964 0.415956 1.334584
v -0.107964 0.464607 1.334584
v -0.107964 0.464607 -1.334584
v 0.107964 0.415956 1.334584
v 0.107964 0.415956 -1.334584
v 0.107964 0.464607 -1.334584
v 0.107964 0.464607 1.334584
v -0.107964 0.415956 -0.300088
v -0.107964 0.415956 -0.257452
v -0.107964 0.464607 -0.257452
v -0.107964 0.464607 -0.300088
v 0.107964 0.415956 -0.257452
v 0.107964 0.415956 -0.300088
v 0.107964 0.464607 -0.300088
v 0.107964 0.464607 -0.257452
v -0.107964 0.249387 1.334584
v -0.107964 0.249387 1.379367
v 0.107964 0.249387 -1.379367
v -0.107964 0.249387 -1.379367
v 0.107964 0.249387 1.379367
v 0.107964 0.249387 1.334584
v -0.107964 0.249387 -0.300088
v -0.107964 0.249387 -0.257452
v 0.107964 0.249387 -0.257452
v 0.107964 0.249387 -0.300088
v -0.107964 0.207810 1.379367
v 0.107964 0.207810 -1.379367
v -0.107964 0.207810 -1.379367
v 0.107964 0.207810 -1.334584
v 0.107964 0.207810 1.379367
v -0.107964 0.207810 -0.300088
v -0.107964 0.207810 -0.257452
v 0.107964 0.207810 -0.257452
v 0.107964 0.207810 -0.300088
v -0.107964 0.041499 1.334584
v -0.107964 0.041499 1.379367
v 0.107964 0.041499 -1.379367
v -0.107964 0.041499 -1.379367
v 0.107964 0.041499 -1.334584
v 0.107964 0.041499 1.379367
v -0.107964 0.041499 -1.334584
v -0.107964 0.207810 -1.334584
v -0.107964 0.041499 -0.257452
v 0.107964 0.041499 -0.257452
v 0.107964 0.041499 -0.300088
v 0.107964 0.249387 -1.334584
v -0.107964 0.002231 1.379367
v 0.107964 0.002231 -1.379367
v -0.107964 0.002231 -1.379367
v 0.107964 0.002231 -1.334584
v 0.107964 0.002231 1.379367
v -0.107964 0.002231 -1.334584
v -0.107964 0.249387 -1.334584
v -0.107964 0.002231 -0.300088
v -0.107964 0.002231 -0.257452
v 0.107964 0.002231 -0.257452
v 0.107964 0.207810 1.334584
v 0.107964 0.041499 1.334584
v -0.107964 0.207810 1.334584
v 0.107964 0.002231 1.334584
v -0.107964 0.002231 1.334584
v -0.107964 0.041499 -0.300088
v 0.107964 0.002231 -0.300088
vt 0.0765 0.0000
vt 0.0777 0.1052
vt 0.0765 0.1052
vt 0.2332 1.0000
vt 0.1555 0.8948
vt 0.2332 0.8948
vt 0.3096 0.0000
vt 0.3109 0.1052
vt 0.3096 0.1052
vt 0.0777 0.0000
vt 0.1555 0.1052
vt 0.0777 0.1052
vt 0.0765 0.4655
vt 0.5441 0.7216
vt 0.6218 0.7199
vt 0.6218 0.7216
vt 0.5441 0.8252
vt 0.6218 0.8234
vt 0.6218 0.8252
vt 0.9940 0.9843
vt 0.0081 0.0125
vt 0.9956 0.0110
vt 0.0473 0.1052
vt 0.0461 0.4655
vt 0.0461 0.1052
vt 0.6218 0.1052
vt 0.6667 0.2104
vt 0.6218 0.2104
vt 0.2332 0.0000
vt 0.2344 0.1052
vt 0.2332 0.1052
vt 0.2648 0.0000
vt 0.2648 0.1052
vt 0.0000 0.0000
vt 0.0013 0.1052
vt 0.0000 0.1052
vt 0.0473 0.0000
vt 0.0013 0.0000
vt 0.0461 0.0000
vt 0.2344 0.0000
vt 0.2636 0.1052
vt 0.2636 0.0000
vt 0.6218 0.6313
vt 0.6510 0.7365
vt 0.6218 0.7365
vt 0.4664 0.0000
vt 0.3886 0.3602
vt 0.3886 0.0000
vt 0.9890 0.9893
vt 0.0026 0.0134
vt 0.9843 0.0096
vt 0.5441 0.7840
vt 0.6218 0.7824
vt 0.6218 0.7840
vt 0.3109 0.4655
vt 0.3096 0.5554
vt 0.3096 0.4655
vt 0.0473 0.4655
vt 0.0461 0.5554
vt 0.1555 0.5345
vt 0.2332 0.4446
vt 0.2332 0.5345
vt 0.2636 0.4655
vt 0.5441 0.4446
vt 0.4664 0.8049
vt 0.4664 0.4446
vt 0.3886 0.0000
vt 0.3109 0.3602
vt 0.3109 0.0000
vt 0.0777 0.4655
vt 0.0000 0.4655
vt 0.6218 0.0000
vt 0.5441 0.3602
vt 0.5441 0.0000
vt 0.2332 0.4655
vt 0.0473 0.5554
vt 0.0461 0.9151
vt 0.1555 0.4446
vt 0.2332 0.0849
vt 0.6218 0.3602
vt 0.5441 0.7199
vt 0.5441 0.3602
vt 0.2344 0.4655
vt 0.2332 0.5554
vt 0.2648 0.4655
vt 0.2636 0.5554
vt 0.4664 0.3602
vt 0.3886 0.4502
vt 0.1555 0.4655
vt 0.0777 0.5554
vt 0.6218 0.7365
vt 0.6510 0.8418
vt 0.6218 0.8418
vt 0.0013 0.5554
vt 0.0000 0.5554
vt 0.3886 0.3602
vt 0.3109 0.4502
vt 0.0777 0.4655
vt 0.0765 0.5554
vt 0.2648 0.5554
vt 0.1555 0.0849
vt 0.2332 0.0000
vt 0.2648 0.9151
vt 0.3096 1.0000
vt 0.2648 1.0000
vt 0.0777 0.9151
vt 0.0765 1.0000
vt 0.0765 0.9151
vt 0.3109 0.5554
vt 0.3096 0.9151
vt 0.2344 0.5554
vt 0.2332 0.9151
vt 0.2636 0.9151
vt 0.4664 0.4502
vt 0.3886 0.8099
vt 0.1555 0.5554
vt 0.0777 0.9151
vt 0.5441 0.0000
vt 0.4664 0.3597
vt 0.4664 0.0000
vt 0.0000 0.9151
vt 0.3886 0.4502
vt 0.3109 0.8099
vt 0.0777 0.5554
vt 0.4664 0.8066
vt 0.5441 0.8049
vt 0.5441 0.8066
vt 0.4664 0.9101
vt 0.5441 0.9084
vt 0.5441 0.9101
vt 0.4664 0.8689
vt 0.5441 0.8673
vt 0.5441 0.8689
vt 0.0473 1.0000
vt 0.0461 1.0000
vt 0.3109 0.9151
vt 0.2344 0.9151
vt 0.2332 1.0000
vt 0.2636 1.0000
vt 0.4664 0.9084
vt 0.1555 0.9151
vt 0.0777 1.0000
vt 0.5441 0.3597
vt 0.4664 0.4446
vt 0.0013 0.9151
vt 0.0000 1.0000
vt 0.3886 0.8099
vt 0.3109 0.8948
vt 0.0013 0.4655
vt 0.4664 0.8673
vt 0.0024 0.0120
vt 0.9900 0.9866
vt 0.0107 0.9771
vt 0.9920 0.9796
vt 0.0056 0.0109
vt 0.9902 0.0145
vt 0.0473 0.9151
vt 0.2344 1.0000
vt 0.6218 0.0000
vt 0.6667 0.1052
vt 0.6218 0.1052
vt 0.0107 0.0290
vt 0.9942 0.9847
vt 0.0128 0.9815
vt 0.0170 0.0303
vt 0.9869 0.9797
vt 0.0149 0.9765
vt 0.0777 0.0000
vt 0.1555 1.0000
vt 0.3109 0.0000
vt 0.1555 0.0000
vt 0.5441 0.7199
vt 0.5441 0.8234
vt 0.0065 0.9859
vt 0.6667 0.1052
vt 0.6510 0.6313
vt 0.0073 0.9930
vt 0.5441 0.7824
vt 0.5441 0.8049
vt 0.6218 0.3602
vt 0.6218 0.7199
vt 0.6510 0.7365
vt 0.1555 0.0000
vt 0.0777 1.0000
vt 0.4664 0.8099
vt 0.4664 0.8049
vt 0.3109 1.0000
vt 0.1555 1.0000
vt 0.5441 0.4446
vt 0.0013 1.0000
vt 0.3886 0.8948
vt 0.9816 0.0215
vt 0.0075 0.9760
vt 0.6667 0.0000
vt 0.9921 0.0322
vt 0.9890 0.0335
vn -1.0000 0.0000 0.0000
vn 0.0000 0.0000 -1.0000
vn 1.0000 0.0000 0.0000
vn 0.0000 0.0000 1.0000
vn 0.0000 1.0000 0.0000
vn 0.0000 -1.0000 0.0000
usemtl None
s off
f 12/1/1 3/2/1 9/3/1
f 4/4/2 7/5/2 3/6/2
f 16/7/3 5/8/3 13/9/3
f 6/10/4 1/11/4 5/12/4
f 3/2/1 62/13/1 9/3/1
f 11/14/5 6/15/5 16/16/5
f 4/17/5 15/18/5 8/19/5
f 19/20/5 16/21/5 24/22/5
f 17/23/1 32/24/1 18/25/1
f 21/26/6 10/27/6 18/28/6
f 8/29/3 14/30/3 7/31/3
f 24/32/3 13/9/3 21/33/3
f 2/34/1 10/35/1 1/36/1
f 20/37/1 9/3/1 17/23/1
f 11/38/1 18/25/1 10/35/1
f 19/39/1 17/23/1 18/25/1
f 15/40/3 22/41/3 14/30/3
f 23/42/3 21/33/3 22/41/3
f 14/43/6 17/44/6 9/45/6
f 9/46/4 55/47/4 14/48/4
f 12/49/5 23/50/5 15/51/5
f 20/52/5 24/53/5 23/54/5
f 29/55/3 66/56/3 30/57/3
f 31/58/1 41/59/1 32/24/1
f 27/60/2 37/61/2 28/62/2
f 21/33/3 34/63/3 22/41/3
f 5/8/3 30/57/3 13/9/3
f 22/64/2 31/65/2 17/66/2
f 13/67/2 25/68/2 10/69/2
f 1/11/4 29/70/4 5/12/4
f 10/35/1 26/71/1 1/36/1
f 18/72/4 33/73/4 21/74/4
f 14/30/3 27/75/3 7/31/3
f 7/5/2 28/62/2 3/6/2
f 40/76/1 52/77/1 41/59/1
f 36/78/2 47/79/2 37/61/2
f 41/80/4 53/81/4 42/82/4
f 55/83/3 36/84/3 27/75/3
f 33/85/3 43/86/3 34/63/3
f 62/87/4 38/88/4 55/47/4
f 26/89/4 39/90/4 29/70/4
f 40/91/6 38/92/6 43/93/6
f 26/71/1 68/94/1 35/95/1
f 30/96/2 68/97/2 25/68/2
f 28/98/1 51/99/1 62/13/1
f 33/85/3 66/56/3 42/100/3
f 46/101/2 58/102/2 47/79/2
f 53/103/3 69/104/3 65/105/3
f 47/106/1 61/107/1 50/108/1
f 39/109/3 67/110/3 66/56/3
f 38/111/3 46/112/3 36/84/3
f 42/100/3 54/113/3 43/86/3
f 51/114/4 48/115/4 38/88/4
f 35/116/4 49/117/4 39/90/4
f 43/118/2 71/119/2 40/120/2
f 68/94/1 45/121/1 35/95/1
f 66/122/2 44/123/2 68/97/2
f 37/124/1 50/108/1 51/99/1
f 69/125/6 56/126/6 70/127/6
f 57/128/6 61/129/6 58/130/6
f 72/131/6 64/132/6 63/133/6
f 52/77/1 63/134/1 64/135/1
f 49/136/3 69/104/3 67/110/3
f 48/137/3 57/138/3 46/112/3
f 54/113/3 65/105/3 72/139/3
f 59/140/6 63/133/6 61/129/6
f 45/141/4 60/142/4 49/117/4
f 54/143/2 63/144/2 71/119/2
f 44/145/1 56/146/1 45/121/1
f 67/147/2 70/148/2 44/123/2
f 41/59/1 25/149/1 32/24/1
f 65/150/6 70/127/6 64/132/6
f 52/151/5 67/152/5 53/153/5
f 64/135/1 44/145/1 52/77/1
f 50/154/5 54/155/5 48/156/5
f 61/107/1 71/157/1 50/108/1
f 48/137/3 72/139/3 59/158/3
f 42/159/6 68/160/6 41/161/6
f 32/162/5 30/163/5 33/164/5
f 34/165/5 62/166/5 31/167/5
f 43/86/3 55/83/3 34/63/3
f 31/58/1 51/99/1 40/76/1
f 12/1/1 4/168/1 3/2/1
f 4/4/2 8/169/2 7/5/2
f 16/7/3 6/170/3 5/8/3
f 6/10/4 2/171/4 1/11/4
f 3/2/1 28/98/1 62/13/1
f 11/14/5 2/172/5 6/15/5
f 4/17/5 12/173/5 15/18/5
f 19/20/5 11/174/5 16/21/5
f 17/23/1 31/58/1 32/24/1
f 21/26/6 13/175/6 10/27/6
f 8/29/3 15/40/3 14/30/3
f 24/32/3 16/7/3 13/9/3
f 2/34/1 11/38/1 10/35/1
f 20/37/1 12/1/1 9/3/1
f 11/38/1 19/39/1 18/25/1
f 19/39/1 20/37/1 17/23/1
f 15/40/3 23/42/3 22/41/3
f 23/42/3 24/32/3 21/33/3
f 14/43/6 22/176/6 17/44/6
f 9/46/4 62/87/4 55/47/4
f 12/49/5 20/177/5 23/50/5
f 20/52/5 19/178/5 24/53/5
f 29/55/3 39/109/3 66/56/3
f 31/58/1 40/76/1 41/59/1
f 27/60/2 36/78/2 37/61/2
f 21/33/3 33/85/3 34/63/3
f 5/8/3 29/55/3 30/57/3
f 22/64/2 34/179/2 31/65/2
f 13/67/2 30/96/2 25/68/2
f 1/11/4 26/89/4 29/70/4
f 10/35/1 25/149/1 26/71/1
f 18/72/4 32/180/4 33/73/4
f 14/30/3 55/83/3 27/75/3
f 7/5/2 27/60/2 28/62/2
f 40/76/1 71/157/1 52/77/1
f 36/78/2 46/101/2 47/79/2
f 41/80/4 52/181/4 53/81/4
f 55/83/3 38/111/3 36/84/3
f 33/85/3 42/100/3 43/86/3
f 62/87/4 51/114/4 38/88/4
f 26/89/4 35/116/4 39/90/4
f 40/91/6 51/182/6 38/92/6
f 26/71/1 25/149/1 68/94/1
f 30/96/2 66/122/2 68/97/2
f 28/98/1 37/124/1 51/99/1
f 33/85/3 30/57/3 66/56/3
f 46/101/2 57/183/2 58/102/2
f 53/103/3 67/110/3 69/104/3
f 47/106/1 58/184/1 61/107/1
f 39/109/3 49/136/3 67/110/3
f 38/111/3 48/137/3 46/112/3
f 42/100/3 53/103/3 54/113/3
f 51/114/4 50/185/4 48/115/4
f 35/116/4 45/141/4 49/117/4
f 43/118/2 54/143/2 71/119/2
f 68/94/1 44/145/1 45/121/1
f 66/122/2 67/147/2 44/123/2
f 37/124/1 47/106/1 50/108/1
f 69/125/6 60/186/6 56/126/6
f 57/128/6 59/140/6 61/129/6
f 72/131/6 65/150/6 64/132/6
f 52/77/1 71/157/1 63/134/1
f 49/136/3 60/187/3 69/104/3
f 48/137/3 59/158/3 57/138/3
f 54/113/3 53/103/3 65/105/3
f 59/140/6 72/131/6 63/133/6
f 45/141/4 56/188/4 60/142/4
f 54/143/2 72/189/2 63/144/2
f 44/145/1 70/190/1 56/146/1
f 67/147/2 69/191/2 70/148/2
f 41/59/1 68/94/1 25/149/1
f 65/150/6 69/125/6 70/127/6
f 52/151/5 44/192/5 67/152/5
f 64/135/1 70/190/1 44/145/1
f 50/154/5 71/193/5 54/155/5
f 61/107/1 63/134/1 71/157/1
f 48/137/3 54/113/3 72/139/3
f 42/159/6 66/194/6 68/160/6
f 32/162/5 25/195/5 30/163/5
f 34/165/5 55/196/5 62/166/5
f 43/86/3 38/111/3 55/83/3
f 31/58/1 62/13/1 51/99/1
