# Blender v2.78 (sub 0) OBJ File: ''
# www.blender.org
mtllib toilet.mtl
o Circle.004_Circle.005
v 0.000000 0.339393 -0.219175
v -0.065459 0.339393 -0.206155
v -0.120953 0.339393 -0.169075
v -0.158032 0.339393 -0.113582
v -0.165079 0.339393 -0.048122
v -0.156069 0.339393 0.021586
v -0.120953 0.339393 0.286910
v -0.065459 0.339393 0.286910
v -0.000000 0.339393 0.286910
v 0.065459 0.339393 0.286910
v 0.120953 0.339393 0.286910
v 0.156069 0.339393 0.021586
v 0.165079 0.339393 -0.048122
v 0.158032 0.339393 -0.113582
v 0.120953 0.339393 -0.169075
v 0.065459 0.339393 -0.206155
v 0.130267 0.339393 0.100057
v -0.130267 0.339393 0.100057
v 0.001002 0.339393 -0.181389
v 0.052670 0.339393 -0.171111
v 0.096472 0.339393 -0.141843
v 0.125740 0.339393 -0.098041
v 0.136017 0.339393 -0.046373
v 0.125740 0.339393 0.005295
v 0.096472 0.339393 0.049097
v 0.052670 0.339393 0.078365
v 0.001002 0.339393 0.088642
v -0.050666 0.339393 0.078365
v -0.094468 0.339393 0.049096
v -0.123736 0.339393 0.005295
v -0.134013 0.339393 -0.046373
v -0.123736 0.339393 -0.098041
v -0.094468 0.339393 -0.141843
v -0.050666 0.339393 -0.171111
v 0.001002 0.288598 -0.181389
v 0.052670 0.288598 -0.171111
v 0.096472 0.288598 -0.141843
v 0.125740 0.288598 -0.098041
v 0.136017 0.288598 -0.046373
v 0.125740 0.288598 0.005295
v 0.096472 0.288598 0.049097
v 0.052670 0.288598 0.078365
v 0.001002 0.288598 0.088642
v -0.050666 0.288598 0.078365
v -0.094468 0.288598 0.049096
v -0.123736 0.288598 0.005295
v -0.134013 0.288598 -0.046373
v -0.123736 0.288598 -0.098041
v -0.094468 0.288598 -0.141843
v -0.050666 0.288598 -0.171111
v 0.000000 0.323353 -0.224083
v -0.066871 0.323353 -0.210782
v -0.123561 0.323353 -0.172903
v -0.161441 0.323353 -0.116212
v -0.168639 0.323353 -0.049341
v -0.159435 0.323353 0.021871
v -0.123561 0.323353 0.291908
v -0.066871 0.323353 0.291908
v -0.000000 0.323353 0.291908
v 0.066871 0.323353 0.291908
v 0.123561 0.323353 0.291908
v 0.159435 0.323353 0.021871
v 0.168639 0.323353 -0.049341
v 0.161441 0.323353 -0.116212
v 0.123561 0.323353 -0.172903
v 0.066871 0.323353 -0.210782
v 0.133077 0.323353 0.102034
v -0.133077 0.323353 0.102034
v -0.000000 0.260526 -0.210013
v -0.062824 0.260526 -0.197517
v -0.116083 0.260526 -0.161930
v -0.151669 0.260526 -0.108671
v -0.158432 0.260526 -0.045847
v -0.149785 0.260526 0.021055
v -0.116083 0.260526 0.277579
v -0.062824 0.260526 0.277579
v -0.000000 0.260526 0.277579
v 0.062823 0.260526 0.277579
v 0.116083 0.260526 0.277579
v 0.149785 0.260526 0.021055
v 0.158432 0.260526 -0.045847
v 0.151669 0.260526 -0.108671
v 0.116083 0.260526 -0.161930
v 0.062823 0.260526 -0.197517
v 0.125022 0.260526 0.096366
v -0.125022 0.260526 0.096366
v -0.000000 0.195026 -0.160964
v -0.048714 0.195026 -0.151275
v -0.090012 0.195026 -0.123680
v -0.117606 0.195026 -0.082382
v -0.122850 0.195026 -0.033668
v -0.116145 0.195026 0.018208
v -0.090012 0.195026 0.180842
v -0.048714 0.195026 0.180842
v -0.000000 0.195026 0.180842
v 0.048714 0.195026 0.180842
v 0.090012 0.195026 0.180842
v 0.116145 0.195026 0.018208
v 0.122850 0.195026 -0.033668
v 0.117606 0.195026 -0.082382
v 0.090012 0.195026 -0.123680
v 0.048714 0.195026 -0.151275
v 0.096944 0.195026 0.076605
v -0.096944 0.195026 0.076605
v -0.000000 0.122388 -0.088176
v -0.037014 0.122388 -0.080814
v -0.068393 0.122388 -0.059847
v -0.089360 0.122388 -0.028467
v -0.093345 0.122388 0.008547
v -0.088250 0.122388 0.047964
v -0.068393 0.122388 0.171538
v -0.037014 0.122388 0.171538
v -0.000000 0.122388 0.171538
v 0.037014 0.122388 0.171538
v 0.068393 0.122388 0.171538
v 0.088250 0.122388 0.047964
v 0.093345 0.122388 0.008547
v 0.089360 0.122388 -0.028467
v 0.068393 0.122388 -0.059847
v 0.037014 0.122388 -0.080814
v 0.073660 0.122388 0.092336
v -0.073660 0.122388 0.092336
v -0.000000 0.001488 -0.030041
v -0.029135 0.001488 -0.024245
v -0.053835 0.001488 -0.007742
v -0.070338 0.001488 0.016958
v -0.073475 0.001488 0.046093
v -0.069465 0.001488 0.077120
v -0.053835 0.001488 0.174388
v -0.029135 0.001488 0.174388
v -0.000000 0.001488 0.174388
v 0.029135 0.001488 0.174388
v 0.053835 0.001488 0.174388
v 0.069465 0.001488 0.077120
v 0.073475 0.001488 0.046093
v 0.070338 0.001488 0.016958
v 0.053835 0.001488 -0.007742
v 0.029135 0.001488 -0.024245
v 0.057980 0.001488 0.112046
v -0.057980 0.001488 0.112046
v -0.001195 0.332400 0.268271
v 0.114811 0.332400 0.252543
v 0.130622 0.332400 0.207571
v 0.114811 0.332400 0.143580
v -0.001195 0.332400 0.131972
v -0.117201 0.332400 0.143580
v -0.133011 0.332400 0.207571
v -0.117201 0.332400 0.252543
v -0.001195 0.345232 0.272580
v 0.122237 0.345232 0.255846
v 0.139060 0.345232 0.207994
v 0.122237 0.345232 0.139907
v -0.001195 0.345232 0.127556
v -0.124627 0.345232 0.139907
v -0.141449 0.345232 0.207994
v -0.124627 0.345232 0.255846
v -0.001195 0.672453 0.272580
v 0.122237 0.672453 0.255846
v 0.139060 0.672453 0.207994
v 0.122237 0.672453 0.139907
v -0.001195 0.672453 0.127556
v -0.124627 0.672453 0.139907
v -0.141449 0.672453 0.207994
v -0.124627 0.672453 0.255846
v -0.001195 0.685449 0.267343
v 0.113212 0.685449 0.251832
v 0.128804 0.685449 0.207479
v 0.113212 0.685449 0.144371
v -0.001195 0.685449 0.132923
v -0.115601 0.685449 0.144371
v -0.131194 0.685449 0.207479
v -0.115601 0.685449 0.251832
v -0.001195 0.452189 0.124707
v -0.001195 0.565497 0.124707
v -0.129419 0.565497 0.137537
v -0.129419 0.452189 0.137537
v 0.144505 0.452189 0.208267
v 0.144505 0.565497 0.208267
v 0.127029 0.565497 0.137537
v 0.127029 0.452189 0.137537
v -0.001195 0.452189 0.275361
v -0.001195 0.565497 0.275361
v 0.127029 0.565497 0.257977
v 0.127029 0.452189 0.257977
v -0.129419 0.452189 0.257977
v -0.129419 0.565497 0.257977
v -0.146894 0.565497 0.208267
v -0.146894 0.452189 0.208267
vt 0.3330 0.0850
vt 0.2359 0.1041
vt 0.2119 0.0388
vt 0.4302 0.5692
vt 0.5125 0.5147
vt 0.5798 0.6097
vt 0.3410 0.2353
vt 0.1413 0.0358
vt 0.3834 0.0302
vt 0.2579 0.1926
vt 0.4863 0.2377
vt 0.5703 0.6563
vt 0.5694 0.7468
vt 0.3245 0.9889
vt 0.3082 0.7497
vt 0.2976 0.9649
vt 0.0295 0.7546
vt 0.2747 0.7554
vt 0.3025 0.4806
vt 0.5637 0.4776
vt 0.2667 0.5059
vt 0.0215 0.5051
vt 0.3082 0.2225
vt 0.5694 0.2195
vt 0.0295 0.2536
vt 0.2747 0.2544
vt 0.3245 0.0147
vt 0.5858 0.0118
vt 0.0524 0.0384
vt 0.2976 0.0392
vt 0.3410 0.7442
vt 0.1413 0.9761
vt 0.0990 0.7498
vt 0.1756 0.0197
vt 0.4286 0.2392
vt 0.1720 0.2392
vt 0.0841 0.4916
vt 0.3261 0.4860
vt 0.1707 0.4982
vt 0.4286 0.7571
vt 0.1720 0.7571
vt 0.4273 0.4982
vt 0.0990 0.2409
vt 0.4322 0.9766
vt 0.1756 0.9766
vt 0.6370 0.1693
vt 0.6134 0.2866
vt 0.6087 0.1648
vt 0.2757 0.0182
vt 0.3762 0.0572
vt 0.2736 0.0623
vt 0.6240 0.0695
vt 0.5955 0.0629
vt 0.1569 0.0485
vt 0.2181 0.2515
vt 0.1569 0.2568
vt 0.4858 0.0354
vt 0.6226 0.0962
vt 0.4909 0.0694
vt 0.2181 0.5026
vt 0.1569 0.5026
vt 0.3281 0.0262
vt 0.1640 0.0694
vt 0.1658 0.0354
vt 0.3299 0.0600
vt 0.1569 0.7483
vt 0.2181 0.7536
vt 0.0187 0.0962
vt 0.0235 0.0616
vt 0.6370 0.5605
vt 0.6134 0.4170
vt 0.6415 0.4162
vt 0.1569 0.9567
vt 0.2181 0.9665
vt 0.6072 0.0305
vt 0.5472 0.0615
vt 0.5435 0.0174
vt 0.0434 0.0144
vt 0.0375 0.0584
vt 0.6413 0.9021
vt 0.6087 0.5645
vt 0.4655 0.0570
vt 0.4635 0.0130
vt 0.6415 0.2885
vt 0.3761 0.0132
vt 0.5366 0.2404
vt 0.4598 0.2362
vt 0.4963 0.2954
vt 0.3759 0.2364
vt 0.4919 0.1810
vt 0.2796 0.2412
vt 0.4795 0.0852
vt 0.4546 0.0668
vt 0.4546 0.2667
vt 0.4821 0.2249
vt 0.4546 0.5026
vt 0.3308 0.2161
vt 0.1750 0.2249
vt 0.4546 0.7385
vt 0.0384 0.2501
vt 0.4919 0.5565
vt 0.4963 0.4179
vt 0.4546 0.9384
vt 0.5978 0.2530
vt 0.0543 0.2374
vt 0.4961 0.8878
vt 0.4401 0.4301
vt 0.3751 0.4303
vt 0.3639 0.2324
vt 0.3003 0.4340
vt 0.3542 0.1582
vt 0.0564 0.2367
vt 0.5429 0.1244
vt 0.5429 0.2950
vt 0.6058 0.2501
vt 0.4428 0.4099
vt 0.0564 0.4962
vt 0.5429 0.4962
vt 0.3255 0.4031
vt 0.2047 0.4099
vt 0.5429 0.6973
vt 0.0564 0.7556
vt 0.0988 0.4294
vt 0.3638 0.5236
vt 0.3672 0.4162
vt 0.5429 0.8679
vt 0.0564 0.9756
vt 0.5471 0.4432
vt 0.4997 0.4334
vt 0.1705 0.4324
vt 0.3657 0.7143
vt 0.3672 0.3212
vt 0.3346 0.6414
vt 0.2779 0.6442
vt 0.2182 0.2779
vt 0.5005 0.1211
vt 0.5715 0.3803
vt 0.4582 0.3803
vt 0.5388 0.4294
vt 0.4055 0.6287
vt 0.3246 0.1211
vt 0.3246 0.3803
vt 0.3164 0.6235
vt 0.2246 0.6287
vt 0.1909 0.3803
vt 0.1487 0.1211
vt 0.1441 0.6435
vt 0.2281 0.4740
vt 0.0776 0.3803
vt -0.0005 0.1211
vt 0.4653 0.6512
vt 0.4293 0.6438
vt 0.1792 0.6430
vt 0.2255 0.5556
vt 0.3841 0.6413
vt 0.2281 0.4018
vt 0.2255 0.3344
vt 0.5190 0.8133
vt 0.4298 0.8133
vt 0.4784 0.6435
vt 0.3827 0.9499
vt 0.3246 0.8133
vt 0.3125 0.9458
vt 0.2403 0.9499
vt 0.2194 0.8133
vt 0.1769 0.9615
vt 0.0039 0.5318
vt 0.1302 0.8133
vt 0.3990 0.9929
vt 0.3707 0.9870
vt 0.2515 0.9874
vt 0.1738 0.9864
vt 0.2270 0.7005
vt 0.0019 0.5960
vt 0.3351 0.9850
vt 0.0039 0.4750
vt 0.2962 0.9852
vt 0.0019 0.4219
vt -0.0039 0.3775
vt 0.3022 0.0243
vt 0.1680 0.0558
vt 0.1767 0.0178
vt 0.1565 0.9235
vt 0.2863 0.9562
vt 0.1631 0.9593
vt 0.5936 0.1050
vt 0.3114 0.1391
vt 0.3123 0.1066
vt 0.4891 0.0548
vt 0.4785 0.0168
vt 0.5721 0.0804
vt 0.3031 0.1087
vt 0.3031 0.0795
vt 0.0341 0.0804
vt 0.4626 0.9269
vt 0.4508 0.9625
vt 0.0354 0.0921
vt 0.6108 0.8871
vt 0.3109 0.6457
vt 0.6219 0.6439
vt 0.4959 0.6543
vt 0.3015 0.9503
vt 0.3010 0.6626
vt 0.5893 0.8619
vt 0.3031 0.6149
vt 0.6004 0.6159
vt 0.0169 0.8619
vt 0.0058 0.6159
vt 0.2875 0.0633
vt 0.4702 0.3489
vt 0.2884 0.3419
vt 0.0169 0.8733
vt 0.0049 0.6297
vt 0.1624 0.6554
vt 0.1522 0.3453
vt 0.1565 0.0666
vt 0.2860 0.0322
vt 0.5899 0.9132
vt 0.3114 0.8887
vt 0.4891 0.9423
vt 0.3023 0.9811
vt 0.5684 0.8920
vt 0.3031 0.8609
vt 0.0378 0.8920
vt 0.4626 0.0701
vt 0.0394 0.9005
vt 0.1680 0.9434
vt 0.5567 0.4626
vt 0.3303 0.9640
vt 0.0623 0.5116
vt 0.1522 0.6420
vt 0.2875 0.9202
vt 0.2884 0.6386
vt 0.3015 0.0628
vt 0.1624 0.3481
vt 0.3010 0.3553
vt 0.3109 0.3861
vt 0.0169 0.1237
vt 0.0049 0.3701
vt 0.4702 0.6456
vt 0.3031 0.3544
vt 0.0169 0.1097
vt 0.0058 0.3554
vt 0.5893 0.1097
vt 0.6004 0.3554
vt 0.4959 0.3470
vt 0.6108 0.1374
vt 0.6219 0.3843
vt 0.3349 0.0145
vt 0.4580 0.0388
vt 0.4302 0.1041
vt 0.5623 0.1079
vt 0.6320 0.2114
vt 0.5125 0.1587
vt 0.6453 0.3334
vt 0.5869 0.3367
vt 0.5675 0.2404
vt 0.0378 0.2114
vt 0.1536 0.1587
vt 0.0985 0.2404
vt 0.0792 0.3367
vt 0.0246 0.3334
vt 0.1075 0.1079
vt 0.0415 0.4634
vt 0.0985 0.4330
vt 0.2119 0.9580
vt 0.1075 0.9580
vt 0.0900 0.6097
vt 0.1536 0.5147
vt 0.3349 0.9580
vt 0.3330 0.5884
vt 0.5623 0.9580
vt 0.4580 0.9580
vt 0.2359 0.5692
vt 0.6283 0.4634
vt 0.5675 0.4330
vt 0.4863 0.7395
vt 0.3766 0.7846
vt 0.2579 0.7846
vt 0.1482 0.7395
vt 0.0642 0.6563
vt 0.0188 0.5475
vt 0.0188 0.4297
vt 0.0642 0.3210
vt 0.1482 0.2377
vt 0.3766 0.1926
vt 0.5703 0.3210
vt 0.6157 0.4297
vt 0.6157 0.5475
vt 0.5858 0.9859
vt 0.0524 0.9641
vt 0.3834 0.9705
vt 0.4322 0.0197
vt 0.2181 0.0387
vt 0.6147 0.0616
vt 0.6123 0.0749
vt 0.6131 0.9116
vt 0.0564 0.0168
vt 0.6496 0.1211
vt 0.4401 0.9615
vt 0.0030 0.7100
vt 0.1645 0.0353
vt 0.3125 0.9148
vt 0.4762 0.9737
vt 0.3031 0.8911
vt 0.4483 0.0385
vt 0.1786 0.9746
vt 0.0772 0.0887
vt 0.2346 0.0156
vt 0.4724 0.0494
vt 0.5567 0.8840
vt 0.1614 0.9233
vn 0.0000 1.0000 0.0000
vn 0.5556 0.0000 -0.8315
vn -0.8315 0.0000 0.5556
vn 0.8315 0.0000 -0.5556
vn -0.9808 0.0000 0.1951
vn 0.9808 0.0000 -0.1951
vn -0.9808 0.0000 -0.1951
vn 0.9808 0.0000 0.1951
vn -0.8315 0.0000 -0.5556
vn 0.8315 0.0000 0.5556
vn -0.5556 0.0000 -0.8315
vn 0.5556 0.0000 0.8315
vn -0.1951 0.0000 -0.9808
vn -0.1951 0.0000 0.9808
vn 0.1951 0.0000 0.9808
vn 0.1951 0.0000 -0.9808
vn -0.5556 0.0000 0.8315
vn 0.9692 0.2231 -0.1043
vn -0.9306 0.2007 0.3060
vn 0.8032 0.2587 -0.5367
vn 0.0000 0.2975 0.9547
vn 0.5338 0.2774 -0.7988
vn -0.1869 0.2874 -0.9394
vn 0.1869 0.2874 -0.9394
vn -0.5338 0.2774 -0.7988
vn 0.9306 0.2007 0.3060
vn -0.8032 0.2587 -0.5367
vn -0.9833 0.1753 0.0493
vn 0.9828 0.1782 0.0490
vn -0.9692 0.2231 -0.1043
vn 0.9705 0.2059 0.1254
vn -0.9705 0.2059 0.1254
vn -0.9806 -0.1652 -0.1056
vn 0.9802 -0.1522 0.1267
vn -0.9802 -0.1522 0.1267
vn 0.9806 -0.1652 -0.1056
vn -0.9395 -0.1483 0.3089
vn 0.8159 -0.1923 -0.5452
vn 0.0000 -0.2224 0.9750
vn 0.5436 -0.2068 -0.8135
vn -0.1905 -0.2145 -0.9579
vn 0.1905 -0.2145 -0.9579
vn -0.5436 -0.2068 -0.8135
vn 0.9395 -0.1483 0.3089
vn -0.8159 -0.1923 -0.5452
vn -0.9904 -0.1292 0.0496
vn 0.9901 -0.1313 0.0488
vn -0.8817 -0.4578 0.1140
vn 0.8675 -0.4886 -0.0934
vn -0.8492 -0.4483 0.2792
vn 0.6954 -0.5482 -0.4647
vn 0.0000 -0.8280 0.5607
vn 0.4537 -0.5771 -0.6790
vn -0.1572 -0.5919 -0.7905
vn 0.1572 -0.5919 -0.7905
vn -0.4537 -0.5771 -0.6790
vn 0.8492 -0.4483 0.2792
vn -0.6954 -0.5482 -0.4647
vn -0.9038 -0.4256 0.0446
vn 0.9107 -0.4087 0.0606
vn -0.8675 -0.4886 -0.0934
vn 0.8817 -0.4578 0.1140
vn -0.9244 -0.2305 0.3039
vn 0.6697 -0.5926 -0.4475
vn 0.0000 -0.1271 0.9919
vn 0.4138 -0.6673 -0.6192
vn -0.1391 -0.7009 -0.6995
vn 0.1391 -0.7009 -0.6995
vn -0.4138 -0.6673 -0.6192
vn 0.9244 -0.2305 0.3039
vn -0.6697 -0.5926 -0.4475
vn -0.9543 -0.2921 0.0635
vn 0.9543 -0.2921 0.0635
vn -0.9012 -0.4224 -0.0970
vn 0.9423 -0.3120 0.1218
vn -0.9423 -0.3120 0.1218
vn 0.9012 -0.4224 -0.0970
vn 0.0000 0.0236 0.9997
vn 0.5113 -0.3913 -0.7652
vn -0.1765 -0.4266 -0.8871
vn 0.1765 -0.4266 -0.8871
vn -0.5113 -0.3913 -0.7652
vn 0.9475 -0.0721 0.3115
vn -0.7873 -0.3215 -0.5261
vn -0.9909 -0.1178 0.0659
vn 0.9909 -0.1178 0.0659
vn -0.9756 -0.1929 -0.1050
vn 0.9843 -0.1223 0.1272
vn -0.9843 -0.1223 0.1272
vn 0.9756 -0.1929 -0.1050
vn -0.9475 -0.0721 0.3115
vn 0.7873 -0.3215 -0.5261
vn 0.7977 -0.5338 0.2805
vn -0.7977 -0.5338 0.2805
vn -0.0942 -0.3239 -0.9414
vn 0.8212 -0.5333 -0.2029
vn 0.1275 -0.3157 0.9402
vn -0.1275 -0.3157 0.9402
vn -0.8212 -0.5333 -0.2029
vn 0.0942 -0.3239 -0.9414
vn -0.0995 0.0265 -0.9947
vn 0.9697 0.0488 -0.2396
vn 0.1343 0.0258 0.9906
vn -0.1343 0.0258 0.9906
vn -0.9697 0.0488 -0.2396
vn 0.0995 0.0265 -0.9947
vn 0.9423 0.0488 0.3313
vn -0.9423 0.0488 0.3313
vn -0.7520 0.6039 0.2644
vn -0.0921 0.3801 -0.9204
vn 0.7742 0.6034 -0.1913
vn 0.1248 0.3709 0.9203
vn -0.1248 0.3709 0.9203
vn -0.7742 0.6034 -0.1913
vn 0.0921 0.3801 -0.9204
vn 0.7520 0.6039 0.2644
vn -0.9423 -0.0488 0.3313
vn -0.9434 0.0000 0.3317
vn 0.9423 -0.0488 0.3313
vn 0.9434 0.0000 0.3317
vn 0.0995 -0.0265 -0.9947
vn 0.0996 0.0000 -0.9950
vn -0.9697 -0.0488 -0.2396
vn -0.9708 0.0000 -0.2399
vn -0.1343 -0.0258 0.9906
vn -0.1343 0.0000 0.9909
vn 0.1343 -0.0258 0.9906
vn 0.1343 0.0000 0.9909
vn 0.9697 -0.0488 -0.2396
vn 0.9708 0.0000 -0.2399
vn -0.0995 -0.0265 -0.9947
vn -0.0996 0.0000 -0.9950
vn -0.9828 0.1782 0.0490
vn 0.9833 0.1753 0.0493
vn -0.9901 -0.1313 0.0488
vn 0.9904 -0.1292 0.0496
vn -0.9107 -0.4087 0.0606
vn 0.9038 -0.4256 0.0446
vn -0.7977 -0.5338 0.2804
usemtl None
s off
f 19/1/1 20/2/1 16/3/1
f 28/4/1 29/5/1 18/6/1
f 28/7/2 45/8/2 29/9/2
f 38/10/1 36/11/1 48/12/1
f 22/13/3 37/14/3 38/15/3
f 29/16/4 46/17/4 30/18/4
f 22/13/5 39/19/5 23/20/5
f 31/21/6 46/17/6 47/22/6
f 23/20/7 40/23/7 24/24/7
f 31/21/8 48/25/8 32/26/8
f 24/24/9 41/27/9 25/28/9
f 32/26/10 49/29/10 33/30/10
f 26/31/11 41/32/11 42/33/11
f 33/34/12 50/35/12 34/36/12
f 26/31/13 43/37/13 27/38/13
f 19/39/14 36/40/14 20/41/14
f 34/36/15 35/42/15 19/39/15
f 27/38/16 44/43/16 28/7/16
f 20/41/17 37/44/17 21/45/17
f 14/46/18 63/47/18 64/48/18
f 18/49/19 56/50/19 68/51/19
f 15/52/20 64/48/20 65/53/20
f 7/54/21 58/55/21 8/56/21
f 16/57/22 65/58/22 66/59/22
f 8/56/21 59/60/21 9/61/21
f 1/62/23 52/63/23 2/64/23
f 1/62/24 66/59/24 51/65/24
f 10/66/21 59/60/21 60/67/21
f 2/64/25 53/68/25 3/69/25
f 17/70/26 62/71/26 12/72/26
f 11/73/21 60/67/21 61/74/21
f 3/75/27 54/76/27 4/77/27
f 7/78/28 68/51/28 57/79/28
f 11/80/29 67/81/29 17/70/29
f 4/77/30 55/82/30 5/83/30
f 13/84/31 62/71/31 63/47/31
f 5/83/32 56/50/32 6/85/32
f 55/82/33 72/86/33 73/87/33
f 62/71/34 81/88/34 63/47/34
f 56/50/35 73/87/35 74/89/35
f 63/47/36 82/90/36 64/48/36
f 56/50/37 86/91/37 68/51/37
f 64/48/38 83/92/38 65/53/38
f 58/55/39 75/93/39 76/94/39
f 65/58/40 84/95/40 66/59/40
f 59/60/39 76/94/39 77/96/39
f 52/63/41 69/97/41 70/98/41
f 66/59/42 69/97/42 51/65/42
f 59/60/39 78/99/39 60/67/39
f 53/68/43 70/98/43 71/100/43
f 62/71/44 85/101/44 80/102/44
f 60/67/39 79/103/39 61/74/39
f 54/76/45 71/104/45 72/86/45
f 68/51/46 75/105/46 57/79/46
f 67/81/47 79/106/47 85/101/47
f 74/89/48 91/107/48 92/108/48
f 81/88/49 100/109/49 82/90/49
f 74/89/50 104/110/50 86/91/50
f 82/90/51 101/111/51 83/92/51
f 76/112/52 93/113/52 94/114/52
f 83/115/53 102/116/53 84/95/53
f 77/117/52 94/114/52 95/118/52
f 70/98/54 87/119/54 88/120/54
f 84/95/55 87/119/55 69/97/55
f 77/117/52 96/121/52 78/122/52
f 71/100/56 88/120/56 89/123/56
f 80/102/57 103/124/57 98/125/57
f 78/122/52 97/126/52 79/127/52
f 72/86/58 89/128/58 90/129/58
f 86/91/59 93/130/59 75/105/59
f 85/101/60 97/131/60 103/124/60
f 73/87/61 90/129/61 91/107/61
f 80/102/62 99/132/62 81/88/62
f 104/110/63 110/133/63 122/134/63
f 100/109/64 119/135/64 101/111/64
f 94/136/65 111/137/65 112/138/65
f 101/139/66 120/140/66 102/116/66
f 95/141/65 112/138/65 113/142/65
f 88/120/67 105/143/67 106/144/67
f 102/116/68 105/143/68 87/119/68
f 95/141/65 114/145/65 96/146/65
f 89/123/69 106/144/69 107/147/69
f 103/124/70 116/148/70 98/125/70
f 96/146/65 115/149/65 97/150/65
f 90/129/71 107/151/71 108/152/71
f 93/130/72 122/134/72 111/153/72
f 97/131/73 121/154/73 103/124/73
f 91/107/74 108/152/74 109/155/74
f 98/125/75 117/156/75 99/132/75
f 92/108/76 109/155/76 110/133/76
f 99/132/77 118/157/77 100/109/77
f 112/138/78 129/158/78 130/159/78
f 119/160/79 138/161/79 120/140/79
f 113/142/78 130/159/78 131/162/78
f 106/144/80 123/163/80 124/164/80
f 120/140/81 123/163/81 105/143/81
f 113/142/78 132/165/78 114/145/78
f 107/147/82 124/164/82 125/166/82
f 121/154/83 134/167/83 116/148/83
f 114/145/78 133/168/78 115/149/78
f 108/152/84 125/169/84 126/170/84
f 111/153/85 140/171/85 129/172/85
f 115/173/86 139/174/86 121/154/86
f 109/155/87 126/170/87 127/175/87
f 116/148/88 135/176/88 117/156/88
f 110/133/89 127/175/89 128/177/89
f 117/156/90 136/178/90 118/157/90
f 122/134/91 128/177/91 140/171/91
f 118/157/92 137/179/92 119/135/92
f 143/180/93 150/181/93 142/182/93
f 156/183/94 147/184/94 148/185/94
f 146/186/95 153/187/95 145/188/95
f 152/189/96 143/180/96 144/190/96
f 142/191/97 149/192/97 141/193/97
f 149/192/98 148/194/98 141/193/98
f 147/184/99 154/195/99 146/196/99
f 153/187/100 144/197/100 145/188/100
f 162/198/101 174/199/101 175/200/101
f 179/201/102 159/202/102 178/203/102
f 158/204/103 182/205/103 183/206/103
f 182/205/104 164/207/104 186/208/104
f 163/209/105 175/210/105 187/211/105
f 174/199/106 160/212/106 179/213/106
f 159/202/107 183/214/107 178/203/107
f 186/215/108 163/209/108 187/211/108
f 164/216/109 171/217/109 163/209/109
f 170/218/110 161/219/110 162/198/110
f 160/220/111 167/221/111 159/202/111
f 166/222/112 157/223/112 158/204/112
f 157/223/113 172/224/113 164/207/113
f 171/217/114 162/225/114 163/209/114
f 161/219/115 168/226/115 160/212/115
f 167/221/116 158/227/116 159/202/116
f 169/228/1 171/229/1 165/230/1
f 185/231/117 155/232/117 156/183/117
f 186/215/118 188/233/118 185/231/118
f 151/234/119 184/235/119 150/181/119
f 178/203/120 184/235/120 177/236/120
f 173/237/121 152/238/121 153/187/121
f 174/199/122 180/239/122 173/237/122
f 155/232/123 176/240/123 154/195/123
f 187/211/124 176/240/124 188/233/124
f 181/241/125 156/242/125 149/192/125
f 182/205/126 185/243/126 181/241/126
f 150/244/127 181/241/127 149/192/127
f 183/206/128 181/241/128 184/245/128
f 180/246/129 151/234/129 152/189/129
f 179/201/130 177/236/130 180/246/130
f 154/247/131 173/237/131 153/187/131
f 175/200/132 173/237/132 176/248/132
f 1/249/1 2/250/1 34/251/1
f 3/252/1 4/253/1 33/254/1
f 5/255/1 31/256/1 32/257/1
f 5/255/1 32/257/1 4/253/1
f 16/3/1 1/249/1 19/1/1
f 14/258/1 21/259/1 22/260/1
f 23/261/1 13/262/1 22/260/1
f 22/260/1 13/262/1 14/258/1
f 4/253/1 32/257/1 33/254/1
f 3/252/1 33/254/1 34/251/1
f 14/258/1 15/263/1 21/259/1
f 21/259/1 15/263/1 20/2/1
f 2/250/1 3/252/1 34/251/1
f 1/249/1 34/251/1 19/1/1
f 20/2/1 15/263/1 16/3/1
f 12/264/1 13/262/1 24/265/1
f 13/262/1 23/261/1 24/265/1
f 10/266/1 11/267/1 17/268/1
f 17/268/1 12/264/1 25/269/1
f 12/264/1 24/265/1 25/269/1
f 9/270/1 10/266/1 27/271/1
f 18/6/1 7/272/1 8/273/1
f 8/273/1 9/270/1 27/271/1
f 17/268/1 25/269/1 26/274/1
f 17/268/1 26/274/1 10/266/1
f 18/6/1 8/273/1 28/4/1
f 5/255/1 6/275/1 30/276/1
f 30/276/1 31/256/1 5/255/1
f 29/5/1 30/276/1 6/275/1
f 10/266/1 26/274/1 27/271/1
f 8/273/1 27/271/1 28/4/1
f 29/5/1 6/275/1 18/6/1
f 28/7/2 44/43/2 45/8/2
f 48/12/1 47/277/1 46/278/1
f 46/278/1 45/279/1 48/12/1
f 44/280/1 43/281/1 42/282/1
f 42/282/1 41/283/1 40/284/1
f 40/284/1 39/285/1 38/10/1
f 38/10/1 37/286/1 36/11/1
f 36/11/1 35/287/1 50/288/1
f 50/288/1 49/289/1 48/12/1
f 48/12/1 45/279/1 44/280/1
f 44/280/1 42/282/1 48/12/1
f 40/284/1 38/10/1 48/12/1
f 36/11/1 50/288/1 48/12/1
f 48/12/1 42/282/1 40/284/1
f 22/13/3 21/290/3 37/14/3
f 29/16/4 45/291/4 46/17/4
f 22/13/5 38/15/5 39/19/5
f 31/21/6 30/18/6 46/17/6
f 23/20/7 39/19/7 40/23/7
f 31/21/8 47/22/8 48/25/8
f 24/24/9 40/23/9 41/27/9
f 32/26/10 48/25/10 49/29/10
f 26/31/11 25/292/11 41/32/11
f 33/34/12 49/293/12 50/35/12
f 26/31/13 42/33/13 43/37/13
f 19/39/14 35/42/14 36/40/14
f 34/36/15 50/35/15 35/42/15
f 27/38/16 43/37/16 44/43/16
f 20/41/17 36/40/17 37/44/17
f 14/46/18 13/84/18 63/47/18
f 18/49/19 6/85/19 56/50/19
f 15/52/20 14/46/20 64/48/20
f 7/54/21 57/294/21 58/55/21
f 16/57/22 15/295/22 65/58/22
f 8/56/21 58/55/21 59/60/21
f 1/62/23 51/65/23 52/63/23
f 1/62/24 16/57/24 66/59/24
f 10/66/21 9/61/21 59/60/21
f 2/64/25 52/63/25 53/68/25
f 17/70/26 67/81/26 62/71/26
f 11/73/21 10/66/21 60/67/21
f 3/75/27 53/296/27 54/76/27
f 7/78/133 18/49/133 68/51/133
f 11/80/134 61/297/134 67/81/134
f 4/77/30 54/76/30 55/82/30
f 13/84/31 12/72/31 62/71/31
f 5/83/32 55/82/32 56/50/32
f 55/82/33 54/76/33 72/86/33
f 62/71/34 80/102/34 81/88/34
f 56/50/35 55/82/35 73/87/35
f 63/47/36 81/88/36 82/90/36
f 56/50/37 74/89/37 86/91/37
f 64/48/38 82/90/38 83/92/38
f 58/55/39 57/294/39 75/93/39
f 65/58/40 83/115/40 84/95/40
f 59/60/39 58/55/39 76/94/39
f 52/63/41 51/65/41 69/97/41
f 66/59/42 84/95/42 69/97/42
f 59/60/39 77/96/39 78/99/39
f 53/68/43 52/63/43 70/98/43
f 62/71/44 67/81/44 85/101/44
f 60/67/39 78/99/39 79/103/39
f 54/76/45 53/296/45 71/104/45
f 68/51/135 86/91/135 75/105/135
f 67/81/136 61/297/136 79/106/136
f 74/89/48 73/87/48 91/107/48
f 81/88/49 99/132/49 100/109/49
f 74/89/50 92/108/50 104/110/50
f 82/90/51 100/109/51 101/111/51
f 76/112/52 75/298/52 93/113/52
f 83/115/53 101/139/53 102/116/53
f 77/117/52 76/112/52 94/114/52
f 70/98/54 69/97/54 87/119/54
f 84/95/55 102/116/55 87/119/55
f 77/117/52 95/118/52 96/121/52
f 71/100/56 70/98/56 88/120/56
f 80/102/57 85/101/57 103/124/57
f 78/122/52 96/121/52 97/126/52
f 72/86/58 71/104/58 89/128/58
f 86/91/137 104/110/137 93/130/137
f 85/101/138 79/106/138 97/131/138
f 73/87/61 72/86/61 90/129/61
f 80/102/62 98/125/62 99/132/62
f 104/110/63 92/108/63 110/133/63
f 100/109/64 118/157/64 119/135/64
f 94/136/65 93/299/65 111/137/65
f 101/139/66 119/160/66 120/140/66
f 95/141/65 94/136/65 112/138/65
f 88/120/67 87/119/67 105/143/67
f 102/116/68 120/140/68 105/143/68
f 95/141/65 113/142/65 114/145/65
f 89/123/69 88/120/69 106/144/69
f 103/124/70 121/154/70 116/148/70
f 96/146/65 114/145/65 115/149/65
f 90/129/71 89/128/71 107/151/71
f 93/130/72 104/110/72 122/134/72
f 97/131/73 115/173/73 121/154/73
f 91/107/74 90/129/74 108/152/74
f 98/125/75 116/148/75 117/156/75
f 92/108/76 91/107/76 109/155/76
f 99/132/77 117/156/77 118/157/77
f 112/138/78 111/137/78 129/158/78
f 119/160/79 137/300/79 138/161/79
f 113/142/78 112/138/78 130/159/78
f 106/144/80 105/143/80 123/163/80
f 120/140/81 138/161/81 123/163/81
f 113/142/78 131/162/78 132/165/78
f 107/147/82 106/144/82 124/164/82
f 121/154/83 139/174/83 134/167/83
f 114/145/78 132/165/78 133/168/78
f 108/152/84 107/151/84 125/169/84
f 111/153/85 122/134/85 140/171/85
f 115/173/86 133/301/86 139/174/86
f 109/155/87 108/152/87 126/170/87
f 116/148/88 134/167/88 135/176/88
f 110/133/89 109/155/89 127/175/89
f 117/156/90 135/176/90 136/178/90
f 122/134/91 110/133/91 128/177/91
f 118/157/92 136/178/92 137/179/92
f 143/180/93 151/234/93 150/181/93
f 156/183/139 155/232/139 147/184/139
f 146/186/95 154/247/95 153/187/95
f 152/189/96 151/234/96 143/180/96
f 142/191/97 150/244/97 149/192/97
f 149/192/98 156/242/98 148/194/98
f 147/184/99 155/232/99 154/195/99
f 153/187/100 152/238/100 144/197/100
f 162/198/101 161/219/101 174/199/101
f 179/201/102 160/220/102 159/202/102
f 158/204/103 157/223/103 182/205/103
f 182/205/104 157/223/104 164/207/104
f 163/209/105 162/225/105 175/210/105
f 174/199/106 161/219/106 160/212/106
f 159/202/107 158/227/107 183/214/107
f 186/215/108 164/216/108 163/209/108
f 164/216/109 172/302/109 171/217/109
f 170/218/110 169/303/110 161/219/110
f 160/220/111 168/304/111 167/221/111
f 166/222/112 165/305/112 157/223/112
f 157/223/113 165/305/113 172/224/113
f 171/217/114 170/306/114 162/225/114
f 161/219/115 169/303/115 168/226/115
f 167/221/116 166/307/116 158/227/116
f 165/230/1 166/308/1 167/309/1
f 167/309/1 168/310/1 169/228/1
f 169/228/1 170/311/1 171/229/1
f 171/229/1 172/312/1 165/230/1
f 165/230/1 167/309/1 169/228/1
f 185/231/117 188/233/117 155/232/117
f 186/215/118 187/211/118 188/233/118
f 151/234/119 177/236/119 184/235/119
f 178/203/120 183/214/120 184/235/120
f 173/237/121 180/239/121 152/238/121
f 174/199/122 179/213/122 180/239/122
f 155/232/123 188/233/123 176/240/123
f 187/211/124 175/210/124 176/240/124
f 181/241/125 185/243/125 156/242/125
f 182/205/126 186/208/126 185/243/126
f 150/244/127 184/245/127 181/241/127
f 183/206/128 182/205/128 181/241/128
f 180/246/129 177/236/129 151/234/129
f 179/201/130 178/203/130 177/236/130
f 154/247/131 176/248/131 173/237/131
f 175/200/132 174/199/132 173/237/132
