# Blender v2.78 (sub 0) OBJ File: ''
# www.blender.org
mtllib window.mtl
o Cube.021_Cube.023
v 4.238947 0.954841 -0.051619
v 4.238947 2.217687 -0.051619
v 4.238947 0.954841 -1.427609
v 4.238947 2.217687 -1.427609
v 4.389414 0.954841 -0.051619
v 4.389414 2.217687 -0.051619
v 4.389414 0.954841 -1.427609
v 4.389414 2.217687 -1.427609
v 4.389414 1.019724 -0.122314
v 4.389414 2.152805 -0.122314
v 4.389414 1.019724 -1.356913
v 4.389414 2.152805 -1.356913
v 4.238947 1.019724 -0.122314
v 4.238947 2.152805 -0.122314
v 4.238947 1.019724 -1.356913
v 4.238947 2.152805 -1.356913
v 4.256513 1.008427 -0.712559
v 4.256513 2.164101 -0.712559
v 4.256513 1.008427 -0.766668
v 4.256513 2.164101 -0.766668
v 4.371848 1.008427 -0.712559
v 4.371848 2.164101 -0.712559
v 4.371848 1.008427 -0.766668
v 4.371848 2.164101 -0.766668
v 4.256513 1.420999 -0.712559
v 4.256513 1.475127 -0.712559
v 4.256513 1.475127 -0.766668
v 4.256513 1.420999 -0.766668
v 4.371848 1.475127 -0.766668
v 4.371848 1.420999 -0.766668
v 4.371848 1.475127 -0.712559
v 4.371848 1.420999 -0.712559
v 4.256513 1.420999 -0.108334
v 4.256513 1.475127 -0.108334
v 4.371848 1.475127 -0.108334
v 4.371848 1.420999 -0.108334
v 4.256513 1.475127 -1.370893
v 4.256513 1.420999 -1.370893
v 4.371848 1.475127 -1.370893
v 4.371848 1.420999 -1.370893
vt -0.9813 0.6899
vt 0.5198 0.6063
vt 0.6011 0.6899
vt -2.5637 0.6899
vt -0.9813 -0.9369
vt -0.9813 0.6899
vt -2.5637 -0.9369
vt -2.4824 -2.4801
vt -2.4824 -1.0204
vt -0.9813 -2.5637
vt 0.6011 -0.9369
vt -0.9813 -0.9369
vt 0.6011 -0.9369
vt 2.1834 -2.5637
vt 2.1834 -0.9369
vt -0.9813 2.3167
vt -2.5637 0.6899
vt -0.9813 0.6899
vt 3.4406 0.6899
vt 2.0208 2.3167
vt 2.0208 0.6899
vt -1.0626 -1.0204
vt -0.9813 -2.5637
vt -2.5637 -2.5637
vt -1.0626 -2.4801
vt 2.0208 -0.9369
vt 0.6011 0.6899
vt 0.6011 -0.9369
vt 0.4385 0.6899
vt -0.9813 2.3167
vt -0.9813 0.6899
vt 3.4406 -0.9369
vt 2.0208 0.6899
vt 2.0208 -0.9369
vt 0.5198 -0.8533
vt 0.6011 -0.9369
vt -0.9813 -0.9369
vt -0.9000 -0.8533
vt -0.9000 0.6063
vt 2.0208 1.8835
vt 1.4310 1.2323
vt 1.4795 1.1921
vt 2.1834 -1.3167
vt 3.0467 -2.5637
vt 3.0467 -1.3167
vt 1.9723 1.9236
vt 1.4795 2.6552
vt 1.4310 2.6150
vt -2.5637 3.5636
vt -1.7004 2.3167
vt -1.7004 3.5636
vt 3.2326 2.3167
vt 2.7157 3.5637
vt 2.7157 2.3167
vt 1.4370 1.1378
vt 2.0208 0.7442
vt 1.3885 2.6694
vt 1.1129 3.1235
vt 1.0644 3.0834
vt 1.4370 2.7095
vt 3.0467 -1.3167
vt 3.5637 -2.5637
vt 3.5637 -1.3167
vt 0.8472 1.6258
vt 1.3885 1.1779
vt 1.0644 0.7639
vt 1.1129 0.7238
vt 0.4084 3.5636
vt -0.2865 2.3167
vt 0.4084 2.3167
vt -1.0055 3.5636
vt -1.7004 2.3167
vt -1.0055 2.3167
vt 1.9783 3.1574
vt 2.0208 2.3167
vt 2.7157 3.5637
vt 2.0208 3.5637
vt -0.9813 2.3167
vt -0.2865 3.5636
vt -0.9813 3.5636
vt 0.8898 2.1671
vt 0.6011 -2.5637
vt 0.6011 -2.5637
vt -2.5637 2.3167
vt 3.4406 2.3167
vt 2.0208 0.6899
vt 0.4385 2.3167
vt 3.4406 0.6899
vt 1.9723 1.9236
vt 2.1834 -2.5637
vt 2.0208 1.9638
vt -2.5637 2.3167
vt 3.2326 3.5637
vt 1.9783 0.6899
vt 3.0467 -2.5637
vt 0.8898 1.6802
vt -0.2865 3.5636
vt -1.7004 3.5636
vt 2.0208 3.1031
vt 2.7157 2.3167
vt -0.2865 2.3167
vt 0.8472 2.2215
vn -1.0000 0.0000 0.0000
vn 0.0000 0.0000 -1.0000
vn 1.0000 0.0000 0.0000
vn 0.0000 0.0000 1.0000
vn 0.0000 -1.0000 0.0000
vn 0.0000 1.0000 0.0000
usemtl None
s off
f 2/1/1 13/2/1 1/3/1
f 4/4/2 7/5/2 3/6/2
f 8/7/3 10/8/3 12/9/3
f 6/10/4 1/11/4 5/12/4
f 7/13/5 1/14/5 3/15/5
f 4/16/6 6/17/6 8/18/6
f 10/19/5 16/20/5 12/21/5
f 8/7/3 11/22/3 7/5/3
f 5/23/3 10/8/3 6/24/3
f 7/5/3 9/25/3 5/23/3
f 12/26/4 15/27/4 11/28/4
f 9/29/2 14/30/2 10/31/2
f 11/32/6 13/33/6 9/34/6
f 1/3/1 15/35/1 3/36/1
f 15/35/1 4/37/1 3/36/1
f 2/1/1 16/38/1 14/39/1
f 18/40/1 27/41/1 26/42/1
f 20/43/2 29/44/2 27/45/2
f 24/46/3 31/47/3 29/48/3
f 22/49/4 26/50/4 31/51/4
f 32/52/4 17/53/4 21/54/4
f 25/55/1 34/56/1 26/42/1
f 30/57/3 21/58/3 23/59/3
f 29/48/3 32/60/3 30/57/3
f 28/61/2 23/62/2 19/63/2
f 27/41/1 38/64/1 28/65/1
f 25/55/1 19/66/1 17/67/1
f 26/42/1 28/65/1 25/55/1
f 32/68/5 33/69/5 25/70/5
f 26/71/6 35/72/6 31/73/6
f 31/47/3 36/74/3 32/60/3
f 28/75/5 40/76/5 30/77/5
f 29/78/6 37/79/6 27/80/6
f 30/57/3 39/81/3 29/48/3
f 2/1/1 14/39/1 13/2/1
f 4/4/2 8/7/2 7/5/2
f 8/7/3 6/24/3 10/8/3
f 6/10/4 2/82/4 1/11/4
f 7/13/5 5/83/5 1/14/5
f 4/16/6 2/84/6 6/17/6
f 10/19/5 14/85/5 16/20/5
f 8/7/3 12/9/3 11/22/3
f 5/23/3 9/25/3 10/8/3
f 7/5/3 11/22/3 9/25/3
f 12/26/4 16/86/4 15/27/4
f 9/29/2 13/87/2 14/30/2
f 11/32/6 15/88/6 13/33/6
f 1/3/1 13/2/1 15/35/1
f 15/35/1 16/38/1 4/37/1
f 2/1/1 4/37/1 16/38/1
f 18/40/1 20/89/1 27/41/1
f 20/43/2 24/90/2 29/44/2
f 24/46/3 22/91/3 31/47/3
f 22/49/4 18/92/4 26/50/4
f 32/52/4 25/93/4 17/53/4
f 25/55/1 33/94/1 34/56/1
f 30/57/3 32/60/3 21/58/3
f 29/48/3 31/47/3 32/60/3
f 28/61/2 30/95/2 23/62/2
f 27/41/1 37/96/1 38/64/1
f 25/55/1 28/65/1 19/66/1
f 26/42/1 27/41/1 28/65/1
f 32/68/5 36/97/5 33/69/5
f 26/71/6 34/98/6 35/72/6
f 31/47/3 35/99/3 36/74/3
f 28/75/5 38/100/5 40/76/5
f 29/78/6 39/101/6 37/79/6
f 30/57/3 40/102/3 39/81/3
