# Blender v2.78 (sub 0) OBJ File: ''
# www.blender.org
mtllib Residential Building 03 windows.mtl
o Residential_Buildings_003.000_Cube.013
v -6.885031 5.633248 0.628219
v -6.885031 4.357290 0.628219
v -6.885031 5.633248 1.738446
v -6.885031 4.357291 1.738446
v 5.264971 4.357291 1.738448
v 5.264971 4.357291 0.628219
v 5.264971 5.633249 1.738448
v 5.264971 5.633248 0.628219
v 5.264971 4.357290 -3.528218
v 5.264971 4.357290 -4.638447
v 5.264971 5.633248 -3.528218
v 5.264971 5.633247 -4.638448
v -6.915630 3.495270 8.933332
v -6.915630 7.095270 8.933332
v -6.915630 3.495270 5.366666
v -6.915630 7.095270 5.366666
v 5.294011 7.042402 5.366666
v 5.294011 3.495270 5.366667
v 5.294011 7.042402 8.933332
v 5.294011 3.495271 8.933332
v -6.700028 7.046174 -5.737538
v -6.700028 7.046173 -7.662465
v -6.700028 3.544362 -5.737538
v -6.700028 3.544362 -7.662465
v 5.079971 3.544363 -5.737534
v 5.079971 7.046174 -5.737535
v 5.079971 7.046174 -7.662465
v 5.079971 3.544362 -7.662465
v -6.885031 9.233252 0.628218
v -6.885031 7.957294 0.628218
v -6.885031 9.233252 1.738446
v -6.885031 7.957295 1.738446
v 5.264971 7.957295 1.738448
v 5.264971 7.957295 0.628218
v 5.264971 9.233253 1.738448
v 5.264971 9.233253 0.628218
v 5.264971 7.957294 -3.528219
v 5.264971 7.957294 -4.638448
v 5.264971 9.233252 -3.528219
v 5.264971 9.233252 -4.638448
v -6.915630 7.095274 8.933332
v -6.915630 10.695274 8.933331
v -6.915630 7.095274 5.366665
v -6.915630 10.695273 5.366665
v 5.294011 10.642406 5.366665
v 5.294011 7.095274 5.366666
v 5.294011 10.642406 8.933331
v 5.294011 7.095275 8.933332
v -6.700028 10.646178 -5.737539
v -6.700028 10.646178 -7.662466
v -6.700028 7.144366 -5.737538
v -6.700028 7.144366 -7.662465
v 5.079971 7.144367 -5.737535
v 5.079971 10.646178 -5.737535
v 5.079971 10.646178 -7.662466
v 5.079971 7.144366 -7.662465
v -6.885031 12.833256 0.628218
v -6.885031 11.557299 0.628218
v -6.885031 12.833256 1.738445
v -6.885031 11.557299 1.738445
v 5.264971 11.557299 1.738447
v 5.264971 11.557299 0.628218
v 5.264971 12.833257 1.738447
v 5.264971 12.833257 0.628218
v 5.264971 11.557298 -3.528219
v 5.264971 11.557298 -4.638449
v 5.264971 12.833256 -3.528219
v 5.264971 12.833256 -4.638449
v -6.915630 10.695279 8.933331
v -6.915630 14.295279 8.933331
v -6.915630 10.695278 5.366664
v -6.915630 14.295278 5.366665
v 5.294011 14.242410 5.366665
v 5.294011 10.695279 5.366665
v 5.294011 14.242411 8.933331
v 5.294011 10.695280 8.933331
v -6.700028 14.246182 -5.737540
v -6.700028 14.246182 -7.662467
v -6.700028 10.744370 -5.737539
v -6.700028 10.744370 -7.662466
v 5.079971 10.744370 -5.737535
v 5.079971 14.246182 -5.737536
v 5.079971 14.246182 -7.662467
v 5.079971 10.744370 -7.662466
v -6.885031 16.433260 0.628217
v -6.885031 15.157303 0.628217
v -6.885031 16.433260 1.738445
v -6.885031 15.157303 1.738445
v 5.264971 15.157303 1.738447
v 5.264971 15.157303 0.628217
v 5.264971 16.433260 1.738446
v 5.264971 16.433260 0.628217
v 5.264971 15.157302 -3.528220
v 5.264971 15.157302 -4.638449
v 5.264971 16.433260 -3.528220
v 5.264971 16.433260 -4.638450
v -6.915630 14.295283 8.933331
v -6.915630 17.895283 8.933331
v -6.915630 14.295282 5.366664
v -6.915630 17.895281 5.366664
v 5.294011 17.842413 5.366664
v 5.294011 14.295283 5.366665
v 5.294011 17.842415 8.933331
v 5.294011 14.295284 8.933331
v -6.700028 17.846188 -5.737540
v -6.700028 17.846186 -7.662467
v -6.700028 14.344375 -5.737540
v -6.700028 14.344375 -7.662467
v 5.079971 14.344375 -5.737536
v 5.079971 17.846188 -5.737536
v 5.079971 17.846186 -7.662467
v 5.079971 14.344375 -7.662467
v -6.385029 2.233244 7.628216
v -6.385029 0.957287 7.628217
v -6.385029 2.233244 8.738444
v -6.385029 0.957287 8.738444
v -6.385029 0.957287 7.138444
v -6.385029 2.233244 7.138443
v -6.385029 0.957286 6.028216
v -6.385029 2.233244 6.028216
v -6.385029 2.233243 2.028216
v -6.385029 0.957286 2.028216
v -6.385029 2.233243 3.138444
v -6.385029 0.957286 3.138445
v 4.371402 2.953455 -9.782002
v -5.991457 2.953455 -9.782002
v 4.371402 1.535279 -9.782001
v -5.991457 1.535279 -9.782001
v 4.774972 2.820264 -5.080002
v 4.774972 0.470264 -5.080002
v 4.774971 2.820266 8.829997
v 4.774971 0.470266 8.829997
v 4.769972 3.011930 -5.750002
v 4.769972 2.178597 -5.750002
v 4.769972 3.011930 -7.150002
v 4.769972 2.178597 -7.150002
v -6.885031 20.033264 0.628215
v -6.885031 18.757307 0.628216
v -6.885031 20.033264 1.738443
v -6.885031 18.757307 1.738443
v 5.264971 18.757307 1.738445
v 5.264971 18.757307 0.628216
v 5.264971 20.033264 1.738445
v 5.264971 20.033264 0.628215
v 5.264971 18.757307 -3.528221
v 5.264971 18.757307 -4.638451
v 5.264971 20.033264 -3.528222
v 5.264971 20.033264 -4.638451
v -6.700028 21.446190 -5.737541
v -6.700028 21.446188 -7.662467
v -6.700028 17.944380 -5.737540
v -6.700028 17.944378 -7.662467
v 5.079971 17.944380 -5.737536
v 5.079971 21.446192 -5.737537
v 5.079971 21.446190 -7.662467
v 5.079971 17.944378 -7.662467
v -6.679364 22.039404 -7.613106
v 5.059305 22.039404 -7.613106
v 5.059305 22.039406 -5.786900
v -6.679364 22.039406 -5.786903
v 5.290473 21.442417 5.366663
v 5.290473 17.895285 5.366663
v 5.290473 21.442419 8.933329
v 5.290473 17.895287 8.933330
v -6.910030 17.895287 8.933330
v -6.910030 21.495287 8.933329
v -6.910030 17.895285 5.366663
v -6.910030 21.495285 5.366663
v 5.394011 3.531284 8.883927
v 5.394011 3.531284 5.416071
v -6.935030 4.357290 0.628219
v -6.935030 4.357291 1.738446
v -6.935030 5.633248 1.738446
v -6.935030 5.633248 0.628219
v 5.314972 4.357290 -4.638447
v 5.314971 4.357290 -3.528218
v 5.314972 5.633247 -4.638448
v 5.314971 5.633248 -3.528218
v 5.314971 4.357291 0.628219
v 5.314971 4.357291 1.738448
v 5.314971 5.633248 0.628219
v 5.314971 5.633249 1.738448
v 5.394011 6.992403 8.883927
v 5.394011 6.992402 5.416071
v -7.015630 3.495270 8.891913
v -7.015630 3.495270 5.408085
v -7.015630 7.045270 5.408085
v -7.015630 7.045270 8.891913
v -6.720029 3.544362 -7.662465
v -6.720029 3.544362 -5.737538
v -6.720029 7.046173 -7.662465
v -6.720029 7.046174 -5.737538
v 5.099970 7.046174 -7.662465
v 5.099970 7.046174 -5.737535
v 5.099970 3.544362 -7.662465
v 5.099970 3.544363 -5.737534
v 5.394011 7.131288 8.883927
v 5.394011 7.131288 5.416071
v -6.935030 7.957294 0.628218
v -6.935030 7.957295 1.738446
v -6.935030 9.233252 1.738446
v -6.935030 9.233252 0.628218
v 5.314972 7.957294 -4.638448
v 5.314971 7.957294 -3.528219
v 5.314972 9.233252 -4.638448
v 5.314971 9.233252 -3.528219
v 5.314971 7.957295 0.628218
v 5.314971 7.957295 1.738448
v 5.314971 9.233253 0.628218
v 5.314971 9.233253 1.738448
v 5.394011 10.592407 8.883926
v 5.394011 10.592406 5.416070
v -7.015630 7.095274 8.891913
v -7.015630 7.095274 5.408084
v -7.015630 10.645274 5.408084
v -7.015630 10.645275 8.891912
v -6.720029 7.144366 -7.662465
v -6.720029 7.144366 -5.737538
v -6.720029 10.646178 -7.662466
v -6.720029 10.646178 -5.737539
v 5.099970 10.646178 -7.662466
v 5.099970 10.646178 -5.737535
v 5.099970 7.144366 -7.662465
v 5.099970 7.144367 -5.737535
v 5.394011 10.731293 8.883926
v 5.394011 10.731292 5.416070
v -6.935030 11.557299 0.628218
v -6.935030 11.557299 1.738445
v -6.935030 12.833256 1.738445
v -6.935030 12.833256 0.628218
v 5.314972 11.557298 -4.638449
v 5.314971 11.557298 -3.528219
v 5.314972 12.833256 -4.638449
v 5.314971 12.833256 -3.528219
v 5.314971 11.557299 0.628218
v 5.314971 11.557299 1.738447
v 5.314971 12.833257 0.628218
v 5.314971 12.833257 1.738447
v 5.394011 14.192411 8.883926
v 5.394011 14.192410 5.416070
v -7.015630 10.695279 8.891912
v -7.015630 10.695278 5.408083
v -7.015630 14.245278 5.408084
v -7.015630 14.245279 8.891912
v -6.720029 10.744370 -7.662466
v -6.720029 10.744370 -5.737539
v -6.720029 14.246182 -7.662467
v -6.720029 14.246182 -5.737540
v 5.099970 14.246182 -7.662467
v 5.099970 14.246182 -5.737536
v 5.099970 10.744370 -7.662466
v 5.099970 10.744370 -5.737535
v 5.394011 14.331297 8.883926
v 5.394011 14.331296 5.416070
v -6.935030 15.157303 0.628217
v -6.935030 15.157303 1.738445
v -6.935030 16.433260 1.738445
v -6.935030 16.433260 0.628217
v 5.314972 15.157302 -4.638449
v 5.314971 15.157302 -3.528220
v 5.314972 16.433260 -4.638450
v 5.314971 16.433260 -3.528220
v 5.314971 15.157303 0.628217
v 5.314971 15.157303 1.738447
v 5.314971 16.433260 0.628217
v 5.314971 16.433260 1.738446
v 5.394011 17.792416 8.883925
v 5.394011 17.792414 5.416069
v -7.015630 14.295283 8.891912
v -7.015630 14.295282 5.408083
v -7.015630 17.845282 5.408083
v -7.015630 17.845284 8.891912
v -6.720029 14.344375 -7.662467
v -6.720029 14.344375 -5.737540
v -6.720029 17.846186 -7.662467
v -6.720029 17.846188 -5.737540
v 5.099970 17.846186 -7.662467
v 5.099970 17.846188 -5.737536
v 5.099970 14.344375 -7.662467
v 5.099970 14.344375 -5.737536
v -6.435029 0.957287 7.628217
v -6.435029 0.957287 8.738444
v -6.435029 2.233244 8.738444
v -6.435029 2.233244 7.628216
v -6.435029 2.233244 6.028216
v -6.435029 2.233244 7.138443
v -6.435029 0.957287 7.138444
v -6.435029 0.957286 6.028216
v -6.435029 0.957286 2.028216
v -6.435029 0.957286 3.138445
v -6.435029 2.233243 3.138444
v -6.435029 2.233243 2.028216
v -5.991457 2.953455 -9.818006
v -5.991457 1.535279 -9.818005
v 4.371402 1.535279 -9.818001
v 4.371402 2.953455 -9.818002
v 4.804971 2.820266 8.829997
v 4.804971 0.470266 8.829997
v 4.804972 2.820264 -5.080002
v 4.804972 0.470264 -5.080002
v 4.809972 3.011930 -7.150002
v 4.809972 2.178597 -7.150002
v 4.809972 3.011930 -5.750002
v 4.809972 2.178597 -5.750002
v -6.935030 18.757307 0.628216
v -6.935030 18.757307 1.738443
v -6.935030 20.033264 1.738443
v -6.935030 20.033264 0.628215
v 5.314972 18.757307 -4.638451
v 5.314971 18.757307 -3.528221
v 5.314972 20.033264 -4.638451
v 5.314971 20.033264 -3.528222
v 5.314971 18.757307 0.628216
v 5.314971 18.757307 1.738445
v 5.314971 20.033264 0.628215
v 5.314971 20.033264 1.738445
v -6.720029 17.944378 -7.662467
v -6.720029 17.944380 -5.737540
v -6.720029 21.446188 -7.662467
v -6.720029 21.446190 -5.737541
v 5.099970 21.446190 -7.662467
v 5.099970 21.446192 -5.737537
v 5.099970 17.944378 -7.662467
v 5.099970 17.944380 -5.737536
v 5.059305 22.074699 -5.786900
v 5.059305 22.074697 -7.613106
v -6.679364 22.074697 -7.613106
v -6.679364 22.074699 -5.786903
v 5.390473 17.926016 8.902277
v 5.390473 21.392420 8.902276
v 5.390473 21.392418 5.397716
v 5.390473 17.926014 5.397716
v -7.010030 17.907616 8.908158
v -7.010030 17.907614 5.391834
v -7.010030 21.445286 5.391835
v -7.010030 21.445288 8.908157
vt 1.0000 0.0000
vt 0.0000 1.0000
vt 0.0000 0.0000
vt 0.0000 0.0000
vt 1.0000 1.0000
vt 0.0000 1.0000
vt 1.0000 0.0000
vt 0.0000 1.0000
vt 0.0000 0.0000
vt 1.0000 0.0000
vt 0.0000 1.0000
vt 0.0000 0.0000
vt 1.0000 0.0000
vt 0.0000 1.0000
vt 0.0000 0.0000
vt 1.0000 0.0000
vt 0.0000 1.0000
vt 0.0000 0.0000
vt 1.0000 0.0000
vt 0.0000 1.0000
vt 0.0000 0.0000
vt 1.0000 0.0000
vt 0.0000 1.0000
vt 0.0000 0.0000
vt 1.0000 0.0000
vt 0.0000 1.0000
vt 0.0000 0.0000
vt 0.0000 0.0000
vt 1.0000 1.0000
vt 0.0000 1.0000
vt 0.0000 0.0000
vt 1.0000 1.0000
vt 0.0000 1.0000
vt 1.0000 0.0000
vt 0.0000 1.0000
vt 0.0000 0.0000
vt 1.0000 0.0000
vt 0.0000 1.0000
vt 0.0000 0.0000
vt 0.0000 0.0000
vt 1.0000 1.0000
vt 0.0000 1.0000
vt 1.0000 0.0000
vt 0.0000 1.0000
vt 0.0000 0.0000
vt 1.0000 0.0000
vt 0.0000 1.0000
vt 0.0000 0.0000
vt 1.0000 0.0000
vt 0.0000 1.0000
vt 0.0000 0.0000
vt 0.0000 0.0000
vt 1.0000 1.0000
vt 0.0000 1.0000
vt 0.0000 0.0000
vt 1.0000 1.0000
vt 0.0000 1.0000
vt 1.0000 0.0000
vt 0.0000 1.0000
vt 0.0000 0.0000
vt 1.0000 0.0000
vt 0.0000 1.0000
vt 0.0000 0.0000
vt 1.0000 0.0000
vt 0.0000 1.0000
vt 0.0000 0.0000
vt 1.0000 0.0000
vt 0.0000 1.0000
vt 0.0000 0.0000
vt 1.0000 0.0000
vt 0.0000 1.0000
vt 0.0000 0.0000
vt 1.0000 0.0000
vt 0.0000 1.0000
vt 0.0000 0.0000
vt 1.0000 0.0000
vt 0.0000 1.0000
vt 0.0000 0.0000
vt 0.0000 0.0000
vt 1.0000 1.0000
vt 0.0000 1.0000
vt 1.0000 0.0000
vt 0.0000 1.0000
vt 0.0000 0.0000
vt 0.0000 0.0000
vt 1.0000 1.0000
vt 0.0000 1.0000
vt 1.0000 0.0000
vt 0.0000 1.0000
vt 0.0000 0.0000
vt 1.0000 0.0000
vt 0.0000 1.0000
vt 0.0000 0.0000
vt 0.0000 1.0000
vt 1.0000 0.0000
vt 1.0000 1.0000
vt 1.0000 0.0000
vt 0.0000 1.0000
vt 0.0000 0.0000
vt 1.0000 0.0000
vt 0.0000 1.0000
vt 0.0000 0.0000
vt 1.0000 0.0000
vt 0.0000 1.0000
vt 0.0000 0.0000
vt 1.0000 0.0000
vt 0.0000 1.0000
vt 0.0000 0.0000
vt 1.0000 0.0000
vt 0.0000 1.0000
vt 0.0000 0.0000
vt 1.0000 0.0000
vt 0.0000 1.0000
vt 0.0000 0.0000
vt 0.0000 0.0000
vt 1.0000 1.0000
vt 0.0000 1.0000
vt 0.0000 1.0000
vt 1.0000 0.0000
vt 1.0000 1.0000
vt 1.0000 0.0000
vt 0.0000 1.0000
vt 0.0000 0.0000
vt 0.0000 0.0000
vt 1.0000 1.0000
vt 0.0000 1.0000
vt 1.0000 1.0000
vt 1.0000 0.0000
vt 1.0000 1.0000
vt 1.0000 1.0000
vt 1.0000 1.0000
vt 1.0000 1.0000
vt 1.0000 1.0000
vt 1.0000 1.0000
vt 1.0000 1.0000
vt 1.0000 0.0000
vt 1.0000 0.0000
vt 1.0000 1.0000
vt 1.0000 1.0000
vt 1.0000 0.0000
vt 1.0000 1.0000
vt 1.0000 1.0000
vt 1.0000 1.0000
vt 1.0000 0.0000
vt 1.0000 0.0000
vt 1.0000 1.0000
vt 1.0000 1.0000
vt 1.0000 1.0000
vt 1.0000 1.0000
vt 1.0000 1.0000
vt 1.0000 1.0000
vt 1.0000 1.0000
vt 1.0000 0.0000
vt 1.0000 1.0000
vt 1.0000 0.0000
vt 1.0000 1.0000
vt 1.0000 1.0000
vt 0.0000 0.0000
vt 1.0000 1.0000
vt 1.0000 1.0000
vt 1.0000 1.0000
vt 1.0000 1.0000
vt 1.0000 1.0000
vt 1.0000 1.0000
vt 1.0000 0.0000
vt 0.0000 0.0000
vt 1.0000 1.0000
vt 1.0000 0.0000
vt 1.0000 0.0000
vt 0.0000 1.0000
vt 0.0000 0.0000
vt 1.0000 0.0000
vt 0.0000 1.0000
vt 0.0000 0.0000
vt 1.0000 0.0000
vt 0.0000 1.0000
vt 0.0000 0.0000
vt 0.0000 0.0000
vt 1.0000 1.0000
vt 0.0000 1.0000
vt 1.0000 0.0000
vt 0.0000 1.0000
vt 0.0000 0.0000
vt 0.0000 0.0000
vt 1.0000 1.0000
vt 0.0000 1.0000
vt 1.0000 0.0000
vt 0.0000 1.0000
vt 0.0000 0.0000
vt 1.0000 0.0000
vt 0.0000 1.0000
vt 0.0000 0.0000
vt 1.0000 0.0000
vt 0.0000 1.0000
vt 0.0000 0.0000
vt 1.0000 0.0000
vt 0.0000 1.0000
vt 0.0000 0.0000
vt 1.0000 0.0000
vt 0.0000 1.0000
vt 0.0000 0.0000
vt 1.0000 0.0000
vt 0.0000 1.0000
vt 0.0000 0.0000
vt 1.0000 0.0000
vt 0.0000 1.0000
vt 0.0000 0.0000
vt 1.0000 0.0000
vt 0.0000 1.0000
vt 0.0000 0.0000
vt 1.0000 0.0000
vt 0.0000 1.0000
vt 0.0000 0.0000
vt 0.0000 0.0000
vt 1.0000 1.0000
vt 0.0000 1.0000
vt 1.0000 0.0000
vt 0.0000 1.0000
vt 0.0000 0.0000
vt 0.0000 0.0000
vt 1.0000 1.0000
vt 0.0000 1.0000
vt 1.0000 0.0000
vt 0.0000 1.0000
vt 0.0000 0.0000
vt 1.0000 0.0000
vt 0.0000 1.0000
vt 0.0000 0.0000
vt 1.0000 0.0000
vt 0.0000 1.0000
vt 0.0000 0.0000
vt 1.0000 0.0000
vt 0.0000 1.0000
vt 0.0000 0.0000
vt 0.0000 0.0000
vt 1.0000 1.0000
vt 0.0000 1.0000
vt 0.0000 0.0000
vt 1.0000 1.0000
vt 0.0000 1.0000
vt 0.0000 0.0000
vt 1.0000 1.0000
vt 0.0000 1.0000
vt 1.0000 0.0000
vt 0.0000 1.0000
vt 0.0000 0.0000
vt 0.0000 0.0000
vt 1.0000 1.0000
vt 0.0000 1.0000
vt 1.0000 0.0000
vt 0.0000 1.0000
vt 0.0000 0.0000
vt 0.0000 0.0000
vt 1.0000 1.0000
vt 0.0000 1.0000
vt 1.0000 0.0000
vt 0.0000 1.0000
vt 0.0000 0.0000
vt 1.0000 0.0000
vt 0.0000 1.0000
vt 0.0000 0.0000
vt 1.0000 0.0000
vt 0.0000 1.0000
vt 0.0000 0.0000
vt 1.0000 0.0000
vt 0.0000 1.0000
vt 0.0000 0.0000
vt 0.0000 0.0000
vt 1.0000 1.0000
vt 0.0000 1.0000
vt 1.0000 0.0000
vt 0.0000 1.0000
vt 0.0000 0.0000
vt 0.0000 0.0000
vt 1.0000 1.0000
vt 0.0000 1.0000
vt 0.0000 0.0000
vt 1.0000 1.0000
vt 0.0000 1.0000
vt 0.0000 0.0000
vt 1.0000 1.0000
vt 0.0000 1.0000
vt 0.0000 0.0000
vt 1.0000 1.0000
vt 0.0000 1.0000
vt 1.0000 0.0000
vt 0.0000 1.0000
vt 0.0000 0.0000
vt 1.0000 0.0000
vt 0.0000 1.0000
vt 0.0000 0.0000
vt 0.0000 0.0000
vt 1.0000 1.0000
vt 0.0000 1.0000
vt 1.0000 1.0000
vt 1.0000 1.0000
vt 1.0000 1.0000
vt 1.0000 0.0000
vt 1.0000 1.0000
vt 1.0000 0.0000
vt 1.0000 1.0000
vt 1.0000 1.0000
vt 1.0000 1.0000
vt 1.0000 1.0000
vt 1.0000 1.0000
vt 1.0000 1.0000
vt 1.0000 1.0000
vt 1.0000 1.0000
vt 1.0000 1.0000
vt 1.0000 0.0000
vt 1.0000 1.0000
vt 1.0000 0.0000
vt 1.0000 1.0000
vt 1.0000 1.0000
vt 1.0000 1.0000
vt 1.0000 1.0000
vt 1.0000 0.0000
vt 1.0000 0.0000
vt 1.0000 0.0000
vt 1.0000 1.0000
vt 1.0000 0.0000
vt 1.0000 1.0000
vt 1.0000 0.0000
vt 1.0000 1.0000
vt 1.0000 1.0000
vt 1.0000 1.0000
vt 1.0000 1.0000
vt 1.0000 0.0000
vt 1.0000 1.0000
vt 1.0000 0.0000
vt 1.0000 0.0000
vt 1.0000 0.0000
vt 1.0000 0.0000
vt 1.0000 1.0000
vt 1.0000 1.0000
vt 1.0000 0.0000
vn -1.0000 -0.0000 0.0000
vn 1.0000 -0.0000 0.0000
vn 0.0000 -0.0000 -1.0000
vn 0.0000 1.0000 0.0000
vn 0.0000 0.0000 1.0000
vn -0.0000 -1.0000 0.0000
usemtl hotel_glas.000
s 1
f 171/1/1 173/2/1 174/3/1
f 180/4/2 181/5/2 182/6/2
f 175/7/2 178/8/2 176/9/2
f 188/10/1 186/11/1 185/12/1
f 190/13/1 191/14/1 189/15/1
f 195/16/2 194/17/2 196/18/2
f 169/19/2 184/20/2 183/21/2
f 199/22/1 201/23/1 202/24/1
f 207/25/2 210/26/2 208/27/2
f 204/28/2 205/29/2 206/30/2
f 213/31/1 215/32/1 214/33/1
f 218/34/1 219/35/1 217/36/1
f 223/37/2 222/38/2 224/39/2
f 211/40/2 198/41/2 212/42/2
f 227/43/1 229/44/1 230/45/1
f 235/46/2 238/47/2 236/48/2
f 231/49/2 234/50/2 232/51/2
f 241/52/1 243/53/1 242/54/1
f 245/55/1 248/56/1 247/57/1
f 251/58/2 250/59/2 252/60/2
f 225/61/2 240/62/2 239/63/2
f 255/64/1 257/65/1 258/66/1
f 263/67/2 266/68/2 264/69/2
f 259/70/2 262/71/2 260/72/2
f 272/73/1 270/74/1 269/75/1
f 274/76/1 275/77/1 273/78/1
f 280/79/2 277/80/2 278/81/2
f 253/82/2 268/83/2 267/84/2
f 284/85/1 282/86/1 283/87/1
f 288/88/1 286/89/1 285/90/1
f 289/91/1 291/92/1 292/93/1
f 293/94/3 295/95/3 294/96/3
f 299/97/2 298/98/2 300/99/2
f 301/100/2 304/101/2 302/102/2
f 305/103/1 307/104/1 308/105/1
f 313/106/2 316/107/2 314/108/2
f 309/109/2 312/110/2 310/111/2
f 318/112/1 319/113/1 317/114/1
f 324/115/2 321/116/2 322/117/2
f 325/118/4 327/119/4 328/120/4
f 329/121/2 331/122/2 330/123/2
f 333/124/1 335/125/1 334/126/1
f 171/1/1 172/127/1 173/2/1
f 180/4/2 179/128/2 181/5/2
f 175/7/2 177/129/2 178/8/2
f 188/10/1 187/130/1 186/11/1
f 190/13/1 192/131/1 191/14/1
f 195/16/2 193/132/2 194/17/2
f 169/19/2 170/133/2 184/20/2
f 199/22/1 200/134/1 201/23/1
f 207/25/2 209/135/2 210/26/2
f 204/28/2 203/136/2 205/29/2
f 213/31/1 216/137/1 215/32/1
f 218/34/1 220/138/1 219/35/1
f 223/37/2 221/139/2 222/38/2
f 211/40/2 197/140/2 198/41/2
f 227/43/1 228/141/1 229/44/1
f 235/46/2 237/142/2 238/47/2
f 231/49/2 233/143/2 234/50/2
f 241/52/1 244/144/1 243/53/1
f 245/55/1 246/145/1 248/56/1
f 251/58/2 249/146/2 250/59/2
f 225/61/2 226/147/2 240/62/2
f 255/64/1 256/148/1 257/65/1
f 263/67/2 265/149/2 266/68/2
f 259/70/2 261/150/2 262/71/2
f 272/73/1 271/151/1 270/74/1
f 274/76/1 276/152/1 275/77/1
f 280/79/2 279/153/2 277/80/2
f 253/82/2 254/154/2 268/83/2
f 284/85/1 281/155/1 282/86/1
f 288/88/1 287/156/1 286/89/1
f 289/91/1 290/157/1 291/92/1
f 293/94/3 296/158/3 295/95/3
f 299/97/2 297/159/2 298/98/2
f 301/100/2 303/160/2 304/101/2
f 305/103/1 306/161/1 307/104/1
f 313/106/2 315/162/2 316/107/2
f 309/109/2 311/163/2 312/110/2
f 318/112/1 320/164/1 319/113/1
f 324/115/2 323/165/2 321/116/2
f 325/118/4 326/166/4 327/119/4
f 329/121/2 332/167/2 331/122/2
f 333/124/1 336/168/1 335/125/1
usemtl hotel_glas.012
f 2/169/2 3/170/2 4/171/2
f 5/172/1 8/173/1 6/174/1
f 9/175/1 12/176/1 10/177/1
f 13/178/2 16/179/2 14/180/2
f 17/181/1 20/182/1 19/183/1
f 22/184/2 23/185/2 24/186/2
f 26/187/1 28/188/1 25/189/1
f 30/190/2 31/191/2 32/192/2
f 33/193/1 36/194/1 34/195/1
f 37/196/1 40/197/1 38/198/1
f 43/199/2 42/200/2 41/201/2
f 45/202/1 48/203/1 47/204/1
f 49/205/2 52/206/2 50/207/2
f 54/208/1 56/209/1 53/210/1
f 58/211/2 59/212/2 60/213/2
f 62/214/1 63/215/1 64/216/1
f 65/217/1 68/218/1 66/219/1
f 69/220/2 72/221/2 70/222/2
f 73/223/1 76/224/1 75/225/1
f 77/226/2 80/227/2 78/228/2
f 82/229/1 84/230/1 81/231/1
f 86/232/2 87/233/2 88/234/2
f 90/235/1 91/236/1 92/237/1
f 94/238/1 95/239/1 96/240/1
f 97/241/2 100/242/2 98/243/2
f 101/244/1 104/245/1 103/246/1
f 106/247/2 107/248/2 108/249/2
f 110/250/1 112/251/1 109/252/1
f 116/253/2 113/254/2 115/255/2
f 119/256/2 118/257/2 117/258/2
f 122/259/2 123/260/2 124/261/2
f 127/262/5 126/263/5 128/264/5
f 131/265/1 130/266/1 132/267/1
f 134/268/1 135/269/1 136/270/1
f 138/271/2 139/272/2 140/273/2
f 142/274/1 143/275/1 144/276/1
f 146/277/1 147/278/1 148/279/1
f 150/280/2 151/281/2 152/282/2
f 153/283/1 155/284/1 156/285/1
f 159/286/6 157/287/6 158/288/6
f 161/289/1 164/290/1 163/291/1
f 165/292/2 168/293/2 166/294/2
f 2/169/2 1/295/2 3/170/2
f 5/172/1 7/296/1 8/173/1
f 9/175/1 11/297/1 12/176/1
f 13/178/2 15/298/2 16/179/2
f 17/181/1 18/299/1 20/182/1
f 22/184/2 21/300/2 23/185/2
f 26/187/1 27/301/1 28/188/1
f 30/190/2 29/302/2 31/191/2
f 33/193/1 35/303/1 36/194/1
f 37/196/1 39/304/1 40/197/1
f 43/199/2 44/305/2 42/200/2
f 45/202/1 46/306/1 48/203/1
f 49/205/2 51/307/2 52/206/2
f 54/208/1 55/308/1 56/209/1
f 58/211/2 57/309/2 59/212/2
f 62/214/1 61/310/1 63/215/1
f 65/217/1 67/311/1 68/218/1
f 69/220/2 71/312/2 72/221/2
f 73/223/1 74/313/1 76/224/1
f 77/226/2 79/314/2 80/227/2
f 82/229/1 83/315/1 84/230/1
f 86/232/2 85/316/2 87/233/2
f 90/235/1 89/317/1 91/236/1
f 94/238/1 93/318/1 95/239/1
f 97/241/2 99/319/2 100/242/2
f 101/244/1 102/320/1 104/245/1
f 106/247/2 105/321/2 107/248/2
f 110/250/1 111/322/1 112/251/1
f 116/253/2 114/323/2 113/254/2
f 119/256/2 120/324/2 118/257/2
f 122/259/2 121/325/2 123/260/2
f 127/262/5 125/326/5 126/263/5
f 131/265/1 129/327/1 130/266/1
f 134/268/1 133/328/1 135/269/1
f 138/271/2 137/329/2 139/272/2
f 142/274/1 141/330/1 143/275/1
f 146/277/1 145/331/1 147/278/1
f 150/280/2 149/332/2 151/281/2
f 153/283/1 154/333/1 155/284/1
f 159/286/6 160/334/6 157/287/6
f 161/289/1 162/335/1 164/290/1
f 165/292/2 167/336/2 168/293/2
