# Blender MTL File: 'Residential Buildings 001.obj'
# Material Count: 2

newmtl ground.001
Ns 96.078431
Ka 1.000000 1.000000 1.000000
Kd 0.640000 0.640000 0.640000
Ks 0.500000 0.500000 0.500000
Ke 0.000000 0.000000 0.000000
Ni 1.000000
d 1.000000
illum 2
map_Bump -bm 0.350042 -s 10.000000 10.000000 1.000000 C:\\Users\\DH\\Desktop\\Residential Buildings Set\\textures\\Steel_N.jpg
map_Kd C:\\Users\\DH\\Desktop\\Residential Buildings Set\\textures\\Hotel_Hous_AO.png
map_Ks C:\\Users\\DH\\Desktop\\Residential Buildings Set\\textures\\Steel_S.jpg

newmtl hotel_glas.001
Ns 96.078431
Ka 1.000000 1.000000 1.000000
Kd 0.640000 0.640000 0.640000
Ks 0.000000 0.000000 0.000000
Ke 0.000000 0.000000 0.000000
Ni 1.000000
d 0.300000
illum 1
map_Kd -s 0.800000 0.800000 1.000000 C:\\Users\\DH\\Desktop\\Residential Buildings Set\\textures\\REF 1.jpg
