info face="Sylfaen" size=75 bold=0 italic=0 charset="" unicode=0 stretchH=100 smooth=1 aa=1 padding=3,3,3,3 spacing=-2,-2
common lineHeight=104 base=67 scaleW=512 scaleH=512 pages=1 packed=0
page id=0 file="SylfaenPL.png"
chars count=108
char id=10      x=0    y=0    width=0    height=0    xoffset=0    yoffset=0    xadvance=0    page=0    chnl=0 
char id=32      x=0    y=0    width=0    height=0    xoffset=-3   yoffset=52   xadvance=23   page=0    chnl=0 
char id=33      x=495  y=86   width=16   height=58   xoffset=2    yoffset=1    xadvance=24   page=0    chnl=0 
char id=34      x=406  y=450  width=22   height=24   xoffset=2    yoffset=0    xadvance=30   page=0    chnl=0 
char id=35      x=116  y=393  width=42   height=54   xoffset=-2   yoffset=4    xadvance=42   page=0    chnl=0 
char id=36      x=95   y=86   width=37   height=69   xoffset=0    yoffset=-4   xadvance=41   page=0    chnl=0 
char id=37      x=342  y=86   width=67   height=61   xoffset=-2   yoffset=-1   xadvance=67   page=0    chnl=0 
char id=38      x=0    y=218  width=57   height=60   xoffset=0    yoffset=-1   xadvance=59   page=0    chnl=0 
char id=39      x=428  y=450  width=13   height=24   xoffset=2    yoffset=0    xadvance=20   page=0    chnl=0 
char id=40      x=31   y=0    width=24   height=76   xoffset=1    yoffset=-2   xadvance=28   page=0    chnl=0 
char id=41      x=55   y=0    width=24   height=76   xoffset=-1   yoffset=-2   xadvance=29   page=0    chnl=0 
char id=42      x=362  y=450  width=27   height=26   xoffset=-2   yoffset=1    xadvance=27   page=0    chnl=0 
char id=43      x=461  y=393  width=39   height=41   xoffset=-1   yoffset=17   xadvance=41   page=0    chnl=0 
char id=44      x=389  y=450  width=17   height=25   xoffset=1    yoffset=43   xadvance=23   page=0    chnl=0 
char id=45      x=56   y=491  width=27   height=10   xoffset=1    yoffset=30   xadvance=33   page=0    chnl=0 
char id=46      x=0    y=491  width=15   height=15   xoffset=2    yoffset=44   xadvance=23   page=0    chnl=0 
char id=47      x=195  y=86   width=31   height=65   xoffset=-4   yoffset=-2   xadvance=27   page=0    chnl=0 
char id=48      x=411  y=158  width=39   height=60   xoffset=-1   yoffset=-1   xadvance=41   page=0    chnl=0 
char id=49      x=249  y=278  width=31   height=58   xoffset=3    yoffset=0    xadvance=42   page=0    chnl=0 
char id=50      x=280  y=278  width=40   height=58   xoffset=-2   yoffset=0    xadvance=42   page=0    chnl=0 
char id=51      x=286  y=218  width=38   height=59   xoffset=0    yoffset=0    xadvance=41   page=0    chnl=0 
char id=52      x=320  y=278  width=41   height=58   xoffset=-2   yoffset=0    xadvance=41   page=0    chnl=0 
char id=53      x=361  y=278  width=37   height=58   xoffset=-2   yoffset=1    xadvance=40   page=0    chnl=0 
char id=54      x=332  y=158  width=40   height=60   xoffset=-1   yoffset=-1   xadvance=41   page=0    chnl=0 
char id=55      x=398  y=278  width=39   height=58   xoffset=0    yoffset=1    xadvance=42   page=0    chnl=0 
char id=56      x=324  y=218  width=39   height=59   xoffset=-1   yoffset=0    xadvance=41   page=0    chnl=0 
char id=57      x=372  y=158  width=39   height=60   xoffset=-1   yoffset=0    xadvance=41   page=0    chnl=0 
char id=58      x=206  y=450  width=15   height=40   xoffset=2    yoffset=19   xadvance=23   page=0    chnl=0 
char id=59      x=194  y=393  width=16   height=49   xoffset=1    yoffset=19   xadvance=22   page=0    chnl=0 
char id=60      x=257  y=450  width=34   height=39   xoffset=1    yoffset=18   xadvance=42   page=0    chnl=0 
char id=61      x=441  y=450  width=39   height=22   xoffset=-1   yoffset=26   xadvance=41   page=0    chnl=0 
char id=62      x=291  y=450  width=34   height=39   xoffset=3    yoffset=18   xadvance=42   page=0    chnl=0 
char id=63      x=450  y=158  width=30   height=60   xoffset=0    yoffset=-1   xadvance=33   page=0    chnl=0 
char id=64      x=132  y=86   width=63   height=68   xoffset=0    yoffset=5    xadvance=67   page=0    chnl=0 
char id=65      x=57   y=218  width=59   height=59   xoffset=-3   yoffset=-1   xadvance=58   page=0    chnl=0 
char id=66      x=437  y=278  width=46   height=57   xoffset=0    yoffset=1    xadvance=50   page=0    chnl=0 
char id=67      x=409  y=86   width=48   height=60   xoffset=0    yoffset=-1   xadvance=53   page=0    chnl=0 
char id=68      x=0    y=336  width=54   height=57   xoffset=0    yoffset=1    xadvance=58   page=0    chnl=0 
char id=69      x=54   y=336  width=44   height=57   xoffset=0    yoffset=1    xadvance=48   page=0    chnl=0 
char id=70      x=363  y=218  width=42   height=58   xoffset=0    yoffset=0    xadvance=45   page=0    chnl=0 
char id=71      x=0    y=158  width=55   height=60   xoffset=0    yoffset=-1   xadvance=58   page=0    chnl=0 
char id=72      x=98   y=336  width=57   height=57   xoffset=0    yoffset=1    xadvance=61   page=0    chnl=0 
char id=73      x=483  y=278  width=27   height=57   xoffset=0    yoffset=1    xadvance=31   page=0    chnl=0 
char id=74      x=320  y=0    width=29   height=73   xoffset=-3   yoffset=0    xadvance=28   page=0    chnl=0 
char id=75      x=155  y=336  width=53   height=57   xoffset=0    yoffset=1    xadvance=54   page=0    chnl=0 
char id=76      x=208  y=336  width=43   height=57   xoffset=0    yoffset=1    xadvance=45   page=0    chnl=0 
char id=77      x=405  y=218  width=70   height=58   xoffset=-1   yoffset=1    xadvance=72   page=0    chnl=0 
char id=78      x=0    y=278  width=58   height=58   xoffset=-2   yoffset=1    xadvance=58   page=0    chnl=0 
char id=79      x=55   y=158  width=57   height=60   xoffset=0    yoffset=-1   xadvance=61   page=0    chnl=0 
char id=80      x=58   y=278  width=45   height=58   xoffset=0    yoffset=0    xadvance=48   page=0    chnl=0 
char id=82      x=297  y=336  width=52   height=57   xoffset=0    yoffset=1    xadvance=53   page=0    chnl=0 
char id=83      x=457  y=86   width=38   height=60   xoffset=0    yoffset=-1   xadvance=41   page=0    chnl=0 
char id=84      x=103  y=278  width=49   height=58   xoffset=-2   yoffset=1    xadvance=49   page=0    chnl=0 
char id=85      x=152  y=278  width=58   height=58   xoffset=-2   yoffset=1    xadvance=58   page=0    chnl=0 
char id=87      x=116  y=218  width=83   height=59   xoffset=-3   yoffset=1    xadvance=82   page=0    chnl=0 
char id=89      x=349  y=336  width=55   height=57   xoffset=-2   yoffset=1    xadvance=55   page=0    chnl=0 
char id=90      x=404  y=336  width=47   height=57   xoffset=-1   yoffset=1    xadvance=50   page=0    chnl=0 
char id=91      x=232  y=0    width=20   height=74   xoffset=4    yoffset=-2   xadvance=29   page=0    chnl=0 
char id=92      x=226  y=86   width=31   height=65   xoffset=-4   yoffset=-2   xadvance=27   page=0    chnl=0 
char id=93      x=252  y=0    width=20   height=74   xoffset=1    yoffset=-2   xadvance=29   page=0    chnl=0 
char id=94      x=325  y=450  width=37   height=36   xoffset=0    yoffset=-1   xadvance=42   page=0    chnl=0 
char id=95      x=83   y=491  width=44   height=10   xoffset=-3   yoffset=58   xadvance=42   page=0    chnl=0 
char id=96      x=480  y=450  width=20   height=20   xoffset=5    yoffset=1    xadvance=42   page=0    chnl=0 
char id=97      x=270  y=393  width=36   height=41   xoffset=-1   yoffset=18   xadvance=37   page=0    chnl=0 
char id=98      x=257  y=86   width=43   height=61   xoffset=-3   yoffset=-2   xadvance=43   page=0    chnl=0 
char id=99      x=306  y=393  width=35   height=41   xoffset=-1   yoffset=18   xadvance=37   page=0    chnl=0 
char id=100     x=300  y=86   width=42   height=61   xoffset=-1   yoffset=-2   xadvance=43   page=0    chnl=0 
char id=101     x=341  y=393  width=36   height=41   xoffset=-1   yoffset=18   xadvance=38   page=0    chnl=0 
char id=102     x=112  y=158  width=34   height=60   xoffset=-2   yoffset=-2   xadvance=28   page=0    chnl=0 
char id=103     x=146  y=158  width=39   height=60   xoffset=-1   yoffset=18   xadvance=40   page=0    chnl=0 
char id=104     x=185  y=158  width=46   height=60   xoffset=-2   yoffset=-2   xadvance=47   page=0    chnl=0 
char id=105     x=487  y=336  width=24   height=57   xoffset=-1   yoffset=1    xadvance=26   page=0    chnl=0 
char id=106     x=10   y=0    width=21   height=77   xoffset=-4   yoffset=1    xadvance=23   page=0    chnl=0 
char id=107     x=231  y=158  width=45   height=60   xoffset=-2   yoffset=-2   xadvance=45   page=0    chnl=0 
char id=108     x=276  y=158  width=25   height=60   xoffset=-2   yoffset=-2   xadvance=25   page=0    chnl=0 
char id=109     x=64   y=450  width=64   height=40   xoffset=-1   yoffset=18   xadvance=65   page=0    chnl=0 
char id=110     x=128  y=450  width=45   height=40   xoffset=-1   yoffset=18   xadvance=46   page=0    chnl=0 
char id=111     x=377  y=393  width=39   height=41   xoffset=-1   yoffset=18   xadvance=41   page=0    chnl=0 
char id=112     x=199  y=218  width=42   height=59   xoffset=-2   yoffset=18   xadvance=43   page=0    chnl=0 
char id=114     x=173  y=450  width=33   height=40   xoffset=-1   yoffset=18   xadvance=32   page=0    chnl=0 
char id=115     x=241  y=393  width=29   height=42   xoffset=-1   yoffset=17   xadvance=31   page=0    chnl=0 
char id=116     x=210  y=393  width=31   height=47   xoffset=-3   yoffset=12   xadvance=29   page=0    chnl=0 
char id=117     x=416  y=393  width=45   height=41   xoffset=-3   yoffset=18   xadvance=44   page=0    chnl=0 
char id=119     x=0    y=450  width=64   height=41   xoffset=-3   yoffset=18   xadvance=62   page=0    chnl=0 
char id=121     x=241  y=218  width=45   height=59   xoffset=-3   yoffset=19   xadvance=44   page=0    chnl=0 
char id=122     x=221  y=450  width=36   height=39   xoffset=-1   yoffset=19   xadvance=38   page=0    chnl=0 
char id=123     x=138  y=0    width=25   height=75   xoffset=-1   yoffset=-2   xadvance=28   page=0    chnl=0 
char id=124     x=0    y=0    width=10   height=86   xoffset=4    yoffset=-6   xadvance=23   page=0    chnl=0 
char id=125     x=163  y=0    width=25   height=75   xoffset=-1   yoffset=-2   xadvance=28   page=0    chnl=0 
char id=126     x=15   y=491  width=41   height=15   xoffset=-2   yoffset=1    xadvance=42   page=0    chnl=0 
char id=211     x=349  y=0    width=57   height=73   xoffset=0    yoffset=-14  xadvance=61   page=0    chnl=0 
char id=243     x=210  y=278  width=39   height=58   xoffset=-1   yoffset=1    xadvance=41   page=0    chnl=0 
char id=260     x=79   y=0    width=59   height=75   xoffset=-3   yoffset=-1   xadvance=57   page=0    chnl=0 
char id=261     x=451  y=336  width=36   height=57   xoffset=-1   yoffset=18   xadvance=37   page=0    chnl=0 
char id=262     x=272  y=0    width=48   height=73   xoffset=0    yoffset=-14  xadvance=53   page=0    chnl=0 
char id=263     x=475  y=218  width=35   height=58   xoffset=-1   yoffset=1    xadvance=37   page=0    chnl=0 
char id=280     x=188  y=0    width=44   height=74   xoffset=0    yoffset=1    xadvance=48   page=0    chnl=0 
char id=281     x=0    y=393  width=35   height=57   xoffset=-1   yoffset=18   xadvance=38   page=0    chnl=0 
char id=321     x=251  y=336  width=46   height=57   xoffset=-3   yoffset=1    xadvance=45   page=0    chnl=0 
char id=322     x=301  y=158  width=31   height=60   xoffset=-4   yoffset=-2   xadvance=26   page=0    chnl=0 
char id=323     x=444  y=0    width=58   height=72   xoffset=-2   yoffset=-13  xadvance=58   page=0    chnl=0 
char id=324     x=35   y=393  width=45   height=57   xoffset=-1   yoffset=1    xadvance=46   page=0    chnl=0 
char id=346     x=406  y=0    width=38   height=73   xoffset=0    yoffset=-14  xadvance=41   page=0    chnl=0 
char id=347     x=480  y=158  width=29   height=58   xoffset=-1   yoffset=1    xadvance=31   page=0    chnl=0 
char id=377     x=0    y=86   width=47   height=72   xoffset=-1   yoffset=-14  xadvance=50   page=0    chnl=0 
char id=378     x=80   y=393  width=36   height=57   xoffset=-1   yoffset=1    xadvance=38   page=0    chnl=0 
char id=379     x=47   y=86   width=48   height=69   xoffset=-1   yoffset=-11  xadvance=51   page=0    chnl=0 
char id=380     x=158  y=393  width=36   height=53   xoffset=-1   yoffset=5    xadvance=38   page=0    chnl=0 
kernings count=0
